Date	Open	High	Low	Close	Volume	Ex-Dividend	Split Ratio	Adj. Open	Adj. High	Adj. Low	Adj. Close	Adj. Volume	+/-	% change	
2016-07-01	61.52	62.0115	61.16	61.26	14214829.0	0.48	1.0	60.3984124738277	60.88095180625432	60.0449757298326	60.14315260316457	14214829.0	-	-0.422626788036	
2016-07-05	60.45	60.6	59.1	59.55	23356834.0	0.0	1.0	59.347919929175625	59.49518523917357	58.022532139194034	58.46432806918789	23356834.0	-	-1.4888337469	
2016-07-06	59.01	60.29	58.76	60.19	20427988.0	0.0	1.0	57.93417295319526	59.190836931844466	57.68873076986533	59.09266005851249	20427988.0	+	1.99966107439	
2016-07-07	60.52	61.14	60.16	60.58	13771417.0	0.0	1.0	59.416643740508	60.02534035516621	59.0632069965129	59.47554986450718	13771417.0	+	0.0991407799075	
2016-07-08	61.33	62.17	61.33	61.83	16998814.0	0.0	1.0	60.21187641449695	61.0365621504855	60.21187641449695	60.7027607811568	16998814.0	+	0.815261699005	
2016-07-11	62.42	62.95	62.14	62.27	13151218.0	0.0	1.0	61.28200433381542	61.80234176247486	61.007109088485905	61.13473902381747	13151218.0	-	-0.24030759372	
2016-07-12	63.03	63.56	62.89	63.2	16587469.0	0.0	1.0	61.88088326114044	62.40122068979988	61.74343563847568	62.04778394580479	16587469.0	+	0.269712835158	
2016-07-13	63.08	63.43	62.64	63.16	18483123.0	0.0	1.0	61.929971697806415	62.273590754468316	61.49799345514575	62.008513196471995	18483123.0	+	0.126823081801	
2016-07-14	64.74	64.98	64.05	64.12	28981089.0	0.0	1.0	63.55970779511711	63.795332291113844	62.88228736912652	62.951011180458906	28981089.0	-	-0.957676861291	
2016-07-15	64.75	64.8	63.61	64.18	17599853.0	0.0	1.0	63.56952548245031	63.61861391911629	62.45030912646586	63.00991730445809	17599853.0	-	-0.880308880309	
2016-07-18	64.13	64.4	63.9	63.96	10824064.0	0.0	1.0	62.960828867792095	63.22590642578842	62.73502205912857	62.793928183127754	10824064.0	-	-0.26508654296	
2016-07-19	63.61	64.1	63.46	63.86	9729926.0	0.0	1.0	62.45030912646586	62.931375805792506	62.303043816467905	62.69575130979578	9729926.0	+	0.393019965414	
2016-07-20	64.11	64.229	63.71	63.93	10404438.0	0.0	1.0	62.94119349312571	63.05802397239075	62.548485999797826	62.764475121128164	10404438.0	-	-0.280767430978	
2016-07-21	64.0	64.18	63.63	63.69	9952550.0	0.0	1.0	62.83319893246054	63.00991730445809	62.469944501132254	62.52885062513143	9952550.0	-	-0.484375	
2016-07-22	63.9	64.09	63.6	64.04	8195688.0	0.0	1.0	62.73502205912857	62.921558118459316	62.440491439132664	62.87246968179333	8195688.0	+	0.219092331768	
2016-07-25	63.98	64.17	63.675	63.87	8167253.0	0.0	1.0	62.81356355779414	63.00009961712489	62.51412409413164	62.70556899712898	8167253.0	-	-0.171928727727	
2016-07-26	63.98	64.26	63.71	64.13	8067291.0	0.0	1.0	62.81356355779414	63.088458803123665	62.548485999797826	62.960828867792095	8067291.0	+	0.234448265083	
2016-07-27	64.08	64.685	64.06	64.33	11798111.0	0.0	1.0	62.91174043112611	63.50571051478453	62.89210505645973	63.15718261445604	11798111.0	+	0.39013732834	
2016-07-28	64.0	64.19	63.72	64.1	10013424.0	0.0	1.0	62.83319893246054	63.01973499179128	62.55830368713102	62.931375805792506	10013424.0	+	0.15625	
2016-07-29	63.8	64.29	63.75	63.97	13210357.0	0.0	1.0	62.636845185796595	63.11791186512326	62.58775674913062	62.80374587046095	13210357.0	+	0.266457680251	
2016-08-01	64.15	64.31	63.61	63.8	11422101.0	0.0	1.0	62.9804642424585	63.13754723978965	62.45030912646586	62.636845185796595	11422101.0	-	-0.545596258769	
2016-08-02	63.59	64.01	63.38	63.65	13550022.0	0.0	1.0	62.43067375179947	62.843016619793744	62.22450231780233	62.48957987579865	13550022.0	+	0.0943544582481	
2016-08-03	63.69	64.67	63.65	64.66	13121588.0	0.0	1.0	62.52885062513143	63.49098398378474	62.48957987579865	63.48116629645153	13121588.0	+	1.52300204114	
2016-08-04	64.49	64.815	64.27	64.56	9872821.0	0.0	1.0	63.314265611787185	63.63334045011609	63.098276490456854	63.382989423119575	9872821.0	+	0.108543960304	
2016-08-05	65.14	66.37	65.07	66.3	20752730.0	0.0	1.0	63.952415288444996	65.15999083042823	63.883691477112606	65.09126701909584	20752730.0	+	1.78077985877	
2016-08-08	66.07	66.485	65.84	66.1	11359174.0	0.0	1.0	64.8654602104323	65.27289423475999	64.63965340176878	64.89491327243189	11359174.0	+	0.0454063871651	
2016-08-09	66.18	66.28	65.69	65.87	10096971.0	0.0	1.0	64.97345477109748	65.07163164442944	64.49238809177082	64.66910646376837	10096971.0	-	-0.468419462073	
2016-08-10	65.92	66.07	65.16	65.28	11556086.0	0.0	1.0	64.71819490043436	64.8654602104323	63.97205066311138	64.08986291110975	11556086.0	-	-0.970873786408	
2016-08-11	65.27	65.69	65.02	65.46	9604549.0	0.0	1.0	64.08004522377655	64.49238809177082	63.83460304044662	64.26658128310729	9604549.0	+	0.291098513865	
2016-08-12	64.97	65.35	64.86	65.32	7684583.0	0.0	1.0	63.78551460378064	64.15858672244212	63.67752004311548	64.12913366044253	7684583.0	+	0.538710173926	
2016-08-15	65.56	65.83	65.46	65.72	8371557.0	0.0	1.0	64.36475815643927	64.62983571443559	64.26658128310729	64.52184115377041	8371557.0	+	0.244051250763	
2016-08-16	65.36	65.96	65.24	65.71	10128856.0	0.0	1.0	64.16840440977532	64.75746564976714	64.05059216177696	64.51202346643721	10128856.0	+	0.535495716034	
2016-08-17	65.8	65.98	65.54	65.89	11867865.0	0.0	1.0	64.600382652436	64.77710102443355	64.34512278177287	64.68874183843477	11867865.0	+	0.136778115502	
2016-08-18	65.62	65.99	65.53	65.95	9313621.0	0.0	1.0	64.42366428043846	64.78691871176673	64.33530509443968	64.74764796243394	9313621.0	+	0.502895458702	
2016-08-19	65.72	65.91	65.22	65.86	9083377.0	0.0	1.0	64.52184115377041	64.70837721310116	64.03095678711057	64.65928877643518	9083377.0	+	0.213024954352	
2016-08-22	65.75	65.88	65.41	65.8	9055631.0	0.0	1.0	64.55129421577001	64.67892415110157	64.2174928464413	64.600382652436	9055631.0	+	0.0760456273764	
2016-08-23	66.07	66.34	65.76	65.77	8949577.0	0.0	1.0	64.8654602104323	65.13053776842864	64.56111190310321	64.57092959043639	8949577.0	-	-0.454063871651	
2016-08-24	65.99	66.23	65.77	65.95	10167179.0	0.0	1.0	64.78691871176673	65.02254320776346	64.57092959043639	64.74764796243394	10167179.0	-	-0.060615244734	
2016-08-25	65.91	66.14	65.79	66.07	9978651.0	0.0	1.0	64.70837721310116	64.9341840217647	64.5905649651028	64.8654602104323	9978651.0	+	0.242755272341	
2016-08-26	66.33	66.88	65.845	66.22	14038597.0	0.0	1.0	65.12072008109543	65.66069288442127	64.64456224543538	65.01272552043027	14038597.0	-	-0.16583747927	
2016-08-29	66.49	67.1	66.46	66.95	14580044.0	0.0	1.0	65.27780307842657	65.87668200575159	65.24835001642698	65.72941669575364	14580044.0	+	0.6918333584	
2016-08-30	66.96	67.595	66.95	67.5	13791126.0	0.0	1.0	65.73923438308684	66.36265752874485	65.72941669575364	66.26938949907948	13791126.0	+	0.806451612903	
2016-08-31	67.46	67.77	66.855	67.5	14952329.0	0.0	1.0	66.23011874974668	66.53446705707579	65.63614866608827	66.26938949907948	14952329.0	+	0.0592943966795	
2016-09-01	67.64	67.72	66.65	67.21	12226517.0	0.0	1.0	66.40683712174423	66.4853786204098	65.43488607575775	65.98467656641675	12226517.0	-	-0.635718509758	
2016-09-02	67.4	67.575	66.98	67.49	13720662.0	0.0	1.0	66.17121262574751	66.34302215407845	65.75886975775323	66.25957181174627	13720662.0	+	0.13353115727	
2016-09-06	67.5	67.55	66.71	67.44	16648771.0	0.0	1.0	66.26938949907948	66.31847793574546	65.49379219975691	66.21048337508029	16648771.0	-	-0.0888888888889	
2016-09-07	67.16	67.5901	66.96	67.16	10069882.0	0.0	1.0	65.93558812975077	66.35784686195159	65.73923438308684	65.93558812975077	10069882.0	-	0.0	
2016-09-08	67.22	67.68	67.0	67.25	12252961.0	0.0	1.0	65.99449425374996	66.44610787107703	65.77850513241962	66.02394731574955	12252961.0	+	0.0446295745314	
2016-09-09	67.03	67.43	66.64	66.65	19686877.0	0.0	1.0	65.80795819441921	66.2006656877471	65.42506838842453	65.43488607575775	19686877.0	-	-0.566910338654	
2016-09-12	66.14	67.3	65.76	67.06	16452983.0	0.0	1.0	64.9341840217647	66.07303575241554	64.56111190310321	65.83741125641882	16452983.0	+	1.39098881161	
2016-09-13	66.11	66.86	65.82	66.53	18876069.0	0.0	1.0	64.9047309597651	65.64105750975487	64.62001802710238	65.31707382775937	18876069.0	+	0.635304795039	
2016-09-14	66.27	67.245	66.21	66.4	12647520.0	0.0	1.0	65.06181395709625	66.01903847208295	65.00290783309707	65.18944389242782	12647520.0	+	0.196167194809	
2016-09-15	66.29	66.93	66.09	66.64	12639449.0	0.0	1.0	65.08144933176266	65.70978132108726	64.88509558509871	65.42506838842453	12639449.0	+	0.527983104541	
2016-09-16	66.09	66.26	65.44	65.82	25159813.0	0.0	1.0	64.88509558509871	65.05199626976305	64.2469459084409	64.62001802710238	25159813.0	-	-0.408533817522	
2016-09-19	66.15	66.64	65.85	66.19	13466874.0	0.0	1.0	64.94400170909789	65.42506838842453	64.64947108910197	64.98327245843068	13466874.0	+	0.0604686318972	
2016-09-20	66.75	66.85	66.24	66.46	10092057.0	0.0	1.0	65.53306294908971	65.63123982242166	65.03236089509666	65.24835001642698	10092057.0	-	-0.434456928839	
2016-09-21	66.84	67.13	66.3099	66.84	14116774.0	0.0	1.0	65.62142213508848	65.90613506775118	65.1009865295557	65.62142213508848	14116774.0	-	0.0	
2016-09-22	66.99	67.42	66.84	67.39	12780743.0	0.0	1.0	65.76868744508643	66.19084800041391	65.62142213508848	66.1613949384143	12780743.0	+	0.59710404538	
2016-09-23	67.39	67.9	67.1766	67.25	13967357.0	0.0	1.0	66.1613949384143	66.66209699240736	65.95188549072388	66.02394731574955	13967357.0	-	-0.207745956373	
2016-09-26	66.6	66.8	65.54	65.78	16408130.0	0.0	1.0	65.38579763909175	65.58215138575568	64.34512278177287	64.5807472777696	16408130.0	-	-1.23123123123	
2016-09-27	65.41	66.405	65.11	66.36	13711386.0	0.0	1.0	64.2174928464413	65.19435273609442	63.9229622264454	65.15017314309502	13711386.0	+	1.45237731234	
2016-09-28	66.58	66.77	65.9939	66.71	11272654.0	0.0	1.0	65.36616226442536	65.55269832375609	64.79074760982668	65.49379219975691	11272654.0	+	0.195253829979	
2016-09-29	66.7	67.21	65.35	65.65	18726692.0	0.0	1.0	65.48397451242373	65.98467656641675	64.15858672244212	64.45311734243805	18726692.0	-	-1.57421289355	
2016-09-30	66.08	67.06	66.08	66.59	21671372.0	0.0	1.0	64.8752778977655	65.83741125641882	64.8752778977655	65.37597995175855	21671372.0	+	0.771791767554	
2016-10-03	66.35	66.92	66.26	66.51	14898676.0	0.0	1.0	65.14035545576182	65.69996363375405	65.05199626976305	65.29743845309298	14898676.0	+	0.241145440844	
2016-10-04	66.21	67.18	66.1	66.6	17226890.0	0.48	1.0	65.47139725892119	66.43057646661119	65.36262435908006	65.8570466310852	17226890.0	+	0.58903488899	
2016-10-05	66.89	68.07	66.8	67.69	16279971.0	0.0	1.0	66.14381154884819	67.31064811078032	66.05481553988726	66.93488718405642	16279971.0	+	1.19599342204	
2016-10-06	67.73	67.97	67.05	67.87	17483910.0	0.0	1.0	66.97444096581684	67.2117636563793	66.30202667588983	67.11287920197827	17483910.0	+	0.206703085782	
2016-10-07	67.79	68.18	67.4	68.11	18496219.0	0.0	1.0	67.03377163845745	67.41942101062148	66.64812226629344	67.35020189254074	18496219.0	+	0.472046024487	
2016-10-10	68.34	69.06	68.23	68.64	13027466.0	0.0	1.0	67.57763613766312	68.28960420935051	67.46886323782198	67.8742895008662	13027466.0	+	0.438981562774	
2016-10-11	68.5	68.82	67.93	68.31	15657104.0	0.0	1.0	67.73585126470476	68.05228151878805	67.1722098746189	67.5479708013428	15657104.0	-	-0.277372262774	
2016-10-12	68.26	68.59	68.05	68.13	11899613.0	0.0	1.0	67.4985285741423	67.82484727366568	67.29087121990013	67.36997878342095	11899613.0	-	-0.190448285965	
2016-10-13	67.46	67.87	66.82	67.74	17890046.0	0.0	1.0	66.70745293893405	67.11287920197827	66.07459243076747	66.98432941125694	17890046.0	+	0.415060776757	
2016-10-14	68.8	69.03	67.3	67.52	24162871.0	0.0	1.0	68.03250462790784	68.25993887303021	66.54923781189241	66.76678361157467	24162871.0	-	-1.86046511628	
2016-10-17	67.42	67.79	66.735	67.17	14963411.0	0.0	1.0	66.66789915717365	67.03377163845745	65.9905406445266	66.42068802117107	14963411.0	-	-0.37080984871	
2016-10-18	67.85	68.21	67.54	67.7	11870286.0	0.0	1.0	67.09310231109806	67.44908634694177	66.78656050245489	66.94477562949653	11870286.0	-	-0.221075902727	
2016-10-19	67.81	68.5	67.81	68.35	12705774.0	0.0	1.0	67.05354852933766	67.73585126470476	67.05354852933766	67.5875245831032	12705774.0	+	0.796342722312	
2016-10-20	68.08	68.68	67.94	68.26	14122005.0	0.0	1.0	67.32053655622043	67.91384328262662	67.182098320059	67.4985285741423	14122005.0	+	0.264394829612	
2016-10-21	67.81	68.53	67.7	68.49	12172607.0	0.0	1.0	67.05354852933766	67.76551660102507	66.94477562949653	67.72596281926465	12172607.0	+	1.00280194662	
2016-10-24	68.97	69.05	68.495	68.87	10197123.0	0.0	1.0	68.2006082003896	68.27971576391042	67.73090704198471	68.10172374598856	10197123.0	-	-0.144990575613	
2016-10-25	68.88	68.93	68.38	68.8	9945050.0	0.0	1.0	68.11161219142866	68.16105441862919	67.61718991942352	68.03250462790784	9945050.0	-	-0.116144018583	
2016-10-26	68.37	69.25	68.37	69.13	9792422.0	0.0	1.0	67.60730147398343	68.47748467271248	67.60730147398343	68.35882332743124	9792422.0	+	1.11159865438	
2016-10-27	69.49	69.77	69.1	69.23	14210699.0	0.0	1.0	68.71480736327494	68.99168383559783	68.32915799111092	68.45770778183227	14210699.0	-	-0.374154554612	
2016-10-28	69.53	69.55	68.465	69.11	12766498.0	0.0	1.0	68.75436114503536	68.77413803591556	67.7012417056644	68.33904643655103	12766498.0	-	-0.60405580325	
2016-10-31	69.43	69.58	69.23	69.26	14336194.0	0.0	1.0	68.65547669063433	68.80380337223586	68.45770778183227	68.48737311815258	14336194.0	-	-0.244850928993	
2016-11-01	69.48	69.78	68.33	68.97	15564491.0	0.0	1.0	68.70491891783485	69.00157228103792	67.56774769222301	68.2006082003896	15564491.0	-	-0.73402417962	
2016-11-02	68.65	68.85	68.01	68.68	12449748.0	0.0	1.0	67.88417794630631	68.08194685510836	67.25131743813972	67.91384328262662	12449748.0	+	0.0436999271668	
2016-11-03	68.86	69.19	68.22	68.38	10369521.0	0.0	1.0	68.09183530054847	68.41815400007185	67.45897479238188	67.61718991942352	10369521.0	-	-0.697066511763	
2016-11-04	68.49	68.56	67.64	67.76	13571306.0	0.0	1.0	67.72596281926465	67.79518193734538	66.8854449568559	67.00410630213715	13571306.0	-	-1.06584902906	
2016-11-07	69.08	69.97	69.0	69.88	16515137.0	0.0	1.0	68.30938110023072	69.18945274439989	68.2302735367099	69.10045673543895	16515137.0	+	1.1580775912	
2016-11-08	69.7	70.545	69.24	70.03	17529098.0	0.0	1.0	68.9224647175171	69.7580383572058	68.46759622727237	69.2487834170405	17529098.0	+	0.473457675753	
2016-11-09	71.46	74.15	71.32	73.25	50948378.0	0.0	1.0	70.6628311149752	73.32282293836289	70.52439287881377	72.43286284875363	50948378.0	+	2.50489784495	
2016-11-10	74.22	77.25	74.22	76.65	56189465.0	0.0	1.0	73.3920420564436	76.38824102479478	73.3920420564436	75.79493429838861	56189465.0	+	3.27405012126	
2016-11-11	76.3	76.725	75.77	76.69	27574323.0	0.0	1.0	75.448838707985	75.86909763918938	74.92475109965955	75.83448808014901	27574323.0	+	0.511140235911	
2016-11-14	77.25	80.44	77.25	79.51	46130653.0	0.0	1.0	76.38824102479478	79.5426551201876	76.38824102479478	78.62302969425804	46130653.0	+	2.92556634304	
2016-11-15	78.37	79.41	77.78	79.36	28126307.0	0.0	1.0	77.49574691408631	78.524145239857	76.91232863312024	78.47470301265649	28126307.0	+	1.26323848411	
2016-11-16	78.22	78.35	76.88	77.4	26037707.0	0.0	1.0	77.34742023248477	77.47597002320609	76.02236854351096	76.53656770639633	26037707.0	-	-1.04832523651	
2016-11-17	78.13	78.455	77.6	78.02	19305607.0	0.0	1.0	77.25842422352383	77.57979870032717	76.73433661519837	77.1496513236827	19305607.0	-	-0.140790989377	
2016-11-18	77.96	78.42	77.55	77.71	19769965.0	0.0	1.0	77.09032065104208	77.54518914128683	76.68489438799786	76.8431095150395	19769965.0	-	-0.320677270395	
2016-11-21	78.0	78.17	77.29	78.05	11983529.0	0.0	1.0	77.1298744328025	77.29797800528425	76.4277948065552	77.17931666000301	11983529.0	+	0.0641025641026	
2016-11-22	78.34	78.555	77.76	78.53	14409108.0	0.0	1.0	77.466081577766	77.67868315472822	76.89255174224003	77.65396204112795	14409108.0	+	0.242532550421	
2016-11-23	78.87	79.24	77.89	78.86	13401187.0	0.0	1.0	77.99016918609145	78.35604166737525	77.02110153296137	77.98028074065134	13401187.0	-	-0.012679092177	
2016-11-25	79.1	79.45	78.47	78.83	6185719.0	0.0	1.0	78.2176034312138	78.56369902161742	77.59463136848733	77.95061540433103	6185719.0	-	-0.341340075853	
2016-11-28	78.18	78.87	78.02	78.32	13007242.0	0.0	1.0	77.30786645072436	77.99016918609145	77.1496513236827	77.44630468688578	13007242.0	+	0.179073931952	
2016-11-29	78.39	79.16	78.39	78.92	14143902.0	0.0	1.0	77.5155238049665	78.27693410385443	77.5155238049665	78.03961141329196	14143902.0	+	0.676106646256	
2016-11-30	79.92	80.53	79.7	80.17	25351594.0	0.0	1.0	79.02845595730226	79.63165112914852	78.81091015761999	79.27566709330482	25351594.0	+	0.312812812813	
2016-12-01	80.65	82.279	80.65	81.79	23820802.0	0.0	1.0	79.75031247442976	81.36114023662252	79.75031247442976	80.8775952546015	23820802.0	+	1.41351518909	
2016-12-02	81.8	81.83	80.9	81.6	16931484.0	0.0	1.0	80.88748370004159	80.9171490363619	79.99752361043234	80.68971479123952	16931484.0	-	-0.244498777506	
2016-12-05	82.3	83.29	82.29	83.26	18529840.0	0.0	1.0	81.38190597204674	82.36086207061693	81.37201752660664	82.33119673429663	18529840.0	+	1.16646415553	
2016-12-06	83.6	83.81	82.43	83.69	16130043.0	0.0	1.0	82.6674038792601	82.87506123350228	81.51045576276809	82.75639988822104	16130043.0	+	0.107655502392	
2016-12-07	83.55	84.09	82.85	84.07	18996905.0	0.0	1.0	82.61796165205959	83.15193770582516	81.92577047125239	83.13216081494494	18996905.0	+	0.622381807301	
2016-12-08	84.23	85.5	83.94	85.12	20837878.0	0.0	1.0	83.2903759419866	84.54620851287966	83.0036110242236	84.17044758615576	20837878.0	+	1.05663065416	
2016-12-09	85.02	85.5	84.14	85.49	14567202.0	0.0	1.0	84.07156313175471	84.54620851287966	83.20137993302566	84.53632006743955	14567202.0	+	0.55281110327	
2016-12-12	85.36	85.79	84.29	84.73	14509120.0	0.0	1.0	84.40777027671822	84.83297343064265	83.34970661462722	83.78479821399175	14509120.0	-	-0.738050609185	
2016-12-13	84.98	85.67	83.82	84.76	16669046.0	0.0	1.0	84.03200934999431	84.71431208536141	82.88494967894236	83.81446355031206	16669046.0	-	-0.258884443398	
2016-12-14	83.88	86.12	83.76	84.73	22620566.0	0.0	1.0	82.94428035158299	85.15929213016605	82.82561900630176	83.78479821399175	22620566.0	+	1.0133524082	
2016-12-15	85.4	86.49	84.9	86.0	19438924.0	0.0	1.0	84.44732405847864	85.52516461144984	83.95290178647349	85.04063078488481	19438924.0	+	0.702576112412	
2016-12-16	86.29	86.29	84.89	84.94	22975690.0	0.0	1.0	85.32739570264779	85.32739570264779	83.94301334103339	83.9924555682339	22975690.0	-	-1.56449182988	
2016-12-19	84.8	85.44	84.19	85.43	21684743.0	0.0	1.0	83.85401733207246	84.48687784023905	83.25082216022618	84.47698939479895	21684743.0	+	0.742924528302	
2016-12-20	85.79	86.54	85.545	86.53	14587310.0	0.0	1.0	84.83297343064265	85.57460683865037	84.59070651736012	85.56471839321026	14587310.0	+	0.862571395268	
2016-12-21	86.43	86.81	86.03	86.75	11393050.0	0.0	1.0	85.46583393880924	85.84159486553314	85.07029612120512	85.78226419289253	11393050.0	+	0.370241814185	
2016-12-22	86.44	87.17	86.21	86.89	13923096.0	0.0	1.0	85.47572238424932	86.19757890137684	85.24828813912696	85.92070242905396	13923096.0	+	0.520592318371	
2016-12-23	87.0	87.15	86.4	87.05	10757783.0	0.0	1.0	86.02947532889509	86.17780201049665	85.43616860248892	86.0789175560956	10757783.0	+	0.0574712643678	
2016-12-27	87.05	87.16	86.75	87.13	6945935.0	0.0	1.0	86.0789175560956	86.18769045593673	85.78226419289253	86.15802511961643	6945935.0	+	0.0919012062033	
2016-12-28	87.16	87.39	86.35	86.5	9454499.0	0.0	1.0	86.18769045593673	86.4151247010591	85.3867263752884	85.53505305688995	9454499.0	-	-0.757228086278	
2016-12-29	86.58	86.67	85.04	85.89	14689042.0	0.0	1.0	85.61416062041077	85.7031566293717	84.09134002263494	84.93185788504367	14689042.0	-	-0.796950796951	
2016-12-30	86.1	86.42	85.66	86.29	13616146.0	0.0	1.0	85.13951523928583	85.45594549336913	84.7044236399213	85.32739570264779	13616146.0	+	0.220673635308	
2017-01-03	87.34	87.76	85.98	87.23	20550714.0	0.0	1.0	86.3656824738586	86.78099718234292	85.0208538940046	86.25690957401747	20550714.0	-	-0.125944584383	
2017-01-04	86.96	87.18	86.4	86.91	15265665.0	0.48	1.0	86.4648399954447	86.68358729074139	85.90802869832594	86.4151247010591	15265665.0	-	-0.057497700092	
2017-01-05	86.81	87.11	85.2589	86.11	14300638.0	0.0	1.0	86.3156941122879	86.61398587860153	84.77342624985765	85.61967999088942	14300638.0	-	-0.806358714434	
2017-01-06	86.39	86.62	85.94	86.12	12893298.0	0.0	1.0	85.89808563944881	86.1267759936226	85.45064798997836	85.62962304976655	12893298.0	-	-0.312536173168	
2017-01-09	85.73	86.77	85.52	86.18	12795648.0	0.0	1.0	85.24184375355883	86.2759218767794	85.03303951713927	85.68928140302927	12795648.0	+	0.524903767643	
2017-01-10	86.07	86.9	85.72	86.43	13989033.0	0.0	1.0	85.57990775538093	86.40518164218199	85.2319006946817	85.9378578749573	13989033.0	+	0.418264203555	
2017-01-11	86.43	87.08	85.91	87.08	14713067.0	0.0	1.0	85.9378578749573	86.58415670197016	85.420818813347	86.58415670197016	14713067.0	+	0.752053685063	
2017-01-12	86.76	87.27	86.02	86.24	21326337.0	0.0	1.0	86.2659788179023	86.77307482063546	85.53019246099532	85.74893975629199	21326337.0	-	-0.599354541263	
2017-01-13	87.11	88.17	86.1	86.7	28284855.0	0.0	1.0	86.61398587860153	87.66795011957636	85.6097369320123	86.20632046463957	28284855.0	-	-0.470669268741	
2017-01-17	84.93	85.22	83.28	83.55	30024625.0	0.0	1.0	84.44639904338915	84.73474775082565	82.80579432866416	83.07425691834644	30024625.0	-	-1.62486753797	
2017-01-18	83.63	84.23	83.03	83.94	21265303.0	0.0	1.0	83.1538013893634	83.75038492199067	82.55721785673614	83.46203621455415	21265303.0	+	0.370680377855	
2017-01-19	84.06	84.67	83.12	83.3	16555554.0	0.0	1.0	83.58135292107961	84.18787951258399	82.64670538663023	82.8256804464184	16555554.0	-	-0.904116107542	
2017-01-20	83.43	83.83	83.285	83.67	18430684.0	0.0	1.0	82.95494021182098	83.35266256690582	82.81076585810273	83.19357362487189	18430684.0	+	0.287666307084	
2017-01-23	83.3	84.0	83.205	83.71	12174801.0	0.0	1.0	82.8256804464184	83.52169456781688	82.73122138708575	83.23334586038037	12174801.0	+	0.492196878752	
2017-01-24	83.92	85.0	83.56	84.72	15175319.0	0.0	1.0	83.4421500967999	84.51600045552898	83.08419997722355	84.2375948069696	15175319.0	+	0.953288846521	
2017-01-25	85.84	86.17	85.17	86.03	17550952.0	0.0	1.0	85.35121740120715	85.67933834415216	84.68503245644004	85.54013551987245	17550952.0	+	0.221342031687	
2017-01-26	85.95	86.95	85.95	86.75	15960894.0	0.0	1.0	85.46059104885549	86.4548969365676	85.46059104885549	86.25603575902517	15960894.0	+	0.930773705643	
2017-01-27	86.66	86.98	86.27	86.93	12534881.0	0.0	1.0	86.16654822913108	86.48472611319896	85.77876893292336	86.43501081881335	12534881.0	+	0.311562427879	
2017-01-30	86.19	86.5	85.32	86.03	13660409.0	0.0	1.0	85.69922446190638	86.00745928709715	84.83417833959685	85.54013551987245	13660409.0	-	-0.185636384731	
2017-01-31	85.6	86.15	84.09	84.63	15640073.0	0.0	1.0	85.11258398815625	85.65945222639792	83.61118209771097	84.1481072770755	15640073.0	-	-1.13317757009	
2017-02-01	85.54	86.1	84.68	84.95	15430058.0	0.0	1.0	85.05292563489353	85.6097369320123	84.19782257146112	84.46628516114339	15430058.0	-	-0.689735796119	
2017-02-02	84.34	84.91	84.16	84.59	11081359.0	0.0	1.0	83.859758569639	84.4265129256349	83.68078350985081	84.10833504156703	11081359.0	+	0.296419255395	
2017-02-03	86.19	87.31	85.865	87.18	17878630.0	0.0	1.0	85.69922446190638	86.81284705614395	85.37607504839995	86.68358729074139	17878630.0	+	1.14862513053	
2017-02-06	86.79	87.45	86.61	86.77	11828361.0	0.0	1.0	86.29580799453366	86.95204988042364	86.11683293474547	86.2759218767794	11828361.0	-	-0.023044129508	
2017-02-07	87.14	87.4	86.48	86.72	9391232.0	0.0	1.0	86.64381505523289	86.90233458603804	85.98757316934291	86.2262065823938	9391232.0	-	-0.481983015837	
2017-02-08	86.18	86.31	85.37	85.96	13970278.0	0.0	1.0	85.68928140302927	85.81854116843185	84.88389363398247	85.4705341077326	13970278.0	-	-0.25527964725	
2017-02-09	86.42	87.33	86.13	87.2	13749123.0	0.0	1.0	85.92791481608018	86.83273317389819	85.63956610864366	86.70347340849563	13749123.0	+	0.902568849803	
2017-02-10	87.48	87.48	86.89	87.0	10992466.0	0.0	1.0	86.98187905705501	86.98187905705501	86.39523858330486	86.5046122309532	10992466.0	-	-0.548696844993	
2017-02-13	87.44	88.74	87.43	88.15	18739103.0	0.0	1.0	86.94210682154652	88.23470447557226	86.9321637626694	87.64806400182212	18739103.0	+	0.811985361391	
2017-02-14	88.3	89.7	88.1063	89.56	17930733.0	0.0	1.0	87.79720988497893	89.18923812777588	87.6046128345291	89.05003530349619	17930733.0	+	1.42695356738	
2017-02-15	90.08	90.87	89.35	90.59	17381807.0	0.0	1.0	89.56707436510648	90.35257601639906	88.84123106707663	90.07417036783966	17381807.0	+	0.566163410302	
2017-02-16	90.4	91.04	89.77	90.53	17672724.0	0.0	1.0	89.88525224917436	90.52160801731011	89.25883953991573	90.01451201457694	17672724.0	+	0.143805309735	
2017-02-17	89.82	90.465	89.69	90.23	15776559.0	0.0	1.0	89.30855483430133	89.94988213187564	89.17929506889875	89.7162202482633	15776559.0	+	0.456468492541	
2017-02-21	90.51	91.15	90.46	91.01	14067806.0	0.0	1.0	89.9946258968227	90.63098166495844	89.94491060243708	90.49177884067875	14067806.0	+	0.552425146393	
2017-02-22	90.52	91.3	90.42	91.06	11838980.0	0.0	1.0	90.00456895569981	90.78012754811525	89.9051383669286	90.54149413506435	11838980.0	+	0.596553247901	
2017-02-23	91.18	91.34	90.52	91.13	11066952.0	0.0	1.0	90.66081084158981	90.81989978362374	90.00456895569981	90.61109554720419	11066952.0	-	-0.0548365869708	
2017-02-24	90.18	90.54	89.73	90.33	15060818.0	0.0	1.0	89.6665049538777	90.02445507345406	89.21906730440725	89.81565083703451	15060818.0	+	0.166333998669	
2017-02-27	90.32	90.725	90.02	90.43	12360378.0	0.0	1.0	89.80570777815738	90.20840166268079	89.50741601184374	89.91508142580572	12360378.0	+	0.121789193977	
2017-02-28	89.845	90.82	89.585	90.62	15182470.0	0.0	1.0	89.33341248149414	90.30286072201343	89.07489295068898	90.10399954447102	15182470.0	+	0.862596694307	
2017-03-01	92.79	93.98	92.61	93.6	24451380.0	0.0	1.0	92.2616433208063	93.4448673271837	92.08266826101811	93.06703108985309	24451380.0	+	0.872938894277	
2017-03-02	93.87	93.92	92.03	92.14	16847601.0	0.0	1.0	93.33549367953536	93.38520897392097	91.50597084614509	91.61534449379342	16847601.0	-	-1.8429743262	
2017-03-03	92.23	93.11	92.19	92.8	12861607.0	0.0	1.0	91.70483202368752	92.57982120487416	91.66505978817902	92.27158637968341	12861607.0	+	0.618020166974	
2017-03-06	92.25	92.32	91.1	91.92	15059178.0	0.0	1.0	91.72471814144176	91.79431955358159	90.58126637057282	91.39659719849676	15059178.0	-	-0.357723577236	
2017-03-07	91.64	92.09	91.21	91.41	11156675.0	0.0	1.0	91.11819154993736	91.56562919940782	90.69064001822116	90.88950119576359	11156675.0	-	-0.250982103885	
2017-03-08	92.68	92.851	91.1	91.21	17378401.0	0.0	1.0	92.15226967315796	92.32229597995672	90.58126637057282	90.69064001822116	17378401.0	-	-1.58610271903	
2017-03-09	91.6	92.14	91.15	91.57	13726237.0	0.0	1.0	91.07841931442887	91.61534449379342	90.63098166495844	91.04859013779752	13726237.0	-	-0.032751091703	
2017-03-10	91.95	92.0	90.53	91.28	13728498.0	0.0	1.0	91.42642637512812	91.47614166951372	90.01451201457694	90.760241430361	13728498.0	-	-0.728656878738	
2017-03-13	91.31	91.78	90.931	91.36	10004297.0	0.0	1.0	90.79007060699237	91.25739437421706	90.41322867554948	90.83978590137798	10004297.0	+	0.0547585149491	
2017-03-14	91.02	91.65	90.765	91.51	10237702.0	0.0	1.0	90.50172189955586	91.12813460881449	90.24817389818928	90.9889317845348	10237702.0	+	0.53834322127	
2017-03-15	91.8	92.55	91.13	91.73	16601394.0	0.0	1.0	91.2772804919713	92.02300990775538	90.61109554720419	91.20767907983146	16601394.0	-	-0.0762527233115	
2017-03-16	92.03	92.8057	91.57	91.64	14492039.0	0.0	1.0	91.50597084614509	92.27725392324336	91.04859013779752	91.11819154993736	14492039.0	-	-0.423774856025	
2017-03-17	91.83	92.04	90.65	90.68	21734743.0	0.0	1.0	91.30710966860266	91.51591390502222	90.13382872110239	90.16365789773376	21734743.0	-	-1.25231405859	
2017-03-20	90.27	91.17	89.79	90.03	14623597.0	0.0	1.0	89.75599248377178	90.65086778271268	89.27872565766998	89.51735907072087	14623597.0	-	-0.265869059488	
2017-03-21	90.36	90.64	87.06	87.39	33089241.0	0.0	1.0	89.84548001366588	90.12388566222526	86.56427058421592	86.89239152716092	33089241.0	-	-3.28685258964	
2017-03-22	86.89	88.07	86.01	87.53	21741025.0	0.0	1.0	86.39523858330486	87.56851953080515	85.52024940211821	87.03159435144062	21741025.0	+	0.736563471055	
2017-03-23	87.21	88.5	87.09	87.39	16090092.0	0.0	1.0	86.71341646737274	87.99607106252135	86.59409976084729	86.89239152716092	16090092.0	+	0.206398348813	
2017-03-24	87.79	88.09	86.77	87.29	16091347.0	0.0	1.0	87.29011388224576	87.5884056485594	86.2759218767794	86.79296093838971	16091347.0	-	-0.569540949994	
2017-03-27	85.53	87.401	85.23	87.24	16689294.0	0.0	1.0	85.0429825760164	86.90332889192575	84.74469080970277	86.74324564400409	16689294.0	+	1.99929849176	
2017-03-28	87.02	89.02	86.98	88.6	16253024.0	0.0	1.0	86.52449834870744	88.51311012413164	86.48472611319896	88.09550165129257	16253024.0	+	1.81567455757	
2017-03-29	88.6	88.82	88.08	88.27	10207578.0	0.0	1.0	88.09550165129257	88.31424894658922	87.57846258968227	87.76738070834757	10207578.0	-	-0.372460496614	
2017-03-30	88.2	89.46	88.12	89.03	11630996.0	0.0	1.0	87.69777929620773	88.95060471472497	87.61823482519075	88.52305318300877	11630996.0	+	0.9410430839	
2017-03-31	88.71	88.7397	87.75	87.84	16987605.0	0.0	1.0	88.20487529894089	88.23440618380594	87.25034164673727	87.33982917663137	16987605.0	-	-0.980723706459	
2017-04-03	87.99	88.17	86.6	87.52	19827340.0	0.0	1.0	87.48897505978817	87.66795011957636	86.10688987586835	87.02165129256349	19827340.0	-	-0.534151608137	
2017-04-04	86.89	87.67	86.715	87.31	14278332.0	0.5	1.0	86.89	87.67	86.715	87.31	14278332.0	+	0.48336977788	
2017-04-05	88.42	88.54	86.13	86.19	17635486.0	0.0	1.0	88.42	88.54	86.13	86.19	17635486.0	-	-2.52205383397	
2017-04-06	85.98	86.91	85.25	86.48	14379588.0	0.0	1.0	85.98	86.91	85.25	86.48	14379588.0	+	0.581530588509	
2017-04-07	85.93	86.81	85.71	86.18	13092979.0	0.0	1.0	85.93	86.81	85.71	86.18	13092979.0	+	0.290934481555	
2017-04-10	86.08	86.69	85.4	85.88	15081616.0	0.0	1.0	86.08	86.69	85.4	85.88	15081616.0	-	-0.232342007435	
2017-04-11	85.54	85.79	84.8	85.73	14687360.0	0.0	1.0	85.54	85.79	84.8	85.73	14687360.0	+	0.222118307225	
2017-04-12	85.93	85.95	85.03	85.4	14730636.0	0.0	1.0	85.93	85.95	85.03	85.4	14730636.0	-	-0.616781100896	
2017-04-13	85.5	86.99	84.4	84.4	30529763.0	0.0	1.0	85.5	86.99	84.4	84.4	30529763.0	-	-1.2865497076	
2017-04-17	84.44	86.08	84.37	85.86	19071650.0	0.0	1.0	84.44	86.08	84.37	85.86	19071650.0	+	1.68166745618	
2017-04-18	85.36	85.63	84.74	85.16	14127049.0	0.0	1.0	85.36	85.63	84.74	85.16	14127049.0	-	-0.234301780694	
2017-04-19	85.5	85.92	84.36	84.46	17588506.0	0.0	1.0	85.5	85.92	84.36	84.46	17588506.0	-	-1.21637426901	
2017-04-20	84.98	85.78	84.55	85.55	15631454.0	0.0	1.0	84.98	85.78	84.55	85.55	15631454.0	+	0.670746057896	
2017-04-21	85.5	85.68	84.51	84.52	19820592.0	0.0	1.0	85.5	85.68	84.51	84.52	19820592.0	-	-1.14619883041	
2017-04-24	86.55	88.05	86.42	87.5	25468285.0	0.0	1.0	86.55	88.05	86.42	87.5	25468285.0	+	1.09763142692	
2017-04-25	88.55	89.13	88.26	88.26	18145138.0	0.0	1.0	88.55	89.13	88.26	88.26	18145138.0	-	-0.327498588368	
2017-04-26	88.35	89.05	88.14	88.43	12743590.0	0.0	1.0	88.35	89.05	88.14	88.43	12743590.0	+	0.0905489530277	
2017-04-27	88.37	88.37	87.01	87.61	13270774.0	0.0	1.0	88.37	88.37	87.01	87.61	13270774.0	-	-0.860020368903	
2017-04-28	87.6	87.85	86.95	87.0	10727966.0	0.0	1.0	87.6	87.85	86.95	87.0	10727966.0	-	-0.684931506849	
2017-05-01	87.36	87.74	86.56	87.06	15683989.0	0.0	1.0	87.36	87.74	86.56	87.06	15683989.0	-	-0.343406593407	
2017-05-02	86.71	86.88	86.02	86.5	14076599.0	0.0	1.0	86.71	86.88	86.02	86.5	14076599.0	-	-0.242186599008	
2017-05-03	86.06	87.1	86.02	87.0	11512592.0	0.0	1.0	86.06	87.1	86.02	87.0	11512592.0	+	1.09226121311	
2017-05-04	87.69	87.73	86.57	87.1	11525880.0	0.0	1.0	87.69	87.73	86.57	87.1	11525880.0	-	-0.672824723458	
2017-05-05	87.25	87.34	86.42	87.0	9362839.0	0.0	1.0	87.25	87.34	86.42	87.0	9362839.0	-	-0.286532951289	
2017-05-08	87.04	87.3198	86.6481	87.1	8160851.0	0.0	1.0	87.04	87.3198	86.6481	87.1	8160851.0	+	0.0689338235294	
2017-05-09	87.26	87.84	86.5	86.75	9670517.0	0.0	1.0	87.26	87.84	86.5	86.75	9670517.0	-	-0.584460233784	
2017-05-10	86.5288	87.48	86.47	87.43	8325404.0	0.0	1.0	86.5288	87.48	86.47	87.43	8325404.0	+	1.04150294468	
2017-05-11	87.09	87.48	86.35	87.16	10771739.0	0.0	1.0	87.09	87.48	86.35	87.16	10771739.0	+	0.0803766218854	
2017-05-12	86.68	87.0484	86.3399	86.92	8612437.0	0.0	1.0	86.68	87.0484	86.3399	86.92	8612437.0	+	0.276880479926	
2017-05-15	87.1	87.49	86.86	87.34	8824015.0	0.0	1.0	87.1	87.49	86.86	87.34	8824015.0	+	0.275545350172	
2017-05-16	87.36	88.09	87.34	87.61	9718751.0	0.0	1.0	87.36	88.09	87.34	87.61	9718751.0	+	0.286172161172	
2017-05-17	86.11	86.39	83.97	84.27	24243226.0	0.0	1.0	86.11	86.39	83.97	84.27	24243226.0	-	-2.13680176518	
2017-05-18	84.07	84.8	83.36	83.96	23316342.0	0.0	1.0	84.07	84.8	83.36	83.96	23316342.0	-	-0.130843344832	
2017-05-19	84.21	85.34	84.15	84.78	13352902.0	0.0	1.0	84.21	85.34	84.15	84.78	13352902.0	+	0.676879230495	
2017-05-22	85.18	85.29	84.21	84.7	11581646.0	0.0	1.0	85.18	85.29	84.21	84.7	11581646.0	-	-0.563512561634	
2017-05-23	84.75	86.07	84.51	85.76	11671563.0	0.0	1.0	84.75	86.07	84.51	85.76	11671563.0	+	1.19174041298	
2017-05-24	85.88	85.97	85.24	85.71	9833833.0	0.0	1.0	85.88	85.97	85.24	85.71	9833833.0	-	-0.197950628784	
2017-05-25	85.99	86.08	85.08	85.35	12223841.0	0.0	1.0	85.99	86.08	85.08	85.35	12223841.0	-	-0.744272589836	
2017-05-26	85.11	85.56	85.02	85.36	8087540.0	0.0	1.0	85.11	85.56	85.02	85.36	8087540.0	+	0.293737516156	
