"DATE","COMPANY","trusted","greatness","authentic","blockbuster","convenient","gaining","providence","thinner","benefits","improvements","perfection","helped","competitive","encourage","amusing","fair","right","interests","relaxed","clearly","luxury","enterprising","safe","loved","cheapest","humour","cleared","applaud","slick","uplifting","golden","reclaim","empower","benefit","scenic","serenity","excitement","work","invaluable","honoring","appeal","accomplish","instrumental","famous","keen","approval","favour","wonder","promising","comfort","benefits","upgraded","strongest","exceptional","unreal","loved","lover","helped","recommendation","quiet","cleaner","innovation","helping","superior","safely","thank","promise","favorite","generous","grateful","bullish","colorful","precise","afford","innovative","beloved","heaven","recommendations","honor","love","fresh","confidence","dynamic","significant","gains","foul","fail","virus","error","slump","volatility","dumping","anger","bugs","leaks","pan","broken","sucks","suffer","stuck","tumble","loser","disturb","bust","losing","neglect","scary","fever","scare","mistake","denied","vibrating","mysterious","conflict","hypocritical","bitch","sabotage","protest","deplorable","poorly","demonic","skinny","sharply","corrupt","gape","cheat","diss","slower","moan","dent","sued","hurt","tired","bust","bloody","illness","biases","abuses","slime","struck","emergency","illegal","damaging","blind","taboo","screwed","feint","regrets","anxiety","disprove","confront","blackmail","stupid","blunder","cruelty","delusional","overwhelmingly","phony","blasted","backward","crashes","drastically","ranting","crappy","intimidating","gossip","odd","insult","harms","absurd","invader","fails","vague","clash","scared","trick","dumb","+/-/="
"2016-09-19","Apple","0.0","0.0","0.0","0.0","0.0","0.0","0.0","0.0","0.0","0.0","0.0","0.0","0.000322061191626","0.0","0.0","0.000644122383253","0.0219001610306","0.0","0.0","0.000322061191626","0.0","0.0","0.000322061191626","0.0","0.000322061191626","0.0","0.0","0.0","0.0","0.0","0.0","0.000322061191626","0.0","0.00128824476651","0.0","0.0","0.0","0.000966183574879","0.0","0.0","0.0","0.0","0.0","0.000322061191626","0.0","0.0","0.0","0.00128824476651","0.0","0.0","0.0","0.0","0.0","0.0","0.0","0.0","0.0","0.0","0.0","0.0","0.000322061191626","0.000644122383253","0.000644122383253","0.000322061191626","0.0","0.00128824476651","0.0","0.00161030595813","0.0","0.0","0.00161030595813","0.0","0.0","0.000322061191626","0.0","0.0","0.0","0.000322061191626","0.000966183574879","0.00740740740741","0.000322061191626","0.000322061191626","0.0","0.0","0.000966183574879","0.0","0.000322061191626","0.0","0.0","0.0","0.0","0.000644122383253","0.0","0.0","0.0","0.0","0.0","0.000966183574879","0.0","0.0","0.0","0.000322061191626","0.0","0.0","0.000644122383253","0.0","0.0","0.0","0.000322061191626","0.0","0.0","0.0","0.0","0.000322061191626","0.0","0.000322061191626","0.0","0.0","0.0","0.0","0.0","0.0","0.0","0.0","0.0","0.000322061191626","0.0","0.0","0.0","0.0","0.000322061191626","0.000644122383253","0.0","0.0","0.0","0.0","0.0","0.000322061191626","0.0","0.000322061191626","0.000322061191626","0.0","0.0","0.0","0.0","0.0","0.0","0.0","0.0","0.0","0.0","0.0","0.000322061191626","0.0","0.0","0.0","0.0","0.0","0.0","0.0","0.0","0.0","0.0","0.000644122383253","0.0","0.0","0.0","0.0","0.0","0.000322061191626","0.0","0.000644122383253","0.0","0.0","0.0","0.000644122383253","0.000322061191626","+"
"2016-09-20","Apple","0.00124843945069","0.0","0.0","0.000249687890137","0.0","0.0","0.0","0.0","0.0","0.000499375780275","0.0","0.0","0.0","0.0","0.0","0.0","0.0202247191011","0.0","0.0","0.0","0.0","0.0","0.000249687890137","0.000749063670412","0.0","0.0","0.0","0.0","0.000249687890137","0.0","0.0","0.0","0.0","0.0","0.0","0.0","0.0","0.00324594257179","0.0","0.0","0.0","0.0","0.0","0.00124843945069","0.0","0.0","0.0","0.000749063670412","0.0","0.0","0.0","0.0","0.000249687890137","0.0","0.0","0.000749063670412","0.0","0.0","0.0","0.0","0.0","0.000749063670412","0.00149812734082","0.0","0.0","0.000749063670412","0.000249687890137","0.00274656679151","0.0","0.0","0.000499375780275","0.0","0.0","0.000249687890137","0.0","0.0","0.0","0.0","0.0","0.00749063670412","0.0019975031211","0.0","0.0","0.0","0.0","0.000249687890137","0.0","0.0","0.0","0.0","0.000249687890137","0.0","0.000249687890137","0.000249687890137","0.0","0.0","0.000499375780275","0.000249687890137","0.0","0.000249687890137","0.0","0.0","0.0","0.0","0.000499375780275","0.0","0.0","0.0","0.0","0.0","0.0","0.0","0.0","0.0","0.0","0.00124843945069","0.0","0.0","0.0","0.0","0.0","0.0","0.0","0.0","0.0","0.0","0.0","0.000249687890137","0.0","0.0","0.0","0.000249687890137","0.0","0.0","0.0","0.0","0.0","0.0","0.0","0.0","0.0","0.0","0.0","0.0","0.0","0.000249687890137","0.0","0.0","0.000249687890137","0.0","0.0","0.0","0.000499375780275","0.0","0.0","0.0","0.0","0.0","0.000249687890137","0.0","0.0","0.0","0.0","0.0","0.0","0.0","0.0","0.0","0.0","0.0","0.0","0.0","0.0","0.0","0.000249687890137","0.000499375780275","0.000249687890137","-"
"2016-09-23","Apple","0.0","0.0","0.0","0.000227479526843","0.0","0.0","0.0","0.0","0.0","0.0","0.0","0.000227479526843","0.0","0.0","0.0","0.0","0.0102365787079","0.0","0.0","0.000454959053685","0.000454959053685","0.0","0.0","0.0","0.0","0.0","0.0","0.0","0.0","0.0","0.0","0.0","0.0","0.0","0.0","0.0","0.0","0.00181983621474","0.0","0.0","0.0","0.0","0.0","0.000227479526843","0.0","0.0","0.0","0.000454959053685","0.0","0.0","0.0","0.0","0.0","0.0","0.0","0.0","0.0","0.000227479526843","0.0","0.0","0.0","0.000227479526843","0.000454959053685","0.0","0.0","0.000227479526843","0.000227479526843","0.00181983621474","0.0","0.0","0.00113739763421","0.000227479526843","0.0","0.0","0.0","0.0","0.0","0.0","0.000227479526843","0.027525022748","0.000227479526843","0.000454959053685","0.0","0.000227479526843","0.000227479526843","0.0","0.000454959053685","0.0","0.000227479526843","0.0","0.000454959053685","0.0","0.0","0.0","0.0","0.0","0.000227479526843","0.0","0.0","0.000227479526843","0.0","0.0","0.0","0.000454959053685","0.000227479526843","0.0","0.0","0.0","0.000454959053685","0.0","0.0","0.0","0.000227479526843","0.0","0.0","0.000682438580528","0.0","0.0","0.0","0.0","0.0","0.0","0.011601455869","0.0","0.0","0.0","0.0","0.0","0.0","0.0","0.0","0.000227479526843","0.000227479526843","0.000454959053685","0.000227479526843","0.0","0.0","0.0","0.0","0.0","0.0","0.0","0.0","0.0","0.0","0.000227479526843","0.0","0.000227479526843","0.0","0.0","0.0","0.0","0.000682438580528","0.0","0.0","0.0","0.0","0.000227479526843","0.0","0.0","0.000227479526843","0.0","0.0","0.0","0.0","0.0","0.000227479526843","0.0","0.0","0.0","0.0","0.0","0.0","0.0","0.0","0.0","0.00113739763421","+"
"2016-09-24","Apple","0.0","0.0","0.0","0.0","0.000307692307692","0.0","0.0","0.0","0.0","0.0","0.0","0.0","0.0","0.0","0.000307692307692","0.0","0.0178461538462","0.0","0.0","0.0","0.000615384615385","0.0","0.000307692307692","0.0","0.0","0.0","0.0","0.000307692307692","0.000615384615385","0.0","0.0","0.0","0.0","0.0","0.0","0.0","0.0","0.00307692307692","0.0","0.0","0.0","0.0","0.0","0.000615384615385","0.0","0.0","0.0","0.000307692307692","0.0","0.0","0.0","0.000307692307692","0.0","0.0","0.0","0.0","0.000307692307692","0.0","0.0","0.0","0.0","0.000307692307692","0.000307692307692","0.000307692307692","0.0","0.000923076923077","0.0","0.00153846153846","0.0","0.0","0.000307692307692","0.000615384615385","0.0","0.0","0.0","0.0","0.00153846153846","0.0","0.0","0.00646153846154","0.00123076923077","0.000307692307692","0.0","0.000923076923077","0.000307692307692","0.0","0.000307692307692","0.0","0.000615384615385","0.0","0.0","0.0","0.000307692307692","0.000307692307692","0.0","0.0","0.0","0.000615384615385","0.0","0.000307692307692","0.0","0.000307692307692","0.0","0.0","0.000307692307692","0.0","0.0","0.0","0.0","0.0","0.0","0.0","0.0","0.0","0.0","0.0","0.0","0.000307692307692","0.0","0.0","0.0","0.0","0.00338461538462","0.0","0.0","0.0","0.0","0.0","0.0","0.000615384615385","0.0","0.000307692307692","0.000307692307692","0.0","0.0","0.0","0.0","0.0","0.0","0.0","0.0","0.0","0.0","0.0","0.0","0.0","0.0","0.0","0.0","0.0","0.0","0.0","0.000307692307692","0.0","0.0","0.0","0.0","0.0","0.0","0.0","0.0","0.0","0.0","0.000307692307692","0.0","0.0","0.0","0.0","0.0","0.0","0.0","0.0","0.0","0.0","0.0","0.0","0.0","+"
"2016-09-25","Apple","0.0","0.0","0.0","0.0","0.0","0.0","0.0","0.0","0.000319693094629","0.0","0.0","0.000639386189258","0.0","0.0","0.0","0.000639386189258","0.00447570332481","0.0","0.0","0.000319693094629","0.000319693094629","0.0","0.000319693094629","0.000319693094629","0.0","0.0","0.0","0.0","0.0","0.0","0.000319693094629","0.0","0.0","0.0","0.0","0.0","0.0","0.0179028132992","0.0","0.0","0.0","0.0","0.0","0.00159846547315","0.0","0.0","0.0","0.000319693094629","0.0","0.0","0.000319693094629","0.0","0.0","0.0","0.0","0.000319693094629","0.000319693094629","0.000639386189258","0.0","0.000319693094629","0.0","0.000319693094629","0.000639386189258","0.0","0.0","0.000319693094629","0.000319693094629","0.00255754475703","0.0","0.000319693094629","0.000959079283887","0.000959079283887","0.0","0.0","0.0","0.0","0.0","0.0","0.000959079283887","0.00959079283887","0.00127877237852","0.0","0.0","0.0","0.0","0.0","0.0","0.0","0.0","0.0","0.0","0.000319693094629","0.0","0.000319693094629","0.0","0.0","0.000639386189258","0.000959079283887","0.0","0.000319693094629","0.0","0.0","0.0","0.0","0.0","0.0","0.000319693094629","0.0","0.0","0.000319693094629","0.0","0.0","0.000319693094629","0.0","0.0","0.000319693094629","0.0","0.0","0.0","0.0","0.0","0.0","0.000959079283887","0.0","0.0","0.0","0.0","0.0","0.0","0.0","0.0","0.000959079283887","0.000319693094629","0.0","0.0","0.0","0.0","0.0","0.0","0.0","0.0","0.0","0.0","0.0","0.0","0.0","0.0","0.0","0.0","0.0","0.0","0.0","0.000639386189258","0.0","0.0","0.0","0.0","0.000319693094629","0.0","0.0","0.0","0.0","0.0","0.0","0.0","0.0","0.0","0.0","0.0","0.0","0.0","0.0","0.0","0.0","0.0","0.0","0.000959079283887","+"
"2016-09-26","Apple","0.000239635753654","0.0","0.0","0.000239635753654","0.0","0.0","0.0","0.0","0.0","0.0","0.0","0.000239635753654","0.000479271507309","0.000479271507309","0.0","0.0","0.00766834411694","0.0","0.0","0.000479271507309","0.000239635753654","0.0","0.000718907260963","0.000239635753654","0.000239635753654","0.000239635753654","0.0","0.0","0.0","0.0","0.0","0.0","0.0","0.000239635753654","0.0","0.0","0.0","0.00407380781213","0.0","0.0","0.0","0.0","0.0","0.00143781452193","0.0","0.0","0.0","0.000718907260963","0.000239635753654","0.0","0.0","0.0","0.0","0.0","0.0","0.000239635753654","0.0","0.000239635753654","0.0","0.000239635753654","0.0","0.000958543014618","0.000239635753654","0.000239635753654","0.0","0.000239635753654","0.0","0.00143781452193","0.0","0.000479271507309","0.000958543014618","0.000239635753654","0.0","0.000479271507309","0.000239635753654","0.000239635753654","0.0","0.0","0.0","0.00766834411694","0.000479271507309","0.0","0.0","0.0","0.0","0.000239635753654","0.0","0.0","0.0","0.0","0.0","0.0","0.0","0.000479271507309","0.0","0.0","0.000479271507309","0.000239635753654","0.0","0.000958543014618","0.0","0.0","0.0","0.0","0.0","0.0","0.000718907260963","0.0","0.0","0.000239635753654","0.0","0.0","0.0","0.000239635753654","0.0","0.0","0.0","0.000239635753654","0.0","0.0","0.0","0.0","0.000479271507309","0.0","0.0","0.0","0.0","0.000239635753654","0.0","0.0","0.000239635753654","0.000239635753654","0.0","0.0","0.0","0.0","0.0","0.0","0.0","0.0","0.0","0.0","0.0","0.0","0.0","0.0","0.0","0.0","0.0","0.0","0.0","0.0","0.000718907260963","0.0","0.0","0.0","0.0","0.0","0.0","0.0","0.0","0.0","0.0","0.0","0.0","0.0","0.0","0.0","0.0","0.0","0.0","0.000239635753654","0.0","0.0","0.000239635753654","0.000239635753654","0.000479271507309","-"
"2016-09-27","Apple","0.0","0.0","0.0","0.0","0.000247157686604","0.0","0.0","0.0","0.0","0.0","0.0","0.000247157686604","0.0","0.0","0.0","0.000247157686604","0.00543746910529","0.0","0.0","0.000247157686604","0.00123578843302","0.0","0.000247157686604","0.000247157686604","0.000247157686604","0.0","0.0","0.0","0.0","0.0","0.000247157686604","0.0","0.0","0.0","0.0","0.0","0.0","0.00222441917944","0.0","0.000247157686604","0.000247157686604","0.0","0.0","0.00148294611962","0.0","0.000247157686604","0.0","0.000494315373208","0.0","0.000247157686604","0.0","0.000247157686604","0.000247157686604","0.0","0.0","0.000247157686604","0.0","0.000247157686604","0.0","0.0","0.0","0.0","0.000494315373208","0.0","0.0","0.000988630746416","0.0","0.00123578843302","0.0","0.0","0.000988630746416","0.000247157686604","0.0","0.00296589223925","0.0","0.0","0.0","0.0","0.0","0.00395452298566","0.000247157686604","0.0","0.0","0.0","0.000741473059812","0.0","0.0","0.0","0.0","0.0","0.000247157686604","0.0","0.0","0.0","0.0","0.0","0.000741473059812","0.000988630746416","0.000494315373208","0.0","0.0","0.000247157686604","0.0","0.0","0.0","0.0","0.0","0.0","0.00692041522491","0.000247157686604","0.0","0.0","0.0","0.0","0.0","0.000494315373208","0.0","0.0","0.0","0.000247157686604","0.0","0.0","0.0","0.0","0.0","0.0","0.0","0.000247157686604","0.0","0.0","0.0","0.000247157686604","0.000247157686604","0.0","0.000247157686604","0.0","0.0","0.0","0.0","0.000247157686604","0.0","0.0","0.0","0.0","0.0","0.0","0.0","0.0","0.0","0.0","0.0","0.0","0.000741473059812","0.0","0.0","0.0","0.0","0.0","0.0","0.0","0.0","0.0","0.0","0.0","0.0","0.0","0.0","0.0","0.0","0.0","0.0","0.0","0.0","0.000247157686604","0.0","0.0","0.000247157686604","+"
"2016-09-30","Apple","0.00025182573659","0.0","0.0","0.0","0.0","0.0","0.0","0.0","0.0","0.00025182573659","0.0","0.00025182573659","0.00025182573659","0.000503651473181","0.0","0.0","0.0128431125661","0.0","0.0","0.0","0.0","0.0","0.0","0.000755477209771","0.0","0.0","0.0","0.0","0.0","0.0","0.0","0.00025182573659","0.0","0.00025182573659","0.0","0.0","0.0","0.00201460589272","0.0","0.0","0.0","0.0","0.0","0.000503651473181","0.0","0.0","0.0","0.000755477209771","0.0","0.0","0.0","0.00025182573659","0.0","0.0","0.0","0.000755477209771","0.0","0.00025182573659","0.0","0.00025182573659","0.0","0.0","0.00025182573659","0.00025182573659","0.0","0.0","0.00025182573659","0.00151095441954","0.0","0.00025182573659","0.000503651473181","0.0","0.0","0.0","0.00025182573659","0.0","0.0","0.0","0.0","0.00730294636112","0.0","0.0","0.0","0.0","0.00025182573659","0.0","0.00025182573659","0.0","0.0","0.0","0.0","0.0","0.0","0.0","0.0","0.0","0.0","0.0","0.0","0.00025182573659","0.0","0.0","0.0","0.00025182573659","0.00025182573659","0.0","0.0","0.0","0.00025182573659","0.0","0.0","0.0","0.0","0.0","0.0","0.00025182573659","0.0","0.0","0.0","0.0","0.0","0.0","0.0","0.0","0.0","0.0","0.0","0.0","0.0","0.0","0.00025182573659","0.000755477209771","0.00025182573659","0.00025182573659","0.00025182573659","0.0","0.0","0.0","0.0","0.0","0.0","0.0","0.00025182573659","0.0","0.0","0.0","0.0","0.0","0.0","0.0","0.0","0.0","0.00100730294636","0.0","0.0","0.0","0.0","0.0","0.0","0.0","0.00025182573659","0.0","0.0","0.000503651473181","0.0","0.0","0.0","0.0","0.0","0.0","0.0","0.0","0.0","0.0","0.0","0.0","0.00100730294636","-"
"2016-10-01","Apple","0.0","0.0","0.0","0.0","0.0","0.0","0.0","0.0","0.0","0.000314564328405","0.000314564328405","0.0","0.0","0.0","0.0","0.000314564328405","0.0154136520919","0.0","0.0","0.0","0.0","0.0","0.0","0.000314564328405","0.0","0.000314564328405","0.0","0.0","0.0","0.0","0.0","0.0","0.0","0.000314564328405","0.0","0.0","0.0","0.00220195029884","0.0","0.0","0.00062912865681","0.0","0.0","0.00062912865681","0.0","0.000314564328405","0.0","0.000943692985215","0.0","0.000314564328405","0.0","0.0","0.0","0.0","0.0","0.000314564328405","0.0","0.0","0.000314564328405","0.0","0.0","0.000314564328405","0.000314564328405","0.0","0.0","0.00125825731362","0.0","0.00188738597043","0.0","0.0","0.000314564328405","0.000314564328405","0.0","0.000314564328405","0.0","0.0","0.0","0.0","0.0","0.00692041522491","0.000943692985215","0.0","0.0","0.000314564328405","0.00062912865681","0.0","0.000314564328405","0.0","0.0","0.0","0.0","0.0","0.0","0.0","0.0","0.0","0.000314564328405","0.000314564328405","0.0","0.00062912865681","0.0","0.0","0.0","0.000314564328405","0.00062912865681","0.0","0.00062912865681","0.0","0.0","0.0","0.0","0.0","0.0","0.0","0.0","0.0","0.0","0.0","0.0","0.0","0.0","0.0","0.0","0.0","0.0","0.0","0.0","0.0","0.0","0.0","0.0","0.000943692985215","0.000314564328405","0.000314564328405","0.0","0.0","0.0","0.0","0.0","0.0","0.000314564328405","0.0","0.0","0.0","0.0","0.0","0.0","0.0","0.0","0.0","0.000314564328405","0.0","0.000314564328405","0.0","0.0","0.0","0.0","0.0","0.0","0.000314564328405","0.0","0.0","0.000314564328405","0.0","0.0","0.0","0.0","0.0","0.0","0.0","0.0","0.0","0.0","0.0","0.000314564328405","0.00062912865681","0.000314564328405","-"
"2016-10-02","Apple","0.0","0.0","0.000888888888889","0.0","0.0","0.0","0.0","0.0","0.000888888888889","0.0","0.0","0.0","0.0","0.0","0.0","0.00177777777778","0.0266666666667","0.0","0.0","0.0","0.0","0.0","0.000888888888889","0.0","0.0","0.0","0.0","0.0","0.0","0.0","0.0","0.0","0.0","0.0","0.0","0.0","0.0","0.00177777777778","0.0","0.0","0.0","0.0","0.0","0.0","0.000888888888889","0.0","0.0","0.000888888888889","0.0","0.0","0.000888888888889","0.000888888888889","0.0","0.0","0.0","0.0","0.0","0.0","0.0","0.0","0.0","0.0","0.000888888888889","0.0","0.0","0.00266666666667","0.0","0.00444444444444","0.0","0.000888888888889","0.0","0.0","0.0","0.0","0.0","0.0","0.0","0.0","0.0","0.008","0.000888888888889","0.0","0.0","0.0","0.0","0.0","0.000888888888889","0.0","0.0","0.0","0.0","0.0","0.0","0.0","0.0","0.0","0.0","0.000888888888889","0.0","0.0","0.0","0.0","0.0","0.0","0.000888888888889","0.0","0.0","0.0","0.0","0.0","0.0","0.0","0.0","0.0","0.0","0.000888888888889","0.0","0.0","0.0","0.0","0.0","0.0","0.0","0.0","0.0","0.0","0.0","0.000888888888889","0.0","0.0","0.000888888888889","0.0","0.000888888888889","0.0","0.0","0.0","0.0","0.0","0.0","0.0","0.0","0.00177777777778","0.0","0.0","0.0","0.0","0.0","0.0","0.0","0.0","0.0","0.0","0.0","0.0","0.0","0.0","0.0","0.0","0.0","0.0","0.0","0.0","0.0","0.0","0.0","0.0","0.0","0.0","0.0","0.0","0.0","0.0","0.0","0.0","0.0","0.0","0.0","-"
"2016-10-03","Apple","0.0","0.0","0.0","0.0","0.0","0.0","0.0","0.0","0.0","0.0","0.0","0.0005158627805","0.0","0.000773794170751","0.0","0.0","0.0167655403663","0.0","0.0","0.0","0.0","0.0","0.00025793139025","0.00025793139025","0.00025793139025","0.0","0.0","0.0","0.0","0.0","0.0","0.0","0.0","0.0","0.0","0.0","0.0","0.0056744905855","0.0","0.0","0.000773794170751","0.0","0.0","0.000773794170751","0.0","0.0","0.0","0.000773794170751","0.0","0.0","0.0","0.0","0.0","0.0","0.0","0.00025793139025","0.0","0.0005158627805","0.0","0.00025793139025","0.000773794170751","0.0","0.000773794170751","0.0","0.0","0.0","0.0","0.001031725561","0.0","0.00025793139025","0.000773794170751","0.0005158627805","0.0","0.0","0.0","0.0","0.0005158627805","0.0","0.0","0.00696414753676","0.0005158627805","0.0","0.0","0.0","0.0","0.0","0.00025793139025","0.0","0.0","0.0","0.0","0.0","0.0","0.0","0.00025793139025","0.0","0.0","0.0015475883415","0.0","0.00025793139025","0.0","0.0","0.0","0.0","0.0","0.0","0.00025793139025","0.0","0.0","0.0","0.0","0.0","0.0","0.0","0.0","0.00025793139025","0.0","0.0","0.0","0.0","0.0","0.0","0.0","0.00025793139025","0.0","0.0","0.0","0.0","0.0","0.0","0.0","0.00025793139025","0.000773794170751","0.0","0.0","0.0","0.0","0.0","0.0","0.0","0.0","0.0","0.0","0.0","0.0","0.0","0.0","0.0","0.0","0.0","0.0","0.0","0.000773794170751","0.0","0.0","0.0","0.0","0.0","0.0","0.0","0.0","0.0","0.0","0.0","0.0","0.0","0.0","0.0","0.0","0.0","0.0","0.00025793139025","0.0","0.0","0.0","0.00025793139025","0.0005158627805","+"
"2016-10-04","Apple","0.0","0.00025826446281","0.0","0.0","0.0","0.00025826446281","0.0","0.0","0.0","0.0","0.00025826446281","0.00025826446281","0.00051652892562","0.0","0.0","0.00025826446281","0.0077479338843","0.0","0.0","0.00051652892562","0.0","0.0","0.0","0.00025826446281","0.0","0.0","0.0","0.0","0.0","0.0","0.0","0.0","0.0","0.00025826446281","0.0","0.0","0.0","0.00387396694215","0.0","0.0","0.0","0.0","0.0","0.00077479338843","0.0","0.0","0.0","0.00129132231405","0.0","0.00025826446281","0.0","0.0","0.0","0.0","0.0","0.00025826446281","0.0","0.00025826446281","0.0","0.0","0.0","0.00077479338843","0.00025826446281","0.00051652892562","0.0","0.00129132231405","0.0","0.00051652892562","0.0","0.0","0.00284090909091","0.00025826446281","0.00025826446281","0.00025826446281","0.0","0.0","0.0","0.0","0.00025826446281","0.00568181818182","0.00025826446281","0.0","0.0","0.0","0.00051652892562","0.0","0.00103305785124","0.00025826446281","0.0","0.0","0.0","0.0","0.0","0.00025826446281","0.0","0.00025826446281","0.00025826446281","0.0","0.0","0.00103305785124","0.0","0.0","0.0","0.0","0.00077479338843","0.0","0.00154958677686","0.0","0.00025826446281","0.0","0.0","0.0","0.0","0.00025826446281","0.0","0.00025826446281","0.0","0.00025826446281","0.0","0.00025826446281","0.0","0.0","0.0","0.00025826446281","0.0","0.0","0.0","0.0","0.0","0.00051652892562","0.0","0.00025826446281","0.00025826446281","0.0","0.0","0.00025826446281","0.0","0.0","0.0","0.0","0.0","0.00025826446281","0.0","0.00025826446281","0.0","0.00025826446281","0.0","0.0","0.0","0.0","0.0","0.00025826446281","0.00103305785124","0.0","0.0","0.0","0.0","0.0","0.0","0.0","0.0","0.0","0.0","0.0","0.0","0.0","0.0","0.0","0.0","0.0","0.0","0.00025826446281","0.0","0.0","0.00025826446281","0.00025826446281","0.00077479338843","-"
"2016-10-07","Apple","0.0","0.0","0.0","0.0","0.0","0.0","0.0","0.0","0.0","0.000231749710313","0.0","0.0","0.0","0.000231749710313","0.0","0.000463499420626","0.00486674391657","0.0","0.0","0.0","0.0","0.0","0.000231749710313","0.000231749710313","0.0","0.0","0.0","0.0","0.0","0.0","0.0","0.0","0.0","0.0","0.0","0.0","0.0","0.00208574739282","0.0","0.0","0.0","0.0","0.0","0.000463499420626","0.0","0.0","0.000231749710313","0.000695249130939","0.0","0.0","0.0","0.0","0.0","0.0","0.0","0.000231749710313","0.000231749710313","0.0","0.0","0.0","0.0","0.000231749710313","0.000231749710313","0.0","0.0","0.000695249130939","0.0","0.00231749710313","0.0","0.0","0.000695249130939","0.0","0.0","0.000231749710313","0.0","0.0","0.000231749710313","0.0","0.0","0.00486674391657","0.000926998841251","0.0","0.0","0.0","0.000926998841251","0.0","0.0","0.0","0.000231749710313","0.0","0.0","0.0","0.0","0.0","0.0","0.0","0.0","0.000231749710313","0.0","0.000231749710313","0.000231749710313","0.000231749710313","0.0","0.0","0.0","0.0","0.000463499420626","0.000231749710313","0.0","0.000231749710313","0.0","0.0","0.000231749710313","0.0","0.0","0.000231749710313","0.0","0.0","0.0","0.0","0.0","0.0","0.0","0.000463499420626","0.0","0.0","0.0","0.000231749710313","0.0","0.0","0.0","0.000231749710313","0.0","0.0","0.0","0.0","0.0","0.0","0.0","0.0","0.0","0.0","0.000231749710313","0.0","0.0","0.000231749710313","0.0","0.0","0.0","0.0","0.0","0.0","0.000231749710313","0.0","0.0","0.0","0.0","0.0","0.000231749710313","0.0","0.0","0.0","0.0","0.000231749710313","0.0","0.0","0.0","0.0","0.0","0.0","0.0","0.0","0.0","0.0","0.000231749710313","0.000463499420626","0.0","+"
"2016-10-08","Apple","0.000296296296296","0.0","0.0","0.0","0.0","0.0","0.0","0.0","0.0","0.000296296296296","0.000296296296296","0.0","0.000592592592593","0.0","0.000592592592593","0.000592592592593","0.00740740740741","0.0","0.0","0.0","0.0","0.0","0.000296296296296","0.0","0.0","0.0","0.0","0.0","0.0","0.0","0.0","0.0","0.0","0.0","0.000296296296296","0.0","0.0","0.00148148148148","0.0","0.0","0.000592592592593","0.0","0.0","0.000592592592593","0.000296296296296","0.0","0.0","0.000592592592593","0.0","0.000296296296296","0.0","0.0","0.0","0.0","0.0","0.0","0.0","0.0","0.0","0.0","0.0","0.000888888888889","0.000296296296296","0.0","0.0","0.00207407407407","0.000296296296296","0.00355555555556","0.0","0.0","0.0","0.0","0.0","0.0","0.0","0.0","0.0","0.0","0.0","0.00651851851852","0.00266666666667","0.000296296296296","0.0","0.0","0.00355555555556","0.000296296296296","0.000592592592593","0.0","0.0","0.0","0.0","0.0","0.0","0.000296296296296","0.0","0.0","0.000592592592593","0.000296296296296","0.0","0.000592592592593","0.000296296296296","0.0","0.0","0.0","0.0","0.0","0.0","0.0","0.0","0.000296296296296","0.0","0.0","0.0","0.0","0.0","0.0","0.0","0.0","0.000296296296296","0.0","0.0","0.0","0.0","0.0","0.0","0.0","0.0","0.0","0.0","0.0","0.0","0.000592592592593","0.0","0.0","0.0","0.0","0.0","0.0","0.0","0.0","0.0","0.0","0.0","0.0","0.0","0.000296296296296","0.0","0.0","0.0","0.0","0.0","0.0","0.000592592592593","0.0","0.0","0.0","0.0","0.0","0.0","0.0","0.0","0.0","0.0","0.000888888888889","0.0","0.0","0.0","0.0","0.0","0.0","0.0","0.0","0.0","0.0","0.000296296296296","0.000592592592593","0.000296296296296","-"
"2016-10-09","Apple","0.0","0.0","0.0","0.0","0.0","0.0","0.0","0.0","0.0","0.0","0.0","0.0","0.0","0.0","0.0","0.0","0.00421644413212","0.0","0.0","0.0","0.0","0.0","0.0","0.0","0.0","0.0","0.0","0.0","0.0","0.0","0.0","0.0","0.0","0.000702740688686","0.0","0.0","0.00140548137737","0.000702740688686","0.0","0.0","0.0","0.000702740688686","0.0","0.00140548137737","0.0","0.0","0.0","0.000702740688686","0.0","0.0","0.0","0.0","0.0","0.0","0.0","0.0","0.0","0.0","0.0","0.0","0.0","0.000702740688686","0.0","0.000702740688686","0.0","0.000702740688686","0.0","0.00140548137737","0.0","0.0","0.00562192550949","0.0","0.0","0.0","0.0","0.0","0.0","0.0","0.0","0.00421644413212","0.00140548137737","0.0","0.0","0.0","0.000702740688686","0.0","0.0","0.0","0.0","0.0","0.0","0.0","0.0","0.000702740688686","0.00140548137737","0.0","0.0","0.0","0.0","0.0","0.00210822206606","0.0","0.0","0.0","0.000702740688686","0.0","0.000702740688686","0.0","0.0","0.0","0.0","0.0","0.0","0.0","0.0","0.0","0.0","0.0","0.0","0.0","0.0","0.0","0.0","0.0","0.0","0.0","0.0","0.0","0.0","0.0","0.0","0.0","0.0","0.0","0.0","0.0","0.0","0.0","0.0","0.0","0.0","0.000702740688686","0.0","0.0","0.0","0.0","0.0","0.0","0.0","0.0","0.0","0.0","0.000702740688686","0.0","0.000702740688686","0.0","0.0","0.0","0.0","0.0","0.0","0.0","0.0","0.0","0.0","0.0","0.0","0.0","0.0","0.0","0.0","0.0","0.0","0.0","0.0","0.00140548137737","0.0","-"
"2016-10-10","Apple","0.0","0.0","0.0","0.0","0.0","0.0","0.0","0.0","0.000448531060776","0.0","0.0","0.000448531060776","0.0","0.0","0.0","0.000897062121552","0.00493384166854","0.0","0.0","0.00112132765194","0.0","0.0","0.000224265530388","0.000672796591164","0.0","0.0","0.000224265530388","0.0","0.0","0.0","0.0","0.0","0.0","0.00112132765194","0.0","0.000224265530388","0.0","0.00313971742543","0.0","0.0","0.000224265530388","0.0","0.0","0.000672796591164","0.0","0.0","0.0","0.00112132765194","0.0","0.0","0.000448531060776","0.000224265530388","0.0","0.0","0.0","0.000672796591164","0.0","0.000448531060776","0.000224265530388","0.0","0.0","0.0","0.0","0.0","0.0","0.00156985871272","0.0","0.00134559318233","0.0","0.000448531060776","0.0017941242431","0.0","0.0","0.000224265530388","0.0","0.0","0.0","0.0","0.0","0.00650370038125","0.00156985871272","0.000224265530388","0.0","0.000224265530388","0.00134559318233","0.0","0.0","0.000224265530388","0.0","0.0","0.000224265530388","0.0","0.0","0.000224265530388","0.0","0.0","0.0","0.000224265530388","0.000448531060776","0.00156985871272","0.0","0.0","0.0","0.0","0.000448531060776","0.0","0.000448531060776","0.0","0.0","0.000448531060776","0.000224265530388","0.0","0.0","0.0","0.0","0.000672796591164","0.0","0.000224265530388","0.0","0.000224265530388","0.0","0.0","0.0","0.0","0.0","0.000224265530388","0.000224265530388","0.000448531060776","0.0","0.0","0.0","0.000224265530388","0.0","0.0","0.0","0.0","0.0","0.0","0.0","0.0","0.0","0.000224265530388","0.0","0.0","0.0","0.000448531060776","0.0","0.0","0.0","0.0","0.000224265530388","0.000224265530388","0.00112132765194","0.0","0.0","0.000224265530388","0.0","0.0","0.000224265530388","0.000224265530388","0.000224265530388","0.0","0.0","0.000448531060776","0.0","0.0","0.0","0.0","0.0","0.0","0.0","0.000448531060776","0.0","0.0","0.0","0.000224265530388","0.000448531060776","+"
"2016-10-11","Apple","0.0","0.0","0.0","0.0","0.0","0.0","0.0","0.00019443904336","0.00019443904336","0.0","0.0","0.00038887808672","0.00058331713008","0.0","0.0","0.00058331713008","0.0202216605094","0.0","0.0","0.00038887808672","0.0","0.0","0.00038887808672","0.00038887808672","0.0","0.0","0.0","0.0","0.0","0.0","0.00019443904336","0.0","0.0","0.00136107330352","0.0","0.0","0.0","0.0009721952168","0.0","0.0","0.0","0.0","0.0","0.00038887808672","0.00019443904336","0.0","0.0","0.00019443904336","0.0","0.0","0.00019443904336","0.0","0.0","0.0","0.0","0.00038887808672","0.0","0.00038887808672","0.0","0.0","0.0","0.00019443904336","0.00155551234688","0.00038887808672","0.0","0.00038887808672","0.00019443904336","0.00233326852032","0.0","0.0","0.00213882947696","0.0","0.0","0.0","0.00019443904336","0.0","0.0","0.0","0.00019443904336","0.0058331713008","0.00155551234688","0.0","0.0","0.00019443904336","0.00233326852032","0.0","0.0","0.0","0.0","0.00058331713008","0.00077775617344","0.0","0.0","0.00019443904336","0.0","0.0","0.00058331713008","0.00019443904336","0.0","0.00058331713008","0.00019443904336","0.0","0.0","0.0","0.00038887808672","0.0","0.00019443904336","0.0","0.00019443904336","0.00058331713008","0.0","0.0","0.0","0.0","0.0","0.00019443904336","0.00019443904336","0.0","0.00038887808672","0.0","0.0","0.0","0.00038887808672","0.00019443904336","0.0","0.0","0.0","0.0","0.0","0.0","0.0","0.00038887808672","0.0","0.0","0.0","0.0","0.0","0.0","0.0","0.0","0.0","0.00019443904336","0.0","0.0","0.0","0.0","0.0","0.0","0.0","0.0","0.0","0.0","0.0009721952168","0.0","0.0","0.0","0.0","0.0","0.0","0.0","0.0","0.0","0.0","0.0","0.0","0.0","0.0","0.0","0.0","0.0","0.0","0.00019443904336","0.0","0.00174995139024","0.00019443904336","0.00019443904336","0.00038887808672","-"
"2016-10-14","Apple","0.0","0.0","0.0","0.0","0.0","0.0","0.0","0.0","0.0","0.0","0.0","0.0","0.000234466588511","0.0","0.0","0.0","0.0119577960141","0.0","0.0","0.0","0.000234466588511","0.0","0.000468933177022","0.000468933177022","0.0","0.0","0.000234466588511","0.0","0.0","0.0","0.0","0.0","0.0","0.000234466588511","0.0","0.0","0.0","0.00234466588511","0.0","0.0","0.000234466588511","0.0","0.0","0.0","0.0","0.000234466588511","0.0","0.000937866354045","0.0","0.0","0.0","0.000468933177022","0.0","0.0","0.000234466588511","0.000468933177022","0.0","0.0","0.0","0.0","0.0","0.000468933177022","0.000468933177022","0.0","0.0","0.00140679953107","0.0","0.00187573270809","0.0","0.000234466588511","0.000937866354045","0.0","0.0","0.0","0.0","0.0","0.0","0.000234466588511","0.0","0.00656506447831","0.0","0.000468933177022","0.000937866354045","0.0","0.000703399765533","0.0","0.0","0.0","0.0","0.0","0.000234466588511","0.000703399765533","0.0","0.0","0.0","0.0","0.0","0.000468933177022","0.0","0.000468933177022","0.0","0.000234466588511","0.0","0.0","0.00117233294256","0.0","0.0","0.0","0.0","0.000234466588511","0.000468933177022","0.0","0.0","0.000234466588511","0.0","0.000703399765533","0.0","0.0","0.0","0.0","0.0","0.0","0.0","0.000468933177022","0.0","0.0","0.0","0.0","0.0","0.0","0.0","0.000234466588511","0.000234466588511","0.0","0.0","0.0","0.0","0.0","0.000234466588511","0.0","0.0","0.000234466588511","0.0","0.0","0.0","0.0","0.0","0.0","0.0","0.0","0.0","0.0","0.000234466588511","0.0","0.0","0.0","0.0","0.0","0.0","0.0","0.0","0.0","0.0","0.0","0.0","0.0","0.0","0.0","0.0","0.0","0.0","0.0","0.0","0.0","0.0","0.0","0.000234466588511","+"
"2016-10-15","Apple","0.000322684737012","0.0","0.0","0.0","0.0","0.0","0.0","0.0","0.000645369474024","0.0","0.0","0.0","0.000322684737012","0.0","0.0","0.0","0.00419490158116","0.000322684737012","0.0","0.000322684737012","0.0","0.0","0.0","0.000645369474024","0.0","0.0","0.0","0.0","0.000322684737012","0.0","0.000322684737012","0.0","0.0","0.0","0.0","0.0","0.0","0.000968054211036","0.0","0.0","0.0","0.0","0.0","0.000645369474024","0.000322684737012","0.0","0.0","0.0","0.0","0.0","0.000645369474024","0.000322684737012","0.0","0.0","0.0","0.000645369474024","0.0","0.0","0.000645369474024","0.000322684737012","0.0","0.0","0.0","0.0","0.0","0.000645369474024","0.000322684737012","0.00129073894805","0.0","0.0","0.0","0.000322684737012","0.0","0.000322684737012","0.0","0.0","0.000322684737012","0.0","0.0","0.00709906421426","0.000322684737012","0.0","0.000322684737012","0.0","0.000645369474024","0.0","0.000322684737012","0.0","0.0","0.0","0.0","0.0","0.0","0.0","0.000322684737012","0.0","0.000322684737012","0.000322684737012","0.0","0.000322684737012","0.0","0.0","0.0","0.0","0.0","0.0","0.0","0.0","0.0","0.000322684737012","0.0","0.0","0.0","0.0","0.0","0.000322684737012","0.000322684737012","0.0","0.0","0.0","0.0","0.00129073894805","0.0","0.0","0.0","0.000322684737012","0.0","0.0","0.0","0.0","0.0","0.0","0.0","0.0","0.000322684737012","0.0","0.0","0.0","0.0","0.0","0.0","0.0","0.0","0.0","0.0","0.000322684737012","0.0","0.0","0.0","0.0","0.0","0.0","0.000322684737012","0.0","0.0","0.0","0.0","0.0","0.0","0.0","0.0","0.0","0.0","0.000322684737012","0.0","0.0","0.000645369474024","0.0","0.0","0.0","0.0","0.000322684737012","0.0","0.0","0.0","0.0","0.0","-"
"2016-10-16","Apple","0.000309693403531","0.0","0.0","0.0","0.0","0.0","0.0","0.0","0.000309693403531","0.0","0.0","0.0","0.0","0.0","0.0","0.0","0.00309693403531","0.0","0.0","0.000619386807061","0.0","0.0","0.0","0.00185816042118","0.0","0.0","0.000309693403531","0.0","0.0","0.0","0.0","0.0","0.0","0.0","0.0","0.0","0.0","0.00247754722824","0.0","0.0","0.0","0.0","0.0","0.000619386807061","0.000309693403531","0.0","0.0","0.000929080210592","0.0","0.0","0.000309693403531","0.000929080210592","0.0","0.000309693403531","0.0","0.00185816042118","0.000309693403531","0.0","0.0","0.00123877361412","0.0","0.00185816042118","0.000619386807061","0.0","0.0","0.00123877361412","0.0","0.00185816042118","0.0","0.000309693403531","0.0","0.0","0.0","0.0","0.0","0.0","0.0","0.0","0.0","0.00898110870238","0.00154846701765","0.0","0.000309693403531","0.0","0.0","0.0","0.0","0.0","0.000309693403531","0.000309693403531","0.0","0.0","0.0","0.000619386807061","0.0","0.000309693403531","0.000309693403531","0.0","0.0","0.000309693403531","0.0","0.0","0.0","0.0","0.000619386807061","0.0","0.0","0.0","0.0","0.000619386807061","0.0","0.0","0.000309693403531","0.0","0.0","0.0","0.0","0.0","0.000309693403531","0.0","0.0","0.0","0.0","0.0","0.0","0.0","0.0","0.0","0.0","0.0","0.000309693403531","0.000309693403531","0.0","0.0","0.000309693403531","0.0","0.0","0.0","0.0","0.0","0.0","0.0","0.0","0.000309693403531","0.0","0.0","0.0","0.0","0.000309693403531","0.0","0.0","0.0","0.0","0.0","0.0","0.0","0.0","0.0","0.0","0.0","0.0","0.0","0.0","0.0","0.0","0.0","0.0","0.0","0.0","0.0","0.0","0.00154846701765","0.0","0.0","0.000309693403531","0.0","0.0","-"
"2016-10-17","Apple","0.0","0.0","0.0","0.0","0.000222024866785","0.0","0.0","0.0","0.0","0.0","0.0","0.0","0.000222024866785","0.0","0.000222024866785","0.000222024866785","0.00621669626998","0.0","0.0","0.000222024866785","0.0","0.0","0.00044404973357","0.000666074600355","0.000222024866785","0.0","0.0","0.0","0.0","0.0","0.00044404973357","0.0","0.0","0.000222024866785","0.0","0.0","0.0","0.00222024866785","0.0","0.0","0.0","0.0","0.0","0.00088809946714","0.0","0.0","0.0","0.00044404973357","0.0","0.0","0.0","0.000222024866785","0.0","0.0","0.0","0.000666074600355","0.000222024866785","0.0","0.000222024866785","0.0","0.0","0.000666074600355","0.000222024866785","0.00111012433393","0.0","0.00088809946714","0.000222024866785","0.00199822380107","0.0","0.000222024866785","0.00044404973357","0.0","0.0","0.000666074600355","0.0","0.0","0.0","0.000222024866785","0.000222024866785","0.00377442273535","0.00044404973357","0.00044404973357","0.000222024866785","0.000666074600355","0.00044404973357","0.0","0.000222024866785","0.0","0.0","0.0","0.0","0.0","0.0","0.0","0.0","0.0","0.00044404973357","0.00044404973357","0.0","0.000222024866785","0.0","0.0","0.0","0.0","0.000666074600355","0.0","0.00044404973357","0.000222024866785","0.0","0.0","0.0","0.0","0.0015541740675","0.000222024866785","0.0","0.00044404973357","0.0","0.000222024866785","0.0","0.0","0.0","0.0","0.0","0.000222024866785","0.0","0.0","0.0","0.0","0.0","0.0","0.0","0.000222024866785","0.000222024866785","0.0","0.0","0.0","0.0","0.0","0.0","0.0","0.0","0.0","0.0","0.0","0.0","0.0","0.0","0.000222024866785","0.0","0.0","0.0","0.0","0.0","0.0","0.0","0.0","0.0","0.0","0.0","0.0","0.0","0.00133214920071","0.0","0.0","0.0","0.0","0.0","0.0","0.0","0.0","0.0","0.000222024866785","0.0","0.0","0.00044404973357","0.0","0.000666074600355","+"
"2016-10-18","Apple","0.000221827861579","0.0","0.0","0.0","0.0","0.0","0.0","0.0","0.0","0.0","0.0","0.0","0.000221827861579","0.000221827861579","0.0","0.0","0.00310559006211","0.0","0.0","0.0","0.0","0.0","0.000221827861579","0.000221827861579","0.0","0.0","0.0","0.0","0.0","0.0","0.000221827861579","0.0","0.0","0.0","0.0","0.0","0.0","0.00177462289264","0.0","0.0","0.0","0.0","0.0","0.000665483584738","0.0","0.0","0.0","0.000887311446318","0.0","0.0","0.0","0.000443655723159","0.000221827861579","0.0","0.0","0.000221827861579","0.0","0.0","0.0","0.0","0.0","0.000443655723159","0.000665483584738","0.000221827861579","0.0","0.00221827861579","0.0","0.00244010647737","0.0","0.0","0.000887311446318","0.0","0.0","0.0","0.000221827861579","0.0","0.0","0.000221827861579","0.0","0.00332741792369","0.000221827861579","0.0","0.0","0.0","0.000665483584738","0.0","0.000221827861579","0.000221827861579","0.000221827861579","0.0","0.000221827861579","0.0","0.0","0.0","0.000221827861579","0.000221827861579","0.000665483584738","0.000221827861579","0.0","0.000665483584738","0.0","0.0","0.0","0.0","0.000221827861579","0.0","0.000221827861579","0.000221827861579","0.000221827861579","0.0","0.0","0.0","0.0","0.000221827861579","0.0","0.0","0.0","0.0","0.0","0.0","0.0","0.0","0.0","0.000221827861579","0.0","0.000221827861579","0.0","0.0","0.0","0.0","0.0","0.000221827861579","0.0","0.0","0.0","0.0","0.0","0.0","0.0","0.0","0.0","0.0","0.0","0.0","0.0","0.000887311446318","0.0","0.0","0.0","0.0","0.0","0.0","0.0","0.0","0.0","0.0","0.0","0.0","0.0","0.0","0.0","0.000221827861579","0.0","0.000221827861579","0.0","0.0","0.0","0.0","0.0","0.0","0.000221827861579","0.0","0.0","0.0","0.000443655723159","0.000665483584738","0.000887311446318","-"
"2016-10-21","Apple","0.0","0.0","0.0","0.0","0.0","0.0","0.0","0.0","0.000229937916762","0.0","0.0","0.000229937916762","0.000229937916762","0.0","0.0","0.0","0.00229937916762","0.0","0.0","0.000459875833525","0.000229937916762","0.0","0.0","0.0","0.0","0.0","0.0","0.0","0.000459875833525","0.0","0.0","0.0","0.000229937916762","0.0","0.0","0.0","0.0","0.00229937916762","0.0","0.0","0.000229937916762","0.0","0.0","0.00091975166705","0.0","0.0","0.0","0.000689813750287","0.0","0.000229937916762","0.000229937916762","0.0","0.0","0.0","0.0","0.0","0.000229937916762","0.000229937916762","0.0","0.0","0.0","0.000689813750287","0.0","0.000459875833525","0.0","0.000459875833525","0.000229937916762","0.00091975166705","0.0","0.0","0.0018395033341","0.0","0.0","0.0","0.0","0.0","0.0","0.000229937916762","0.0","0.00528857208554","0.0","0.0","0.000229937916762","0.000229937916762","0.000689813750287","0.0","0.0","0.0","0.000459875833525","0.0","0.0","0.000229937916762","0.000229937916762","0.0","0.0","0.0","0.000229937916762","0.00091975166705","0.0","0.000459875833525","0.0","0.0","0.0","0.0","0.0","0.0","0.0","0.0","0.0","0.0","0.0","0.0","0.0","0.0","0.0","0.000229937916762","0.000229937916762","0.0","0.0","0.0","0.0","0.0","0.000459875833525","0.0","0.0","0.0","0.0","0.00114968958381","0.0","0.0","0.0","0.000229937916762","0.000229937916762","0.0","0.0","0.0","0.0","0.0","0.0","0.0","0.0","0.0","0.0","0.0","0.0","0.000459875833525","0.0","0.000229937916762","0.0","0.0","0.0","0.0","0.000459875833525","0.0","0.0","0.0","0.0","0.0","0.0","0.0","0.0","0.0","0.0","0.0","0.0","0.000229937916762","0.0","0.0","0.0","0.0","0.0","0.0","0.0","0.0","0.000229937916762","0.000229937916762","0.000459875833525","+"
"2016-10-22","Apple","0.0","0.0","0.0","0.0","0.000287769784173","0.0","0.0","0.0","0.000575539568345","0.0","0.0","0.000287769784173","0.0","0.0","0.0","0.000863309352518","0.00661870503597","0.0","0.0","0.000575539568345","0.0","0.0","0.000287769784173","0.0","0.0","0.0","0.0","0.0","0.0","0.0","0.0","0.0","0.0","0.0","0.0","0.0","0.0","0.00172661870504","0.0","0.0","0.000287769784173","0.0","0.0","0.000863309352518","0.0","0.0","0.0","0.000575539568345","0.0","0.0","0.000575539568345","0.000287769784173","0.0","0.0","0.0","0.0","0.0","0.000287769784173","0.0","0.0","0.0","0.000863309352518","0.0","0.0","0.0","0.00143884892086","0.0","0.00143884892086","0.0","0.0","0.000575539568345","0.000575539568345","0.0","0.000287769784173","0.0","0.0","0.0","0.0","0.000287769784173","0.00661870503597","0.000575539568345","0.0","0.0","0.0","0.000287769784173","0.0","0.0","0.0","0.0","0.0","0.0","0.000287769784173","0.000287769784173","0.0","0.0","0.0","0.000575539568345","0.000287769784173","0.0","0.000575539568345","0.0","0.000287769784173","0.0","0.0","0.0","0.0","0.000575539568345","0.0","0.0","0.0","0.0","0.0","0.000287769784173","0.0","0.0","0.000575539568345","0.000287769784173","0.0","0.0","0.0","0.0","0.0","0.0","0.0","0.0","0.0","0.0","0.000863309352518","0.000287769784173","0.0","0.0","0.0","0.000287769784173","0.0","0.000575539568345","0.0","0.0","0.0","0.0","0.0","0.0","0.000287769784173","0.0","0.000287769784173","0.0","0.0","0.0","0.0","0.0","0.0","0.0","0.0","0.0","0.0","0.000575539568345","0.0","0.0","0.0","0.0","0.0","0.0","0.0","0.0","0.0","0.0","0.0","0.0","0.0","0.0","0.0","0.0","0.000287769784173","0.0","0.0","0.000287769784173","0.0","0.000863309352518","+"
"2016-10-23","Apple","0.0","0.0","0.0","0.0","0.000326583932071","0.0","0.0","0.0","0.0","0.0","0.0","0.000326583932071","0.0","0.000326583932071","0.0","0.000653167864141","0.00457217504899","0.0","0.0","0.0","0.0","0.0","0.000326583932071","0.000326583932071","0.0","0.0","0.0","0.0","0.0","0.0","0.0","0.0","0.0","0.0","0.0","0.0","0.0","0.00359242325278","0.0","0.0","0.0","0.0","0.0","0.00130633572828","0.000326583932071","0.0","0.0","0.000326583932071","0.0","0.0","0.0","0.0","0.0","0.0","0.0","0.000326583932071","0.000326583932071","0.000326583932071","0.0","0.0","0.0","0.000653167864141","0.000653167864141","0.0","0.0","0.00130633572828","0.000326583932071","0.000653167864141","0.0","0.0","0.0","0.0","0.0","0.0","0.0","0.0","0.0","0.0","0.0","0.00914435009798","0.000653167864141","0.0","0.0","0.0","0.0","0.0","0.0","0.0","0.0","0.0","0.000326583932071","0.0","0.0","0.000326583932071","0.0","0.0","0.000326583932071","0.000653167864141","0.0","0.000326583932071","0.0","0.0","0.0","0.0","0.0","0.0","0.0","0.0","0.0","0.0","0.0","0.0","0.0","0.000326583932071","0.0","0.0","0.0","0.0","0.0","0.0","0.0","0.0","0.0","0.0","0.0","0.0","0.0","0.0","0.0","0.0","0.0","0.000326583932071","0.000326583932071","0.0","0.0","0.0","0.0","0.0","0.0","0.0","0.0","0.0","0.0","0.0","0.0","0.0","0.0","0.0","0.0","0.0","0.0","0.0","0.000326583932071","0.0","0.0","0.0","0.0","0.0","0.0","0.0","0.000653167864141","0.0","0.0","0.0","0.0","0.0","0.0","0.0","0.0","0.000326583932071","0.0","0.000326583932071","0.000326583932071","0.0","0.0","0.0","0.000653167864141","+"
"2016-10-24","Apple","0.0","0.0","0.0","0.0","0.0","0.0","0.0","0.000212675457252","0.000212675457252","0.000425350914504","0.0","0.000425350914504","0.0","0.000638026371757","0.0","0.0","0.00276478094428","0.0","0.0","0.0","0.0","0.0","0.0","0.000212675457252","0.0","0.0","0.0","0.0","0.0","0.0","0.000212675457252","0.0","0.0","0.00106337728626","0.0","0.0","0.0","0.00170140365802","0.0","0.0","0.0","0.0","0.0","0.000638026371757","0.0","0.0","0.000425350914504","0.000212675457252","0.0","0.000212675457252","0.000212675457252","0.0","0.0","0.0","0.0","0.000212675457252","0.0","0.000425350914504","0.000212675457252","0.000212675457252","0.0","0.000425350914504","0.000425350914504","0.000425350914504","0.0","0.000850701829009","0.000425350914504","0.000425350914504","0.000212675457252","0.000212675457252","0.00191407911527","0.0","0.0","0.0","0.0","0.0","0.000212675457252","0.0","0.0","0.00467886005955","0.000850701829009","0.0","0.0","0.000212675457252","0.000212675457252","0.0","0.000212675457252","0.0","0.000212675457252","0.0","0.0","0.0","0.0","0.000212675457252","0.000212675457252","0.0","0.000425350914504","0.000212675457252","0.0","0.000850701829009","0.00191407911527","0.0","0.0","0.0","0.000212675457252","0.0","0.000212675457252","0.0","0.0","0.000638026371757","0.0","0.0","0.0","0.000425350914504","0.0","0.000212675457252","0.0","0.000212675457252","0.0","0.0","0.0","0.0","0.0","0.0","0.0","0.0","0.0","0.000425350914504","0.000212675457252","0.000212675457252","0.0","0.0","0.000425350914504","0.0","0.0","0.0","0.0","0.0","0.0","0.0","0.0","0.0","0.0","0.000212675457252","0.0","0.0","0.0","0.000425350914504","0.0","0.0","0.0","0.0","0.00106337728626","0.0","0.0","0.0","0.0","0.0","0.0","0.0","0.0","0.0","0.0","0.000212675457252","0.0","0.000638026371757","0.0","0.0","0.0","0.0","0.0","0.0","0.0","0.0","0.000638026371757","0.000212675457252","0.000425350914504","-"
"2016-10-25","Apple","0.00021303792075","0.0","0.0","0.0","0.0","0.0","0.0","0.0","0.0","0.0","0.0004260758415","0.00021303792075","0.0004260758415","0.0004260758415","0.0","0.00063911376225","0.005112910098","0.0","0.0","0.0004260758415","0.0","0.0","0.0","0.0004260758415","0.0","0.0","0.00021303792075","0.0","0.0","0.0","0.00021303792075","0.0","0.0","0.00021303792075","0.0","0.0","0.0","0.001704303366","0.0","0.0","0.0","0.0","0.0","0.0004260758415","0.0","0.0","0.0","0.000852151683","0.00021303792075","0.0","0.0","0.00021303792075","0.0004260758415","0.0","0.0","0.0004260758415","0.0","0.00021303792075","0.0","0.00021303792075","0.0","0.00149126544525","0.00021303792075","0.00021303792075","0.0","0.00063911376225","0.0","0.003408606732","0.0","0.0","0.00191734128675","0.0","0.0","0.00063911376225","0.0004260758415","0.0","0.0004260758415","0.0","0.0","0.005112910098","0.0004260758415","0.0004260758415","0.0","0.0","0.00106518960375","0.00021303792075","0.00063911376225","0.00021303792075","0.0","0.00234341712825","0.00021303792075","0.0","0.0","0.0","0.002556455049","0.0","0.0004260758415","0.0","0.0","0.00063911376225","0.0004260758415","0.0","0.0","0.0","0.0","0.0","0.0","0.0","0.0","0.0004260758415","0.0","0.0","0.00021303792075","0.0","0.0","0.0004260758415","0.0","0.00021303792075","0.0","0.0","0.0","0.0","0.00106518960375","0.0","0.0","0.0","0.0","0.0004260758415","0.0","0.0","0.0","0.0","0.0004260758415","0.0","0.0","0.00021303792075","0.0","0.0","0.0","0.0","0.0","0.0","0.0","0.0","0.0","0.0","0.0","0.0","0.00021303792075","0.0","0.0","0.0","0.00021303792075","0.0","0.0","0.0","0.0","0.0","0.0","0.0","0.0","0.0","0.0","0.0","0.0","0.0","0.0","0.0","0.0","0.00021303792075","0.0","0.0","0.0","0.0","0.00021303792075","0.0","0.00021303792075","-"
"2016-10-28","Apple","0.0","0.0","0.0","0.000539083557951","0.0","0.0","0.0","0.00161725067385","0.0","0.0","0.0","0.0","0.0","0.0","0.0","0.0","0.00215633423181","0.0","0.0","0.0010781671159","0.000539083557951","0.0","0.0","0.0","0.0","0.0","0.0","0.0","0.0","0.0","0.000539083557951","0.0010781671159","0.0","0.0","0.0","0.0","0.0","0.00161725067385","0.0","0.0","0.0","0.0","0.0","0.0","0.0","0.0","0.0","0.0","0.0","0.0","0.0","0.0","0.0","0.0","0.0","0.0","0.0","0.0","0.0","0.0","0.0","0.00215633423181","0.0","0.0","0.0","0.000539083557951","0.0","0.0","0.0","0.0","0.000539083557951","0.000269541778976","0.0","0.0","0.000539083557951","0.0","0.0","0.0","0.0","0.00134770889488","0.0","0.000539083557951","0.0","0.0","0.0010781671159","0.0","0.0010781671159","0.0","0.0","0.0","0.000539083557951","0.0","0.000539083557951","0.0","0.0","0.0","0.0","0.0","0.0","0.000539083557951","0.0","0.0","0.0","0.0","0.000539083557951","0.0","0.0","0.0","0.0","0.0","0.0","0.0","0.0","0.0","0.0","0.0","0.0","0.0","0.0","0.0","0.0","0.0","0.0","0.0","0.0","0.0","0.0","0.0","0.0","0.0","0.0","0.000539083557951","0.0","0.0","0.0","0.0","0.0","0.0","0.0","0.0","0.0","0.0","0.0","0.0","0.0","0.0","0.0","0.0","0.0","0.0","0.0","0.0","0.000539083557951","0.0","0.0","0.0","0.0","0.0","0.0","0.0","0.0","0.0","0.0","0.0","0.0","0.0","0.000539083557951","0.0","0.0","0.0","0.0","0.0","0.0","0.0","0.0","0.0","0.0","-"
"2016-10-29","Apple","0.0","0.0","0.0","0.0","0.0","0.0","0.0","0.0","0.0","0.0","0.0","0.0","0.0","0.0","0.0","0.0","0.00161812297735","0.0","0.0","0.0","0.0","0.0","0.0","0.0","0.0","0.0","0.0","0.0","0.0","0.0","0.0","0.00161812297735","0.0","0.0","0.0","0.0","0.0","0.00161812297735","0.0","0.0","0.0","0.0","0.0","0.0","0.0","0.0","0.0","0.00161812297735","0.0","0.0","0.0","0.0","0.0","0.0","0.0","0.0","0.0","0.0","0.0","0.0","0.0","0.00323624595469","0.0","0.0","0.0","0.0","0.0","0.0","0.0","0.0","0.00161812297735","0.0","0.0","0.0","0.0","0.0","0.0","0.0","0.0","0.00161812297735","0.00161812297735","0.0","0.0","0.0","0.00161812297735","0.0","0.00161812297735","0.0","0.0","0.00161812297735","0.0","0.0","0.0","0.0","0.0","0.0","0.0","0.0","0.0","0.00323624595469","0.0","0.0","0.0","0.0","0.0","0.0","0.00161812297735","0.0","0.0","0.0","0.0","0.0","0.0","0.0","0.0","0.0","0.0","0.0","0.0","0.0","0.0","0.0","0.0","0.0","0.0","0.0","0.0","0.0","0.0","0.00161812297735","0.0","0.0","0.0","0.0","0.0","0.0","0.0","0.0","0.0","0.0","0.0","0.0","0.0","0.0","0.0","0.0","0.0","0.0","0.0","0.0","0.0","0.0","0.0","0.0","0.0","0.0","0.0","0.0","0.0","0.0","0.0","0.0","0.0","0.0","0.0","0.0","0.0","0.0","0.0","0.0","0.0","0.0","0.0","0.0","0.0","0.00161812297735","0.0","-"
"2016-10-30","Apple","0.0","0.0","0.0","0.0","0.0","0.0","0.0","0.0","0.0","0.0","0.0","0.00167364016736","0.0","0.0","0.0","0.0","0.0","0.0","0.0","0.0","0.0","0.0","0.0","0.0","0.0","0.0","0.0","0.0","0.0","0.0","0.00167364016736","0.0","0.0","0.00167364016736","0.0","0.0","0.0","0.0","0.0","0.0","0.0","0.0","0.0","0.0","0.0","0.0","0.0","0.0","0.0","0.0","0.0","0.0","0.0","0.0","0.0","0.0","0.0","0.00167364016736","0.0","0.0","0.0","0.00167364016736","0.0","0.0","0.0","0.0","0.0","0.0","0.0","0.0","0.00167364016736","0.0","0.0","0.0","0.00167364016736","0.0","0.0","0.0","0.0","0.00334728033473","0.0","0.0","0.0","0.00167364016736","0.0","0.0","0.0","0.0","0.0","0.0","0.0","0.0","0.00167364016736","0.0","0.0","0.0","0.0","0.0","0.0","0.0","0.0","0.0","0.0","0.0","0.0","0.0","0.00167364016736","0.0","0.0","0.0","0.0","0.0","0.0","0.0","0.0","0.0","0.0","0.0","0.0","0.0","0.0","0.0","0.0","0.0","0.0","0.0","0.0","0.00167364016736","0.0","0.0","0.0","0.0","0.0","0.0","0.0","0.0","0.0","0.0","0.0","0.0","0.0","0.0","0.0","0.0","0.0","0.0","0.0","0.0","0.0","0.0","0.0","0.0","0.0","0.0","0.0","0.0","0.0","0.0","0.0","0.0","0.0","0.0","0.0","0.0","0.0","0.0","0.0","0.0","0.0","0.0","0.0","0.0","0.0","0.0","0.0","0.0","0.0","+"
"2016-10-31","Apple","0.0","0.0","0.0","0.0","0.0","0.0","0.0","0.000644329896907","0.0","0.0","0.0","0.0","0.0","0.000644329896907","0.0","0.000644329896907","0.00128865979381","0.0","0.0","0.0","0.0","0.0","0.0","0.0","0.0","0.0","0.0","0.0","0.0","0.0","0.0","0.000644329896907","0.0","0.0","0.0","0.0","0.0","0.00193298969072","0.0","0.0","0.0","0.0","0.0","0.0","0.0","0.0","0.0","0.00128865979381","0.0","0.0","0.0","0.000644329896907","0.0","0.0","0.0","0.0","0.0","0.0","0.0","0.0","0.0","0.00128865979381","0.0","0.0","0.0","0.0","0.0","0.0","0.0","0.0","0.0","0.0","0.0","0.0","0.00128865979381","0.0","0.000644329896907","0.0","0.0","0.000644329896907","0.0","0.0","0.0","0.0","0.0","0.0","0.0","0.0","0.0","0.0","0.0","0.0","0.0","0.0","0.00128865979381","0.0","0.000644329896907","0.0","0.0","0.000644329896907","0.0","0.0","0.0","0.0","0.0","0.0","0.0","0.0","0.0","0.0","0.0","0.0","0.0","0.0","0.0","0.0","0.0","0.0","0.0","0.0","0.0","0.0","0.0","0.0","0.0","0.0","0.0","0.0","0.0","0.0","0.0","0.0","0.0","0.0","0.0","0.0","0.0","0.0","0.0","0.0","0.0","0.0","0.0","0.0","0.0","0.0","0.0","0.0","0.0","0.0","0.0","0.0","0.0","0.0","0.0","0.0","0.0","0.0","0.0","0.0","0.0","0.0","0.0","0.0","0.0","0.0","0.0","0.0","0.0","0.0","0.0","0.0","0.0","0.0","0.0","0.0","0.0","-"
"2016-11-01","Apple","0.0","0.0","0.0","0.0","0.0","0.0","0.0","0.0","0.0","0.0","0.0","0.0","0.0","0.0","0.0","0.000645577792124","0.00774693350549","0.0","0.0","0.000645577792124","0.0","0.0","0.0","0.0","0.0","0.0","0.0","0.0","0.0","0.0","0.0","0.000645577792124","0.0","0.0","0.0","0.0","0.0","0.0","0.0","0.0","0.0","0.0","0.0","0.0","0.0","0.0","0.0","0.0","0.0","0.0","0.0","0.000645577792124","0.0","0.0","0.0","0.0","0.0","0.0","0.0","0.0","0.0","0.0","0.0","0.0","0.0","0.000645577792124","0.0","0.0","0.0","0.0","0.00129115558425","0.0","0.0","0.0","0.0","0.0","0.0","0.0","0.00193673337637","0.00129115558425","0.0","0.0","0.0","0.0","0.0","0.0","0.0","0.0","0.0","0.0","0.000645577792124","0.0","0.0","0.0","0.0","0.0","0.000645577792124","0.0","0.0","0.0","0.0","0.0","0.0","0.000645577792124","0.0025823111685","0.0","0.0","0.0","0.0","0.00322788896062","0.000645577792124","0.0","0.0","0.0","0.0","0.0","0.0","0.0","0.0","0.0","0.0","0.0","0.000645577792124","0.000645577792124","0.0","0.0","0.0","0.0","0.0","0.0","0.0","0.0","0.0","0.000645577792124","0.0","0.0","0.0","0.0","0.0","0.0","0.0","0.0","0.0","0.0","0.0","0.0","0.0","0.0","0.0","0.0","0.0","0.0","0.00129115558425","0.0","0.0","0.0","0.0","0.0","0.0","0.0","0.000645577792124","0.0","0.0","0.0","0.0","0.0","0.0","0.0","0.0","0.0","0.0","0.0","0.0","0.0","0.0","0.0","0.0","+"
"2016-11-04","Apple","0.0","0.0","0.0","0.0","0.0","0.0","0.0","0.0","0.0","0.0","0.0","0.000783699059561","0.0","0.0","0.0","0.0","0.00313479623824","0.0","0.0","0.00156739811912","0.0","0.0","0.0","0.0","0.0","0.0","0.0","0.0","0.0","0.0","0.0","0.0","0.0","0.000783699059561","0.0","0.0","0.0","0.00156739811912","0.0","0.0","0.00156739811912","0.0","0.0","0.0","0.0","0.0","0.0","0.000783699059561","0.0","0.0","0.0","0.0","0.0","0.0","0.0","0.0","0.0","0.000783699059561","0.0","0.0","0.0","0.000783699059561","0.0","0.0","0.0","0.0","0.0","0.000783699059561","0.0","0.0","0.000783699059561","0.0","0.0","0.0","0.00235109717868","0.0","0.0","0.0","0.0","0.000783699059561","0.0","0.0","0.0","0.0","0.000783699059561","0.0","0.0","0.0","0.0","0.0","0.00156739811912","0.0","0.0","0.0","0.0","0.0","0.0","0.000783699059561","0.000783699059561","0.0","0.0","0.0","0.0","0.0","0.00156739811912","0.0","0.0","0.0","0.0","0.000783699059561","0.0","0.0","0.0","0.0","0.0","0.0","0.0","0.0","0.000783699059561","0.0","0.0","0.0","0.0","0.0","0.0","0.0","0.0","0.0","0.0","0.0","0.0","0.0","0.0","0.0","0.0","0.0","0.0","0.0","0.0","0.0","0.0","0.0","0.0","0.0","0.0","0.000783699059561","0.0","0.0","0.0","0.0","0.0","0.0","0.00156739811912","0.0","0.0","0.0","0.0","0.0","0.0","0.0","0.0","0.0","0.0","0.0","0.0","0.0","0.0","0.0","0.0","0.0","0.0","0.0","0.0","0.0","0.0","0.0","0.0","+"
"2016-11-05","Apple","0.0","0.0","0.0","0.0","0.0","0.0","0.0","0.0","0.0","0.0","0.0","0.0","0.0","0.0","0.0","0.0","0.0017825311943","0.0","0.0","0.0","0.0","0.0","0.0","0.0","0.0","0.0","0.0","0.0","0.0","0.0","0.0","0.0","0.0","0.0","0.0","0.0","0.0","0.0","0.0","0.0","0.0","0.0","0.0","0.0","0.0","0.0","0.0","0.0","0.0","0.0","0.0","0.0","0.0","0.0","0.0","0.0","0.0","0.0","0.0","0.0","0.0","0.0017825311943","0.0","0.0","0.0","0.0","0.0","0.0","0.0","0.0","0.0","0.0","0.0","0.0","0.0","0.0","0.0","0.0","0.0","0.0017825311943","0.0","0.0","0.0","0.0","0.0","0.0","0.0","0.0","0.0","0.0","0.0017825311943","0.0","0.0","0.0","0.0","0.0","0.0","0.0017825311943","0.0","0.0","0.0","0.0","0.0","0.0","0.0","0.0","0.0","0.0","0.0","0.0","0.0","0.0","0.0","0.0","0.0","0.0","0.0","0.0","0.0","0.0","0.0","0.0","0.0","0.0","0.0","0.0","0.0","0.0","0.0","0.0","0.0","0.0","0.0","0.0","0.0","0.0","0.0","0.0","0.0","0.0","0.0","0.0","0.0","0.0","0.0","0.0","0.0","0.0","0.0","0.0","0.0","0.0","0.0","0.0","0.0","0.0","0.0","0.0","0.0","0.0","0.0","0.0","0.0","0.0","0.0","0.0","0.0","0.0","0.0","0.0","0.0","0.0","0.0","0.0","0.0","0.0017825311943","0.0","+"
"2016-11-06","Apple","0.0","0.0","0.0","0.0","0.0","0.0","0.0","0.0","0.0","0.0","0.0","0.0","0.0","0.0","0.0","0.0","0.0","0.0","0.0","0.00347222222222","0.0","0.0","0.0","0.0","0.0","0.0","0.0","0.0","0.0","0.0","0.0","0.0","0.0","0.0","0.0","0.0","0.0","0.0104166666667","0.0","0.0","0.0","0.0","0.0","0.0","0.0","0.0","0.00347222222222","0.0","0.0","0.0","0.0","0.0","0.0","0.0","0.0","0.0","0.0","0.0","0.0","0.0","0.0","0.0","0.0","0.0","0.0","0.0","0.0","0.0","0.0","0.0","0.00347222222222","0.0","0.0","0.0","0.0","0.0","0.0","0.0","0.0","0.00347222222222","0.0","0.0","0.0","0.0","0.0","0.0","0.0","0.0","0.0","0.0","0.0","0.0","0.0","0.0","0.0","0.0","0.0","0.0","0.0","0.0","0.0","0.0","0.0","0.0","0.0","0.0","0.0","0.0","0.0","0.0","0.0","0.0","0.0","0.0","0.0","0.0","0.0","0.0","0.0","0.0","0.0","0.0","0.0","0.0","0.0","0.0","0.0","0.0","0.0","0.0","0.0","0.0","0.0","0.0","0.0","0.0","0.0","0.0","0.0","0.0","0.0","0.0","0.0","0.0","0.0","0.0","0.0","0.0","0.0","0.0","0.0","0.0","0.0","0.0","0.0","0.0","0.0","0.0","0.0","0.0","0.0","0.0","0.0","0.0","0.0","0.0","0.0","0.0","0.0","0.0","0.0","0.0","0.0","0.0","0.0","0.0","0.0","+"
"2016-11-07","Apple","0.0","0.0","0.0","0.0","0.0","0.000683994528044","0.0","0.0","0.0","0.0","0.0","0.0","0.0","0.0","0.0","0.0","0.00615595075239","0.0","0.0","0.000683994528044","0.0","0.0","0.0","0.0","0.0","0.0","0.0","0.0","0.0","0.0","0.0","0.0","0.0","0.000683994528044","0.0","0.0","0.0","0.000683994528044","0.0","0.0","0.0","0.0","0.0","0.0","0.0","0.0","0.0","0.0","0.0","0.0","0.0","0.0","0.0","0.0","0.0","0.0","0.0","0.0","0.0","0.0","0.0","0.000683994528044","0.0","0.0","0.0","0.0","0.0","0.0","0.0","0.000683994528044","0.00136798905609","0.0","0.0","0.0","0.0","0.0","0.0","0.0","0.0","0.00136798905609","0.000683994528044","0.0","0.0","0.0","0.000683994528044","0.0","0.0","0.000683994528044","0.0","0.0","0.0","0.0","0.0","0.0","0.0","0.0","0.0","0.0","0.0","0.000683994528044","0.0","0.0","0.0","0.0","0.0","0.0","0.0","0.0","0.0","0.000683994528044","0.0","0.0","0.0","0.0","0.0","0.0","0.0","0.0","0.0","0.0","0.0","0.0","0.0","0.0","0.0","0.0","0.0","0.0","0.0","0.0","0.0","0.0","0.0","0.0","0.0","0.0","0.0","0.0","0.0","0.0","0.0","0.0","0.0","0.00136798905609","0.0","0.0","0.0","0.0","0.0","0.0","0.0","0.0","0.000683994528044","0.0","0.0","0.0","0.0","0.0","0.0","0.0","0.0","0.0","0.0","0.0","0.0","0.0","0.0","0.0","0.0","0.0","0.0","0.0","0.0","0.0","0.0","0.0","0.0","-"
"2016-11-08","Apple","0.0","0.0","0.0","0.0","0.0","0.0","0.0","0.0","0.0","0.0","0.0","0.000835421888053","0.0","0.0","0.0","0.0","0.00167084377611","0.0","0.0","0.0","0.0","0.0","0.0","0.0","0.0","0.0","0.0","0.0","0.0","0.0","0.0","0.0","0.0","0.000835421888053","0.0","0.0","0.0","0.0","0.0","0.0","0.00501253132832","0.0","0.0","0.0","0.0","0.0","0.0","0.00167084377611","0.0","0.0","0.0","0.0","0.0","0.0","0.0","0.0","0.0","0.000835421888053","0.0","0.0","0.0","0.0","0.0","0.0","0.0","0.0","0.0","0.00167084377611","0.0","0.0","0.00250626566416","0.0","0.0","0.000835421888053","0.0","0.0","0.0","0.0","0.0","0.00167084377611","0.0","0.0","0.0","0.0","0.0","0.0","0.0","0.0","0.0","0.0","0.0","0.0","0.0","0.0","0.0","0.0","0.0","0.0","0.0","0.0","0.0","0.0","0.0","0.0","0.0","0.0","0.0","0.0","0.0","0.0","0.0","0.0","0.0","0.0","0.0","0.0","0.0","0.0","0.0","0.0","0.0","0.0","0.0","0.0","0.0","0.0","0.0","0.0","0.0","0.0","0.0","0.0","0.0","0.0","0.0","0.0","0.0","0.0","0.0","0.0","0.0","0.0","0.0","0.0","0.0","0.0","0.0","0.0","0.0","0.0","0.0","0.0","0.0","0.0","0.0","0.0","0.0","0.0","0.0","0.0","0.0","0.0","0.0","0.0","0.0","0.0","0.0","0.0","0.0","0.0","0.0","0.0","0.0","0.0","0.0","0.0","0.0","+"
"2016-11-18","Apple","0.0","0.0","0.0","0.0","0.0","0.0","0.0","0.0","0.0","0.0","0.0","0.0","0.0","0.0","0.0","0.000676132521974","0.0","0.0","0.0","0.0","0.0","0.0","0.000676132521974","0.0","0.0","0.0","0.0","0.0","0.0","0.0","0.0","0.0","0.0","0.0","0.0","0.0","0.0","0.000676132521974","0.0","0.0","0.0","0.0","0.0","0.0","0.0","0.0","0.0","0.000676132521974","0.0","0.0","0.0","0.0","0.0","0.0","0.0","0.0","0.0","0.0","0.000676132521974","0.0","0.0","0.0","0.0","0.0","0.0","0.00135226504395","0.0","0.0","0.0","0.0","0.000676132521974","0.0","0.0","0.0","0.0","0.0","0.0","0.0","0.0","0.000676132521974","0.0","0.0","0.0","0.00135226504395","0.000676132521974","0.0","0.0","0.0","0.0","0.0","0.0","0.0","0.0","0.0","0.000676132521974","0.0","0.0","0.0","0.00135226504395","0.0","0.0","0.0","0.0","0.0","0.00135226504395","0.0","0.0","0.0","0.000676132521974","0.0","0.0","0.0","0.0","0.0","0.0","0.0","0.0","0.0","0.0","0.0","0.0","0.0","0.0","0.0","0.0","0.0","0.0","0.000676132521974","0.0","0.0","0.0","0.0","0.0","0.0","0.0","0.0","0.0","0.0","0.0","0.0","0.0","0.0","0.0","0.000676132521974","0.0","0.0","0.0","0.0","0.0","0.0","0.0","0.0","0.0","0.0","0.0","0.0","0.0","0.0","0.0","0.0","0.0","0.0","0.0","0.0","0.0","0.0","0.0","0.0","0.0","0.0","0.0","0.0","0.0","0.0","0.0","0.0","0.0","+"
"2016-11-19","Apple","0.0","0.0","0.0","0.0","0.0","0.0","0.0","0.0","0.001287001287","0.0","0.0","0.0","0.0","0.0","0.0","0.0","0.001287001287","0.0","0.0","0.0","0.0","0.0","0.0","0.0","0.0","0.0","0.0","0.0","0.0","0.0","0.0","0.0","0.0","0.0","0.0","0.0","0.0","0.0","0.0","0.0","0.0","0.0","0.0","0.0","0.0","0.0","0.0","0.0","0.0","0.0","0.001287001287","0.0","0.0","0.0","0.0","0.0","0.0","0.0","0.0","0.0","0.0","0.001287001287","0.0","0.0","0.0","0.0","0.0","0.0","0.0","0.0","0.00514800514801","0.0","0.0","0.0","0.0","0.0","0.0","0.0","0.0","0.0","0.0","0.0","0.0","0.0","0.0","0.0","0.0","0.0","0.0","0.0","0.0","0.0","0.0","0.0","0.0","0.0","0.0","0.0","0.0","0.0","0.0","0.0","0.0","0.0","0.0","0.0","0.0","0.0","0.0","0.0","0.0","0.0","0.0","0.0","0.0","0.0","0.0","0.0","0.0","0.0","0.0","0.0","0.0","0.0","0.0","0.0","0.0","0.0","0.0","0.0","0.0","0.0","0.001287001287","0.0","0.0","0.0","0.0","0.0","0.0","0.0","0.0","0.0","0.0","0.001287001287","0.0","0.0","0.0","0.0","0.0","0.0","0.0","0.0","0.0","0.0","0.0","0.0","0.0","0.0","0.0","0.0","0.0","0.0","0.0","0.0","0.0","0.0","0.0","0.0","0.0","0.0","0.0","0.0","0.0","0.0","0.0","0.0","0.0","-"
"2016-11-20","Apple","0.0","0.0","0.0","0.0","0.0","0.0","0.0","0.0","0.0","0.0","0.0","0.0","0.0","0.0","0.0","0.0","0.0","0.0","0.0","0.0","0.0","0.0","0.0","0.0","0.0","0.0","0.0","0.0","0.0","0.0","0.0","0.0","0.0","0.0","0.0","0.0","0.0","0.0","0.0","0.0","0.0","0.0","0.0","0.0","0.0","0.0","0.0","0.0","0.0","0.0","0.0","0.0","0.0","0.0","0.0","0.0","0.0","0.0","0.0","0.0","0.0","0.00334448160535","0.0","0.0","0.0","0.0","0.0","0.0","0.0","0.0","0.0133779264214","0.00167224080268","0.0","0.0","0.0","0.0","0.0","0.0","0.0","0.0","0.0","0.0","0.0","0.0","0.0","0.0","0.0","0.0","0.0","0.0","0.0","0.0","0.0","0.0","0.0","0.0","0.0","0.0","0.0","0.0","0.0","0.0","0.0","0.0","0.0","0.0","0.0","0.0","0.0","0.0","0.0","0.0","0.0","0.0","0.0","0.0","0.0","0.0","0.0","0.0","0.0","0.0","0.0","0.0","0.0","0.0","0.0","0.0","0.0","0.0","0.0","0.0","0.0","0.0","0.0","0.0","0.0","0.0","0.0","0.0","0.0","0.0","0.0","0.0","0.0","0.0","0.0","0.0","0.0","0.0","0.0","0.0","0.0","0.0","0.0","0.0","0.0","0.0","0.0","0.0","0.0","0.0","0.0","0.0","0.0","0.0","0.0","0.0","0.0","0.0","0.0","0.0","0.0","0.0","0.0","0.0","0.0","-"
"2016-11-22","Apple","0.0","0.0","0.0","0.0","0.0","0.0","0.0","0.0","0.0","0.0","0.0","0.00161812297735","0.0","0.0","0.0","0.0","0.00242718446602","0.0","0.0","0.0","0.0","0.0","0.0","0.0","0.0","0.0","0.000809061488673","0.0","0.0","0.0","0.00242718446602","0.0","0.0","0.0","0.0","0.0","0.0","0.0","0.0","0.0","0.0","0.0","0.0","0.0","0.0","0.0","0.0","0.000809061488673","0.0","0.0","0.0","0.0","0.0","0.0","0.0","0.0","0.0","0.00161812297735","0.0","0.000809061488673","0.0","0.00323624595469","0.0","0.0","0.0","0.0","0.0","0.0","0.0","0.0","0.0","0.0","0.0","0.0","0.0","0.0","0.0","0.0","0.0","0.000809061488673","0.0","0.0","0.0","0.000809061488673","0.0","0.0","0.0","0.0","0.0","0.0","0.0","0.0","0.0","0.0","0.0","0.0","0.0","0.0","0.0","0.0","0.0","0.0","0.0","0.0","0.00323624595469","0.0","0.0","0.0","0.0","0.0","0.0","0.0","0.0","0.0","0.0","0.0","0.0","0.0","0.0","0.0","0.0","0.0","0.0","0.0","0.0","0.0","0.0","0.0","0.0","0.0","0.0","0.0","0.0","0.0","0.0","0.0","0.0","0.0","0.0","0.0","0.0","0.0","0.0","0.000809061488673","0.0","0.0","0.0","0.0","0.0","0.0","0.0","0.0","0.0","0.0","0.0","0.0","0.00161812297735","0.0","0.0","0.0","0.00161812297735","0.0","0.0","0.0","0.0","0.0","0.0","0.0","0.0","0.0","0.0","0.0","0.0","0.00323624595469","0.0","0.0","0.000809061488673","+"
"2016-11-25","Apple","0.0","0.0","0.0","0.0","0.0","0.0","0.0","0.0","0.0","0.0","0.0","0.0","0.0","0.0","0.0","0.0","0.0469361147327","0.0","0.0","0.0","0.0","0.0","0.0","0.0","0.0","0.0","0.0","0.0","0.0","0.0","0.0","0.0","0.0","0.0","0.0","0.0","0.0","0.0013037809648","0.0","0.0","0.0","0.0","0.0","0.0","0.0","0.0","0.0","0.0","0.0","0.0","0.0","0.00521512385919","0.0","0.0","0.0","0.0","0.0","0.0","0.0","0.0","0.0","0.0013037809648","0.0","0.0","0.0","0.0","0.0","0.0","0.0","0.0","0.00391134289439","0.0","0.0","0.0","0.0013037809648","0.0","0.0","0.0","0.0","0.0013037809648","0.0013037809648","0.0","0.0","0.0","0.0","0.0","0.0","0.0","0.0","0.0","0.0","0.0","0.0","0.0","0.0","0.0","0.0","0.0","0.0","0.0","0.0","0.0","0.0","0.0","0.0013037809648","0.0","0.0","0.0","0.0","0.0","0.0","0.0","0.0","0.0","0.0","0.0","0.0","0.0","0.0","0.0","0.0","0.0","0.0","0.0","0.0","0.0","0.0","0.0","0.0","0.0","0.0","0.0013037809648","0.0","0.0","0.0","0.0","0.0","0.0","0.0","0.0","0.0026075619296","0.0","0.0","0.0","0.0","0.0","0.0","0.0","0.0","0.0","0.0","0.0","0.0","0.0","0.0","0.0","0.0013037809648","0.0","0.0","0.0013037809648","0.0","0.0","0.0","0.0","0.0","0.0","0.0","0.0","0.0","0.0","0.0","0.0","0.0","0.0","0.0","0.0","0.0013037809648","+"
"2016-11-26","Apple","0.0","0.0","0.0","0.0","0.0","0.0","0.0","0.0","0.0","0.0","0.0","0.0","0.0","0.0","0.0","0.0","0.00485436893204","0.0","0.0","0.00242718446602","0.0","0.0","0.0","0.0","0.0","0.0","0.0","0.0","0.0","0.0","0.0","0.0","0.0","0.0","0.0","0.0","0.0","0.0","0.0","0.0","0.0","0.0","0.0","0.0","0.0","0.0","0.0","0.00242718446602","0.0","0.0","0.0","0.0","0.0","0.0","0.0","0.0","0.0","0.0","0.0","0.0","0.0","0.00242718446602","0.0","0.0","0.0","0.0","0.0","0.00242718446602","0.0","0.0","0.00242718446602","0.0","0.0","0.0","0.0","0.0","0.0","0.0","0.0","0.00242718446602","0.0","0.0","0.0","0.0","0.0","0.0","0.0","0.0","0.0","0.0","0.0","0.0","0.0","0.0","0.0","0.0","0.0","0.0","0.0","0.0","0.0","0.0","0.0","0.0","0.00485436893204","0.0","0.0","0.0","0.0","0.0","0.0","0.0","0.0","0.0","0.0","0.0","0.0","0.0","0.0","0.0","0.0","0.0","0.0","0.0","0.0","0.0","0.0","0.0","0.0","0.0","0.0","0.0","0.0","0.0","0.0","0.0","0.0","0.0","0.0","0.0","0.0","0.0","0.0","0.0","0.0","0.0","0.0","0.0","0.0","0.0","0.0","0.0","0.0","0.0","0.0","0.0","0.0","0.0","0.0","0.0","0.0","0.0","0.0","0.0","0.0","0.0","0.0","0.0","0.0","0.0","0.0","0.0","0.0","0.0","0.0","0.0","0.0","+"
"2016-11-27","Apple","0.0","0.0","0.0","0.0","0.0","0.0","0.0","0.0","0.0","0.0","0.0","0.0","0.0","0.0","0.0","0.0","0.00242718446602","0.0","0.0","0.0","0.00242718446602","0.0","0.0","0.00242718446602","0.0","0.0","0.0","0.0","0.0","0.0","0.0","0.0","0.0","0.0","0.0","0.0","0.0","0.00242718446602","0.0","0.0","0.0","0.0","0.0","0.0","0.0","0.0","0.0","0.0","0.0","0.0","0.0","0.0","0.0","0.0","0.0","0.00242718446602","0.0","0.0","0.0","0.0","0.0","0.00242718446602","0.00242718446602","0.0","0.0","0.0","0.0","0.0","0.0","0.0","0.00242718446602","0.0","0.0","0.0","0.0","0.0","0.0","0.0","0.0","0.00242718446602","0.0","0.0","0.0","0.0","0.0","0.0","0.0","0.0","0.0","0.0","0.0","0.0","0.0","0.0","0.0","0.0","0.00242718446602","0.0","0.0","0.0","0.0","0.0","0.0","0.00242718446602","0.0","0.0","0.0","0.0","0.0","0.0","0.0","0.0","0.0","0.0","0.0","0.0","0.0","0.0","0.0","0.0","0.0","0.0","0.0","0.0","0.0","0.0","0.0","0.0","0.0","0.0","0.0","0.0","0.0","0.00242718446602","0.0","0.0","0.0","0.0","0.0","0.0","0.0","0.0","0.0","0.0","0.0","0.0","0.0","0.0","0.0","0.0","0.0","0.0","0.0","0.0","0.0","0.0","0.0","0.0","0.0","0.0","0.0","0.0","0.0","0.0","0.0","0.0","0.0","0.0","0.0","0.0","0.0","0.0","0.0","0.0","0.0","0.0","0.0","-"
"2016-11-28","Apple","0.0","0.0","0.0","0.0","0.0","0.0","0.0","0.000900900900901","0.000900900900901","0.0","0.0","0.0","0.0","0.0","0.0","0.0","0.00900900900901","0.0","0.0","0.0","0.0","0.0","0.0","0.0","0.0","0.0","0.0","0.0","0.0","0.0","0.0","0.0","0.0","0.0","0.0","0.0","0.0","0.0","0.0","0.0","0.0","0.0","0.0","0.0","0.0","0.0","0.0","0.0","0.0","0.0","0.000900900900901","0.000900900900901","0.0","0.0","0.0","0.0","0.0","0.0","0.0","0.0","0.0","0.0018018018018","0.000900900900901","0.0","0.0","0.0","0.0","0.0018018018018","0.0","0.0","0.000900900900901","0.0","0.0","0.0","0.0","0.0","0.0","0.0","0.0","0.000900900900901","0.0","0.0","0.0","0.000900900900901","0.0","0.0","0.0","0.0","0.0","0.0","0.0","0.0","0.0","0.0","0.0","0.0","0.000900900900901","0.0","0.0","0.0","0.0","0.0","0.0","0.0","0.000900900900901","0.0","0.0","0.0","0.0","0.0","0.0","0.0","0.0","0.0","0.0","0.0","0.0","0.0","0.0","0.0","0.0","0.0","0.0","0.0","0.0","0.0","0.0","0.0","0.0","0.0","0.0","0.0","0.0","0.0","0.0","0.0","0.0","0.0","0.0","0.0","0.000900900900901","0.0","0.0","0.0","0.0","0.0","0.0","0.0","0.0","0.0","0.0","0.0","0.0","0.0","0.0","0.0","0.000900900900901","0.0","0.0","0.0","0.0","0.0","0.0","0.0","0.0","0.0","0.0","0.0","0.0","0.0","0.0","0.0","0.0","0.0","0.0","0.0","0.0","-"
"2016-11-29","Apple","0.0","0.0","0.0","0.0","0.0","0.0","0.0","0.0","0.0","0.0","0.0","0.0","0.0","0.0","0.0","0.000877192982456","0.00263157894737","0.0","0.0","0.0","0.0","0.0","0.0","0.0","0.0","0.0","0.0","0.0","0.0","0.0","0.00175438596491","0.0","0.0","0.0","0.0","0.0","0.0","0.00175438596491","0.0","0.0","0.000877192982456","0.0","0.0","0.0","0.0","0.0","0.0","0.000877192982456","0.0","0.0","0.0","0.0","0.0","0.0","0.0","0.0","0.0","0.0","0.0","0.0","0.0","0.000877192982456","0.0","0.0","0.0","0.00263157894737","0.0","0.0","0.0","0.0","0.00350877192982","0.0","0.0","0.0","0.0","0.0","0.0","0.0","0.0","0.000877192982456","0.0","0.0","0.0","0.00175438596491","0.00175438596491","0.0","0.000877192982456","0.0","0.0","0.0","0.000877192982456","0.0","0.000877192982456","0.0","0.0","0.0","0.000877192982456","0.0","0.0","0.0","0.0","0.0","0.0","0.0","0.0","0.0","0.0","0.0","0.0","0.0","0.00263157894737","0.0","0.0","0.0","0.0","0.0","0.0","0.0","0.0","0.0","0.0","0.000877192982456","0.0","0.0","0.0","0.0","0.0","0.0","0.0","0.0","0.0","0.0","0.0","0.0","0.0","0.0","0.0","0.0","0.0","0.0","0.0","0.0","0.0","0.0","0.0","0.0","0.0","0.0","0.0","0.0","0.0","0.0","0.00175438596491","0.0","0.0","0.0","0.0","0.0","0.0","0.0","0.0","0.0","0.0","0.0","0.0","0.0","0.0","0.0","0.0","0.0","0.0","0.0","0.0","0.0","0.0","0.000877192982456","0.0","+"
