"DATE","COMPANY","trusted","greatness","authentic","blockbuster","convenient","gaining","providence","thinner","benefits","improvements","perfection","helped","competitive","encourage","amusing","fair","right","interests","relaxed","clearly","luxury","enterprising","safe","loved","cheapest","humour","cleared","applaud","slick","uplifting","golden","reclaim","empower","benefit","scenic","serenity","excitement","work","invaluable","honoring","appeal","accomplish","instrumental","famous","keen","approval","favour","wonder","promising","comfort","benefits","upgraded","strongest","exceptional","unreal","loved","lover","helped","recommendation","quiet","cleaner","innovation","helping","superior","safely","thank","promise","favorite","generous","grateful","bullish","colorful","precise","afford","innovative","beloved","heaven","recommendations","honor","love","fresh","confidence","dynamic","significant","gains","foul","fail","virus","error","slump","volatility","dumping","anger","bugs","leaks","pan","broken","sucks","suffer","stuck","tumble","loser","disturb","bust","losing","neglect","scary","fever","scare","mistake","denied","vibrating","mysterious","conflict","hypocritical","bitch","sabotage","protest","deplorable","poorly","demonic","skinny","sharply","corrupt","gape","cheat","diss","slower","moan","dent","sued","hurt","tired","bust","bloody","illness","biases","abuses","slime","struck","emergency","illegal","damaging","blind","taboo","screwed","feint","regrets","anxiety","disprove","confront","blackmail","stupid","blunder","cruelty","delusional","overwhelmingly","phony","blasted","backward","crashes","drastically","ranting","crappy","intimidating","gossip","odd","insult","harms","absurd","invader","fails","vague","clash","scared","trick","dumb","+/-/="
"2016-09-19","Boeing","0.0","0.0","0.0","0.0","0.0","0.00034566194262","0.0","0.00034566194262","0.00069132388524","0.0","0.0","0.00138264777048","0.0","0.0","0.0","0.0","0.00483926719668","0.0","0.0","0.0","0.0","0.0","0.00103698582786","0.00034566194262","0.0","0.0","0.00034566194262","0.0","0.0","0.0","0.00034566194262","0.0","0.0","0.0","0.0","0.00034566194262","0.00034566194262","0.0051849291393","0.0","0.0","0.0","0.0","0.0","0.00034566194262","0.00034566194262","0.00069132388524","0.00034566194262","0.00207397165572","0.0","0.0","0.00069132388524","0.00034566194262","0.0","0.0","0.0","0.00034566194262","0.0","0.00138264777048","0.0","0.00069132388524","0.0","0.0","0.00103698582786","0.0","0.0","0.00207397165572","0.0","0.00138264777048","0.0","0.00034566194262","0.00069132388524","0.0","0.0","0.00069132388524","0.0","0.0","0.00034566194262","0.0","0.00069132388524","0.00967853439336","0.00034566194262","0.0","0.00034566194262","0.0","0.0","0.00034566194262","0.00034566194262","0.0","0.00034566194262","0.00103698582786","0.0","0.0","0.00034566194262","0.0","0.0","0.0","0.00034566194262","0.00034566194262","0.0","0.00069132388524","0.0","0.0","0.0","0.0","0.0","0.0","0.00069132388524","0.0","0.00034566194262","0.00069132388524","0.0","0.0","0.0","0.0","0.0","0.00034566194262","0.0","0.0","0.0","0.0","0.0","0.0","0.0","0.0","0.0","0.0","0.00034566194262","0.0","0.0","0.0","0.0","0.00207397165572","0.00069132388524","0.0","0.00069132388524","0.0","0.0","0.0","0.0","0.0","0.0","0.0","0.0","0.0","0.0","0.0","0.0","0.0","0.0","0.0","0.0","0.0","0.00103698582786","0.0","0.0","0.0","0.0","0.0","0.0","0.0","0.0","0.0","0.0","0.0","0.0","0.0","0.00103698582786","0.0","0.0","0.0","0.0","0.00034566194262","0.0","0.0","0.0","0.00069132388524","0.0","+"
"2016-09-20","Boeing","0.0","0.0","0.0","0.0","0.000282485875706","0.000282485875706","0.0","0.0","0.0","0.0","0.0","0.00112994350282","0.000282485875706","0.0","0.0","0.0","0.00536723163842","0.0","0.0","0.000847457627119","0.00141242937853","0.0","0.000282485875706","0.000564971751412","0.0","0.0","0.000564971751412","0.0","0.0","0.0","0.0","0.0","0.0","0.0","0.0","0.000282485875706","0.000282485875706","0.00564971751412","0.0","0.0","0.0","0.0","0.0","0.000564971751412","0.000282485875706","0.000282485875706","0.0","0.000564971751412","0.000282485875706","0.0","0.0","0.0","0.0","0.0","0.0","0.000564971751412","0.0","0.00112994350282","0.0","0.0","0.0","0.000564971751412","0.00197740112994","0.0","0.0","0.00367231638418","0.000282485875706","0.000564971751412","0.0","0.0","0.0","0.0","0.0","0.000564971751412","0.000847457627119","0.000282485875706","0.0","0.0","0.000564971751412","0.00847457627119","0.00254237288136","0.000282485875706","0.0","0.0","0.0","0.0","0.000564971751412","0.0","0.0","0.0","0.0","0.0","0.0","0.0","0.0","0.0","0.000847457627119","0.000564971751412","0.0","0.000282485875706","0.0","0.000282485875706","0.0","0.0","0.000847457627119","0.0","0.0","0.0","0.000282485875706","0.000282485875706","0.0","0.0","0.000282485875706","0.0","0.0","0.000847457627119","0.0","0.000282485875706","0.0","0.0","0.0","0.0","0.0","0.0","0.0","0.0","0.000282485875706","0.0","0.0","0.0","0.0","0.000847457627119","0.000282485875706","0.0","0.0","0.0","0.0","0.0","0.0","0.000282485875706","0.000282485875706","0.0","0.0","0.0","0.0","0.0","0.0","0.0","0.000282485875706","0.0","0.0","0.0","0.000282485875706","0.0","0.0","0.0","0.0","0.0","0.0","0.0","0.000564971751412","0.0","0.0","0.0","0.0","0.000282485875706","0.000282485875706","0.000282485875706","0.0","0.0","0.0","0.0","0.0","0.0","0.000282485875706","0.0","0.000282485875706","+"
"2016-09-23","Boeing","0.0","0.0","0.0","0.0","0.0","0.0","0.0","0.0","0.00102599179207","0.000683994528044","0.0","0.000341997264022","0.0","0.0","0.0","0.000683994528044","0.00410396716826","0.0","0.0","0.0","0.000341997264022","0.0","0.00102599179207","0.00102599179207","0.0","0.0","0.0","0.0","0.0","0.0","0.0","0.0","0.0","0.0","0.0","0.000341997264022","0.000683994528044","0.00752393980848","0.0","0.0","0.0","0.0","0.0","0.00102599179207","0.000341997264022","0.000341997264022","0.0","0.00102599179207","0.0","0.000341997264022","0.00102599179207","0.000341997264022","0.0","0.0","0.000341997264022","0.00102599179207","0.0","0.000341997264022","0.0","0.000683994528044","0.0","0.0","0.000683994528044","0.0","0.0","0.00239398084815","0.0","0.00136798905609","0.0","0.000683994528044","0.0","0.0","0.0","0.000341997264022","0.0","0.000341997264022","0.0","0.000341997264022","0.0","0.015389876881","0.0030779753762","0.0","0.0","0.0","0.0","0.0","0.0","0.0","0.0","0.0","0.0","0.0","0.000341997264022","0.000341997264022","0.0","0.000341997264022","0.0","0.0","0.0","0.0030779753762","0.0","0.0","0.0","0.0","0.000683994528044","0.0","0.000341997264022","0.0","0.0","0.0","0.0","0.0","0.000341997264022","0.000341997264022","0.0","0.000683994528044","0.0","0.000341997264022","0.000341997264022","0.0","0.0","0.0","0.0","0.0","0.000341997264022","0.000341997264022","0.0","0.0","0.0","0.0","0.0","0.000683994528044","0.0","0.0","0.000341997264022","0.0","0.0","0.0","0.0","0.0","0.000341997264022","0.00136798905609","0.0","0.0","0.0","0.0","0.0","0.0","0.0","0.0","0.0","0.0","0.0","0.0","0.0","0.0","0.0","0.0","0.0","0.0","0.0","0.0","0.0","0.0","0.0","0.0","0.0","0.000341997264022","0.0","0.0","0.0","0.0","0.0","0.0","0.000683994528044","0.0","0.0","-"
"2016-09-24","Boeing","0.0","0.0","0.0","0.0","0.000257665550116","0.0","0.0","0.0","0.0","0.0","0.0","0.000772996650348","0.0","0.0","0.0","0.000515331100232","0.00360731770162","0.0","0.0","0.000515331100232","0.00128832775058","0.0","0.000257665550116","0.000257665550116","0.0","0.000257665550116","0.000257665550116","0.0","0.0","0.0","0.0","0.0","0.0","0.000515331100232","0.0","0.000257665550116","0.0","0.00334965215151","0.0","0.0","0.000772996650348","0.0","0.0","0.000515331100232","0.000257665550116","0.000515331100232","0.0","0.000515331100232","0.0","0.0","0.0","0.0","0.0","0.0","0.0","0.000257665550116","0.000515331100232","0.000772996650348","0.000257665550116","0.000515331100232","0.0","0.000772996650348","0.000257665550116","0.0","0.0","0.00180365885081","0.000257665550116","0.00206132440093","0.0","0.0","0.000257665550116","0.0","0.0","0.0","0.0","0.000515331100232","0.000257665550116","0.0","0.0","0.0157175985571","0.00103066220046","0.0","0.0","0.0","0.0","0.0","0.000772996650348","0.0","0.000257665550116","0.0","0.0","0.0","0.0","0.000772996650348","0.0","0.0","0.000257665550116","0.0","0.0","0.000257665550116","0.0","0.000257665550116","0.0","0.0","0.000515331100232","0.0","0.0","0.0","0.0","0.000257665550116","0.0","0.0","0.0","0.0","0.0","0.000257665550116","0.0","0.0","0.0","0.0","0.0","0.0","0.0","0.000257665550116","0.0","0.0","0.0","0.0","0.0","0.0","0.0","0.000515331100232","0.000515331100232","0.0","0.0","0.0","0.0","0.0","0.0","0.000257665550116","0.000515331100232","0.000772996650348","0.0","0.000257665550116","0.0","0.0","0.0","0.0","0.000257665550116","0.0","0.0","0.0","0.000515331100232","0.0","0.0","0.0","0.0","0.0","0.0","0.0","0.000772996650348","0.0","0.0","0.0","0.0","0.000257665550116","0.0","0.000257665550116","0.0","0.0","0.0","0.000257665550116","0.0","0.0","0.0","0.000257665550116","0.000515331100232","+"
"2016-09-25","Boeing","0.0","0.0","0.0","0.0","0.0","0.0","0.0","0.0","0.0","0.0","0.0","0.000400641025641","0.0","0.0","0.0","0.000400641025641","0.00400641025641","0.0","0.0","0.000400641025641","0.000801282051282","0.0","0.00160256410256","0.000400641025641","0.0","0.000400641025641","0.000400641025641","0.0","0.0","0.0","0.0","0.0","0.0","0.0","0.0","0.0","0.000400641025641","0.00400641025641","0.0","0.0","0.0","0.0","0.0","0.000801282051282","0.000801282051282","0.000400641025641","0.0","0.00160256410256","0.0","0.000801282051282","0.0","0.0","0.0","0.0","0.0","0.000400641025641","0.0","0.000400641025641","0.0","0.000400641025641","0.0","0.000801282051282","0.00160256410256","0.0","0.0","0.00120192307692","0.0","0.00360576923077","0.0","0.000400641025641","0.0","0.0","0.0","0.000801282051282","0.0","0.0","0.0","0.0","0.000400641025641","0.0180288461538","0.000400641025641","0.0","0.0","0.0","0.000400641025641","0.000801282051282","0.0","0.0","0.0","0.0","0.0","0.0","0.0","0.0","0.0","0.0","0.000801282051282","0.000400641025641","0.000400641025641","0.00120192307692","0.0","0.0","0.0","0.0","0.0","0.0","0.0","0.0","0.0","0.000400641025641","0.0","0.0","0.0","0.0","0.0","0.000400641025641","0.0","0.0","0.0","0.0","0.0","0.0","0.0","0.0","0.0","0.000400641025641","0.0","0.0","0.0","0.0","0.0","0.000400641025641","0.000400641025641","0.0","0.0","0.0","0.0","0.0","0.0","0.0","0.00280448717949","0.000801282051282","0.0","0.0","0.0","0.0","0.0","0.0","0.0","0.0","0.0","0.0","0.0","0.0","0.0","0.0","0.0","0.0","0.0","0.0","0.00200320512821","0.0","0.0","0.0","0.0","0.000400641025641","0.0","0.0","0.0","0.0","0.0","0.0","0.0","0.0","0.0","0.0","0.0","+"
"2016-09-26","Boeing","0.000240153698367","0.0","0.0","0.0","0.0","0.0","0.000240153698367","0.0","0.000480307396734","0.0","0.000240153698367","0.000960614793468","0.0","0.0","0.0","0.000480307396734","0.00552353506244","0.0","0.0","0.000240153698367","0.000960614793468","0.0","0.000960614793468","0.000480307396734","0.000240153698367","0.0","0.000240153698367","0.0","0.0","0.0","0.000240153698367","0.0","0.0","0.000240153698367","0.0","0.0","0.000240153698367","0.0036023054755","0.0","0.0","0.0","0.0","0.0","0.000720461095101","0.000480307396734","0.000960614793468","0.000240153698367","0.000240153698367","0.000240153698367","0.0","0.000480307396734","0.000240153698367","0.0","0.0","0.0","0.000480307396734","0.000240153698367","0.000960614793468","0.0","0.000720461095101","0.0","0.0014409221902","0.000240153698367","0.0","0.000720461095101","0.0028818443804","0.000240153698367","0.0014409221902","0.000240153698367","0.0","0.0","0.000240153698367","0.0","0.000240153698367","0.000240153698367","0.0","0.000240153698367","0.000240153698367","0.0","0.0120076849183","0.00312199807877","0.0","0.000240153698367","0.0","0.0","0.0","0.000480307396734","0.0","0.0","0.0","0.0","0.0","0.0","0.0","0.000240153698367","0.0","0.0","0.0","0.000240153698367","0.000480307396734","0.0","0.0","0.0","0.0","0.000240153698367","0.0","0.0","0.0","0.0","0.0","0.0","0.0","0.0","0.0","0.0","0.000720461095101","0.0","0.0","0.0","0.000240153698367","0.0","0.0","0.0","0.0","0.000240153698367","0.000960614793468","0.0","0.0","0.0","0.0","0.000480307396734","0.000480307396734","0.000720461095101","0.0","0.000480307396734","0.0","0.0","0.0","0.0","0.000240153698367","0.0","0.000720461095101","0.0","0.000480307396734","0.0","0.000720461095101","0.0","0.0","0.0","0.0","0.0","0.0","0.000480307396734","0.0","0.0","0.0","0.0","0.0","0.0","0.0","0.0","0.0","0.0","0.0","0.0","0.0","0.0","0.0","0.0","0.0","0.0","0.0","0.0","0.0","0.000240153698367","0.0","0.000240153698367","-"
"2016-09-27","Boeing","0.0","0.0","0.000245037980887","0.0","0.000245037980887","0.0","0.0","0.0","0.000245037980887","0.000245037980887","0.0","0.000980151923548","0.000245037980887","0.000245037980887","0.0","0.000735113942661","0.0105366331781","0.0","0.000245037980887","0.000245037980887","0.00147022788532","0.0","0.000735113942661","0.00122518990444","0.0","0.0","0.000735113942661","0.0","0.0","0.0","0.0","0.0","0.0","0.000245037980887","0.000245037980887","0.000245037980887","0.0","0.00784121538839","0.0","0.0","0.0","0.0","0.0","0.0","0.000245037980887","0.00147022788532","0.0","0.000735113942661","0.000245037980887","0.000490075961774","0.000245037980887","0.000245037980887","0.0","0.0","0.0","0.00122518990444","0.0","0.000980151923548","0.0","0.000245037980887","0.0","0.000490075961774","0.00122518990444","0.0","0.000245037980887","0.00269541778976","0.000490075961774","0.00367556971331","0.0","0.0","0.0","0.0","0.0","0.000245037980887","0.000245037980887","0.0","0.000245037980887","0.0","0.000245037980887","0.0134770889488","0.00343053173242","0.0","0.0","0.000245037980887","0.0","0.0","0.000490075961774","0.0","0.000735113942661","0.000245037980887","0.0","0.0","0.0","0.0","0.000245037980887","0.0","0.000245037980887","0.000490075961774","0.0","0.0","0.0","0.0","0.000245037980887","0.0","0.0","0.0","0.000245037980887","0.0","0.0","0.0","0.000245037980887","0.0","0.0","0.000245037980887","0.0","0.000490075961774","0.000245037980887","0.0","0.0","0.000245037980887","0.0","0.0","0.0","0.0","0.0","0.0","0.0","0.0","0.000245037980887","0.0","0.0","0.000735113942661","0.000490075961774","0.0","0.0","0.0","0.0","0.0","0.0","0.000245037980887","0.0","0.000245037980887","0.0","0.0","0.0","0.0","0.0","0.0","0.000245037980887","0.0","0.0","0.0","0.000245037980887","0.0","0.0","0.0","0.0","0.0","0.0","0.0","0.0","0.0","0.0","0.0","0.0","0.0","0.000245037980887","0.0","0.0","0.0","0.0","0.0","0.0","0.000245037980887","0.000245037980887","0.0","0.0","-"
"2016-09-30","Boeing","0.000251004016064","0.0","0.0","0.0","0.0","0.0","0.000251004016064","0.0","0.000753012048193","0.0","0.000502008032129","0.0","0.0","0.0","0.0","0.000251004016064","0.00577309236948","0.0","0.0","0.000251004016064","0.000251004016064","0.0","0.000502008032129","0.000502008032129","0.0","0.0","0.0","0.0","0.0","0.0","0.0","0.0","0.0","0.000753012048193","0.0","0.0","0.000251004016064","0.00853413654618","0.0","0.0","0.0","0.0","0.0","0.000502008032129","0.000251004016064","0.00200803212851","0.000502008032129","0.00100401606426","0.0","0.000251004016064","0.000753012048193","0.000251004016064","0.0","0.0","0.000251004016064","0.000502008032129","0.0","0.0","0.0","0.0","0.0","0.000502008032129","0.000502008032129","0.0","0.0","0.00150602409639","0.00100401606426","0.00100401606426","0.000251004016064","0.000251004016064","0.0","0.0","0.0","0.000251004016064","0.0","0.0","0.0","0.000251004016064","0.000251004016064","0.0128012048193","0.00175702811245","0.0","0.0","0.0","0.0","0.0","0.000251004016064","0.0","0.000753012048193","0.0","0.0","0.000251004016064","0.0","0.0","0.0","0.0","0.000251004016064","0.000251004016064","0.000251004016064","0.000251004016064","0.0","0.0","0.0","0.000251004016064","0.000502008032129","0.0","0.000251004016064","0.0","0.0","0.000251004016064","0.0","0.0","0.0","0.0","0.0","0.000502008032129","0.0","0.0","0.0","0.0","0.0","0.0","0.0","0.000251004016064","0.0","0.0","0.0","0.0","0.0","0.0","0.0","0.0","0.000251004016064","0.000251004016064","0.000753012048193","0.0","0.0","0.0","0.0","0.0","0.000251004016064","0.000753012048193","0.0","0.0","0.0","0.000251004016064","0.0","0.0","0.0","0.0","0.0","0.0","0.000251004016064","0.0","0.0","0.0","0.0","0.0","0.0","0.0","0.0","0.0","0.0","0.0","0.0","0.0","0.000251004016064","0.0","0.0","0.0","0.0","0.0","0.0","0.0","0.000502008032129","0.000251004016064","0.000251004016064","+"
"2016-10-01","Boeing","0.0","0.0","0.0","0.0","0.000275633958104","0.0","0.0","0.0","0.0","0.0","0.0","0.000275633958104","0.000275633958104","0.000551267916207","0.0","0.00137816979052","0.00496141124587","0.0","0.0","0.0","0.0","0.0","0.00137816979052","0.000551267916207","0.000275633958104","0.0","0.0","0.0","0.000275633958104","0.0","0.0","0.0","0.0","0.0","0.0","0.000275633958104","0.0","0.00523704520397","0.0","0.0","0.0","0.0","0.0","0.0","0.000275633958104","0.000275633958104","0.0","0.000826901874311","0.0","0.000551267916207","0.0","0.0","0.0","0.0","0.000275633958104","0.000551267916207","0.0","0.000275633958104","0.0","0.000275633958104","0.0","0.000275633958104","0.000275633958104","0.0","0.0","0.00385887541345","0.0","0.00110253583241","0.0","0.0","0.0","0.0","0.0","0.000551267916207","0.0","0.000275633958104","0.0","0.0","0.000275633958104","0.0206725468578","0.00137816979052","0.0","0.0","0.000275633958104","0.0","0.0","0.0","0.000551267916207","0.000551267916207","0.0","0.0","0.0","0.0","0.000275633958104","0.0","0.0","0.0","0.000551267916207","0.0","0.0","0.0","0.0","0.000275633958104","0.0","0.000275633958104","0.000275633958104","0.000826901874311","0.0","0.000551267916207","0.0","0.0","0.0","0.0","0.000275633958104","0.0","0.000826901874311","0.000551267916207","0.0","0.0","0.000551267916207","0.0","0.0","0.0","0.000551267916207","0.000551267916207","0.000826901874311","0.0","0.0","0.0","0.0","0.00110253583241","0.000275633958104","0.000275633958104","0.0","0.000551267916207","0.0","0.0","0.0","0.0","0.0","0.000551267916207","0.000551267916207","0.0","0.0","0.0","0.0","0.0","0.0","0.000275633958104","0.0","0.0","0.0","0.0","0.0","0.000551267916207","0.0","0.0","0.0","0.0","0.0","0.000826901874311","0.0","0.0","0.000275633958104","0.0","0.0","0.000275633958104","0.0","0.0","0.0","0.0","0.000275633958104","0.0","0.0","0.000275633958104","0.0","0.0","-"
"2016-10-02","Boeing","0.000316555872111","0.0","0.0","0.000316555872111","0.0","0.0","0.0","0.0","0.000316555872111","0.0","0.0","0.000316555872111","0.0","0.0","0.0","0.000633111744223","0.00569800569801","0.0","0.0","0.000316555872111","0.0","0.0","0.000316555872111","0.0","0.000316555872111","0.000316555872111","0.0","0.0","0.0","0.0","0.0","0.0","0.0","0.0","0.0","0.0","0.0","0.00443178220956","0.0","0.0","0.0","0.0","0.0","0.0","0.000633111744223","0.0","0.0","0.00189933523267","0.000316555872111","0.000316555872111","0.000316555872111","0.0","0.0","0.0","0.0","0.0","0.0","0.000316555872111","0.0","0.0","0.0","0.00126622348845","0.000316555872111","0.0","0.0","0.00253244697689","0.000316555872111","0.00253244697689","0.0","0.0","0.0","0.0","0.0","0.0","0.0","0.000316555872111","0.0","0.0","0.000316555872111","0.0136119025008","0.000316555872111","0.000316555872111","0.0","0.0","0.0","0.0","0.000633111744223","0.0","0.000316555872111","0.0","0.0","0.0","0.0","0.0","0.0","0.0","0.000316555872111","0.000633111744223","0.0","0.0","0.0","0.000316555872111","0.0","0.000316555872111","0.000633111744223","0.0","0.0","0.0","0.0","0.000633111744223","0.0","0.0","0.0","0.0","0.0","0.0","0.0","0.0","0.0","0.0","0.0","0.0","0.0","0.0","0.0","0.0","0.0","0.0","0.0","0.0","0.0","0.000633111744223","0.000949667616334","0.000316555872111","0.000633111744223","0.0","0.0","0.0","0.0","0.0","0.0","0.0","0.0","0.000633111744223","0.0","0.000316555872111","0.0","0.0","0.000316555872111","0.0","0.0","0.0","0.00126622348845","0.0","0.0","0.0","0.0","0.0","0.0","0.0","0.00126622348845","0.0","0.0","0.0","0.0","0.000316555872111","0.0","0.0","0.0","0.0","0.0","0.0","0.0","0.0","0.000633111744223","0.000633111744223","0.000633111744223","+"
"2016-10-03","Boeing","0.0","0.0","0.0","0.0","0.0","0.000256081946223","0.0","0.0","0.00102432778489","0.000256081946223","0.0","0.000256081946223","0.0","0.0","0.0","0.0","0.00537772087068","0.0","0.0","0.000256081946223","0.000256081946223","0.0","0.000512163892446","0.000768245838668","0.0","0.0","0.000256081946223","0.0","0.000256081946223","0.0","0.000256081946223","0.0","0.0","0.000512163892446","0.0","0.0","0.0","0.00435339308579","0.0","0.0","0.000256081946223","0.0","0.0","0.000256081946223","0.000256081946223","0.000512163892446","0.0","0.00128040973111","0.0","0.000256081946223","0.00102432778489","0.0","0.0","0.0","0.0","0.000768245838668","0.0","0.000256081946223","0.0","0.0","0.0","0.000512163892446","0.000256081946223","0.000256081946223","0.0","0.00281690140845","0.000512163892446","0.00102432778489","0.0","0.000256081946223","0.0","0.0","0.0","0.000512163892446","0.0","0.0","0.0","0.000256081946223","0.000256081946223","0.0104993597951","0.00256081946223","0.0","0.0","0.000256081946223","0.0","0.0","0.000256081946223","0.0","0.0","0.0","0.0","0.0","0.0","0.000256081946223","0.0","0.000256081946223","0.000768245838668","0.000512163892446","0.000512163892446","0.000512163892446","0.0","0.000256081946223","0.0","0.0","0.0","0.0","0.0","0.000256081946223","0.0","0.0","0.000256081946223","0.000256081946223","0.000256081946223","0.0","0.0","0.00102432778489","0.000512163892446","0.000256081946223","0.0","0.0","0.0","0.0","0.0","0.0","0.000256081946223","0.000768245838668","0.0","0.0","0.0","0.000256081946223","0.000256081946223","0.000256081946223","0.000768245838668","0.0","0.000256081946223","0.0","0.0","0.0","0.0","0.0","0.0","0.000768245838668","0.0","0.000256081946223","0.0","0.0","0.0","0.0","0.000256081946223","0.0","0.0","0.0","0.000768245838668","0.0","0.0","0.000256081946223","0.0","0.0","0.0","0.0","0.000512163892446","0.0","0.0","0.0","0.0","0.0","0.000256081946223","0.0","0.0","0.000256081946223","0.0","0.000256081946223","0.0","0.0","0.000512163892446","0.0","0.000256081946223","-"
"2016-10-04","Boeing","0.0","0.0","0.0","0.0","0.000461041954818","0.0","0.0","0.000230520977409","0.00115260488704","0.0","0.0","0.000691562932227","0.000461041954818","0.0","0.0","0.000230520977409","0.00437989857077","0.0","0.0","0.0","0.000230520977409","0.000230520977409","0.000691562932227","0.000691562932227","0.0","0.0","0.0","0.0","0.000230520977409","0.0","0.000691562932227","0.0","0.0","0.000230520977409","0.0","0.0","0.0","0.00691562932227","0.0","0.0","0.0","0.0","0.0","0.000230520977409","0.0","0.0","0.0","0.00184416781927","0.000230520977409","0.0","0.00115260488704","0.000230520977409","0.000230520977409","0.0","0.0","0.000691562932227","0.0","0.000691562932227","0.0","0.0","0.000230520977409","0.00368833563854","0.000922083909636","0.0","0.0","0.00161364684186","0.000461041954818","0.000691562932227","0.0","0.0","0.0","0.000461041954818","0.0","0.0","0.0","0.0","0.000230520977409","0.0","0.0","0.00875979714154","0.0025357307515","0.000230520977409","0.0","0.000461041954818","0.0","0.0","0.0","0.0","0.000461041954818","0.0","0.0","0.0","0.0","0.0","0.0","0.0","0.000461041954818","0.0","0.0","0.000230520977409","0.0","0.000230520977409","0.000230520977409","0.0","0.000461041954818","0.0","0.000461041954818","0.0","0.000461041954818","0.0","0.0","0.0","0.000230520977409","0.0","0.000230520977409","0.000691562932227","0.000230520977409","0.0","0.0","0.0","0.0","0.000230520977409","0.0","0.000691562932227","0.0","0.000230520977409","0.0","0.0","0.0","0.0","0.0","0.000461041954818","0.000691562932227","0.0","0.0","0.000230520977409","0.0","0.0","0.0","0.0","0.000691562932227","0.0","0.0","0.000230520977409","0.0","0.0","0.0","0.0","0.0","0.0","0.0","0.0","0.000230520977409","0.0","0.0","0.0","0.0","0.0","0.0","0.0","0.000691562932227","0.0","0.0","0.0","0.0","0.000230520977409","0.0","0.000230520977409","0.0","0.0","0.0","0.000230520977409","0.0","0.000230520977409","0.000461041954818","0.0","0.000230520977409","-"
"2016-10-07","Boeing","0.0","0.0","0.000379434642383","0.0","0.0","0.0","0.0","0.0","0.00151773856953","0.0","0.0","0.000379434642383","0.000758869284766","0.0","0.0","0.0","0.00398406374502","0.0","0.0","0.000189717321191","0.000379434642383","0.0","0.000189717321191","0.000948586605957","0.0","0.0","0.000758869284766","0.0","0.0","0.0","0.0","0.0","0.0","0.000189717321191","0.0","0.0","0.0","0.00284575981787","0.0","0.0","0.0","0.000189717321191","0.0","0.000189717321191","0.0","0.000189717321191","0.0","0.00113830392715","0.0","0.000189717321191","0.00151773856953","0.000189717321191","0.0","0.0","0.0","0.000948586605957","0.0","0.000379434642383","0.0","0.000189717321191","0.0","0.000569151963574","0.000379434642383","0.0","0.0","0.00303547713906","0.0","0.00151773856953","0.0","0.000379434642383","0.0","0.0","0.0","0.0","0.000189717321191","0.0","0.000189717321191","0.0","0.0","0.00777841016885","0.0022766078543","0.000379434642383","0.0","0.0","0.000189717321191","0.0","0.000379434642383","0.0","0.000379434642383","0.0","0.0","0.0","0.0","0.0","0.0","0.0","0.000189717321191","0.000189717321191","0.0","0.000379434642383","0.0","0.0","0.0","0.000189717321191","0.000379434642383","0.0","0.000189717321191","0.0","0.000189717321191","0.000189717321191","0.0","0.0","0.0","0.0","0.0","0.000379434642383","0.000189717321191","0.000189717321191","0.0","0.0","0.0","0.0","0.0","0.0","0.000189717321191","0.0","0.0","0.0","0.0","0.0","0.0","0.0","0.000758869284766","0.000189717321191","0.000189717321191","0.0","0.0","0.0","0.0","0.0","0.000189717321191","0.000379434642383","0.0","0.0","0.0","0.0","0.0","0.0","0.0","0.0","0.0","0.0","0.000189717321191","0.0","0.0","0.0","0.0","0.0","0.0","0.0","0.0","0.0","0.0","0.0","0.0","0.000189717321191","0.000189717321191","0.0","0.0","0.0","0.0","0.0","0.0","0.0","0.000379434642383","0.0","0.0","+"
"2016-10-08","Boeing","0.0","0.0","0.0","0.0","0.000195579894387","0.0","0.0","0.000195579894387","0.000782319577547","0.0","0.0","0.0","0.0","0.0","0.0","0.000391159788774","0.00508507725406","0.000195579894387","0.0","0.0","0.0","0.0","0.000586739683161","0.000586739683161","0.0","0.0","0.0","0.0","0.0","0.0","0.0","0.0","0.0","0.000195579894387","0.0","0.000195579894387","0.0","0.0044983375709","0.0","0.0","0.000391159788774","0.0","0.0","0.000391159788774","0.0","0.0","0.0","0.00136905926071","0.0","0.0","0.000782319577547","0.0","0.0","0.0","0.0","0.000586739683161","0.0","0.0","0.0","0.0","0.0","0.000782319577547","0.000586739683161","0.0","0.000391159788774","0.00195579894387","0.000195579894387","0.000586739683161","0.000195579894387","0.0","0.0","0.0","0.0","0.000195579894387","0.0","0.0","0.0","0.0","0.000195579894387","0.00958341482496","0.000782319577547","0.000195579894387","0.0","0.000195579894387","0.0","0.0","0.000391159788774","0.0","0.000391159788774","0.0","0.0","0.0","0.000195579894387","0.0","0.0","0.0","0.000586739683161","0.0","0.0","0.00117347936632","0.0","0.0","0.0","0.0","0.000586739683161","0.0","0.0","0.0","0.0","0.000195579894387","0.0","0.0","0.0","0.000195579894387","0.000195579894387","0.000391159788774","0.000391159788774","0.0","0.0","0.0","0.0","0.000195579894387","0.000195579894387","0.000195579894387","0.0","0.000195579894387","0.0","0.000391159788774","0.0","0.0","0.0","0.000586739683161","0.000586739683161","0.0","0.000195579894387","0.0","0.0","0.0","0.0","0.000195579894387","0.000586739683161","0.0","0.0","0.000391159788774","0.0","0.0","0.0","0.0","0.000195579894387","0.0","0.0","0.0","0.0","0.0","0.0","0.0","0.0","0.0","0.0","0.0","0.0","0.0","0.000195579894387","0.000195579894387","0.0","0.0","0.0","0.0","0.0","0.0","0.0","0.0","0.0","0.0","0.000195579894387","0.0","0.000586739683161","-"
"2016-10-09","Boeing","0.0","0.000227479526843","0.0","0.0","0.0","0.0","0.0","0.0","0.000682438580528","0.0","0.0","0.000682438580528","0.0","0.0","0.000227479526843","0.000227479526843","0.00523202911738","0.0","0.0","0.0","0.000227479526843","0.000227479526843","0.00113739763421","0.000682438580528","0.0","0.0","0.0","0.000227479526843","0.0","0.0","0.000227479526843","0.0","0.0","0.0","0.000227479526843","0.0","0.000454959053685","0.00341219290264","0.0","0.000227479526843","0.0","0.0","0.0","0.000227479526843","0.0","0.0","0.00090991810737","0.000682438580528","0.000227479526843","0.000227479526843","0.000682438580528","0.0","0.0","0.0","0.0","0.000682438580528","0.0","0.000682438580528","0.0","0.0","0.0","0.0","0.000227479526843","0.000227479526843","0.0","0.00432211101001","0.0","0.00181983621474","0.0","0.0","0.0","0.0","0.0","0.000227479526843","0.000227479526843","0.0","0.000227479526843","0.0","0.000227479526843","0.0147861692448","0.000227479526843","0.0","0.0","0.000227479526843","0.0","0.0","0.0","0.0","0.000227479526843","0.0","0.0","0.0","0.0","0.0","0.000227479526843","0.0","0.000227479526843","0.0","0.000227479526843","0.0","0.0","0.0","0.0","0.0","0.000227479526843","0.000227479526843","0.000454959053685","0.000227479526843","0.0","0.0","0.000454959053685","0.0","0.0","0.0","0.000227479526843","0.000454959053685","0.000227479526843","0.000227479526843","0.000227479526843","0.0","0.0","0.0","0.0","0.0","0.0","0.000227479526843","0.0","0.0","0.000227479526843","0.0","0.0","0.00090991810737","0.000454959053685","0.0","0.000454959053685","0.0","0.0","0.0","0.0","0.000454959053685","0.00113739763421","0.0","0.0","0.0","0.0","0.000227479526843","0.0","0.0","0.0","0.0","0.0","0.0","0.000227479526843","0.0","0.0","0.0","0.0","0.0","0.0","0.0","0.0","0.0","0.0","0.000227479526843","0.0","0.0","0.000227479526843","0.0","0.0","0.0","0.0","0.000227479526843","0.0","0.0","0.000454959053685","0.000227479526843","0.000682438580528","-"
"2016-10-10","Boeing","0.0","0.0","0.0","0.0","0.000261917234154","0.000261917234154","0.0","0.0","0.000785751702462","0.000261917234154","0.000523834468308","0.000785751702462","0.0","0.0","0.0","0.000261917234154","0.00288108957569","0.0","0.0","0.000523834468308","0.000785751702462","0.0","0.0","0.0","0.0","0.000261917234154","0.000523834468308","0.0","0.0","0.0","0.0","0.0","0.0","0.000523834468308","0.0","0.0","0.0","0.00602409638554","0.0","0.0","0.0","0.0","0.0","0.000523834468308","0.000261917234154","0.000261917234154","0.0","0.000785751702462","0.0","0.0","0.000785751702462","0.0","0.000261917234154","0.0","0.0","0.0","0.0","0.000785751702462","0.0","0.000523834468308","0.0","0.00104766893662","0.000261917234154","0.0","0.0","0.00104766893662","0.0","0.000523834468308","0.0","0.000261917234154","0.0","0.0","0.0","0.0","0.0","0.0","0.0","0.0","0.000523834468308","0.00864326872708","0.000261917234154","0.0","0.0","0.000261917234154","0.0","0.0","0.00104766893662","0.0","0.000523834468308","0.0","0.0","0.0","0.0","0.0","0.0","0.0","0.0","0.000523834468308","0.000261917234154","0.000523834468308","0.0","0.0","0.0","0.000261917234154","0.0","0.0","0.000261917234154","0.0","0.0","0.0","0.0","0.0","0.0","0.0","0.0","0.00104766893662","0.000261917234154","0.0","0.0","0.0","0.0","0.0","0.0","0.000261917234154","0.0","0.000261917234154","0.0","0.0","0.0","0.0","0.0","0.000785751702462","0.000261917234154","0.000261917234154","0.0","0.000261917234154","0.0","0.0","0.0","0.0","0.0","0.000261917234154","0.0","0.0","0.0","0.0","0.0","0.0","0.0","0.0","0.0","0.0","0.000261917234154","0.0","0.0","0.000261917234154","0.0","0.0","0.0","0.0","0.000785751702462","0.0","0.0","0.0","0.0","0.0","0.0","0.0","0.0","0.0","0.0","0.0","0.0","0.000261917234154","0.000261917234154","0.0","0.0","+"
"2016-10-11","Boeing","0.0","0.0","0.0","0.0","0.000354861603974","0.0","0.0","0.0","0.00177430801987","0.0","0.0","0.000709723207949","0.0","0.0","0.000354861603974","0.0","0.00496806245564","0.000709723207949","0.0","0.000354861603974","0.000354861603974","0.0","0.000709723207949","0.000354861603974","0.000354861603974","0.0","0.0","0.0","0.0","0.0","0.0","0.0","0.0","0.000354861603974","0.0","0.0","0.0","0.00532292405962","0.0","0.0","0.0","0.0","0.000354861603974","0.0","0.0","0.000354861603974","0.0","0.0014194464159","0.0","0.0","0.00177430801987","0.0","0.0","0.0","0.0","0.000354861603974","0.0","0.000709723207949","0.0","0.000354861603974","0.0","0.0","0.000709723207949","0.0","0.0","0.000709723207949","0.000354861603974","0.0014194464159","0.0","0.0","0.0","0.0","0.0","0.0","0.000354861603974","0.0","0.0","0.000354861603974","0.000709723207949","0.0129524485451","0.00248403122782","0.0","0.0","0.0","0.0","0.0","0.0","0.0","0.000354861603974","0.0","0.0","0.0","0.0","0.0","0.0","0.0","0.000354861603974","0.000709723207949","0.0","0.000354861603974","0.0","0.000354861603974","0.0","0.0","0.0","0.0","0.000354861603974","0.0","0.00106458481192","0.0","0.0","0.000354861603974","0.0","0.0","0.0","0.000709723207949","0.0","0.000709723207949","0.000354861603974","0.0","0.000709723207949","0.0","0.0","0.00106458481192","0.0","0.000354861603974","0.0","0.0","0.000354861603974","0.0","0.0","0.0014194464159","0.00106458481192","0.0","0.000354861603974","0.0","0.0","0.0","0.0","0.000354861603974","0.0","0.0","0.0","0.000354861603974","0.0","0.000354861603974","0.0","0.000354861603974","0.0","0.0","0.0","0.0","0.0014194464159","0.0","0.0","0.0","0.0","0.0","0.0","0.0","0.0","0.0","0.0","0.0","0.0","0.0","0.000354861603974","0.0","0.0","0.0","0.0","0.0","0.0","0.0","0.000709723207949","0.0","0.000354861603974","-"
"2016-10-14","Boeing","0.0","0.0","0.000201450443191","0.0","0.0","0.0","0.0","0.0","0.000201450443191","0.0","0.0","0.000604351329573","0.0","0.0","0.0","0.000201450443191","0.00382755842063","0.0","0.0","0.000201450443191","0.000402900886382","0.0","0.000805801772764","0.000201450443191","0.0","0.0","0.000201450443191","0.0","0.0","0.0","0.0","0.0","0.0","0.0","0.0","0.000201450443191","0.0","0.0044319097502","0.0","0.0","0.000201450443191","0.0","0.0","0.000201450443191","0.0","0.000201450443191","0.000201450443191","0.000805801772764","0.0","0.0","0.000201450443191","0.0","0.0","0.000201450443191","0.0","0.000201450443191","0.0","0.000604351329573","0.0","0.0","0.000201450443191","0.00100725221595","0.0","0.0","0.000604351329573","0.00161160354553","0.0","0.000604351329573","0.0","0.0","0.0","0.0","0.0","0.0","0.0","0.0","0.0","0.0","0.0","0.0102739726027","0.00261885576148","0.000402900886382","0.0","0.0","0.0","0.0","0.000201450443191","0.0","0.000201450443191","0.0","0.0","0.0","0.0","0.0","0.0","0.000201450443191","0.000402900886382","0.000402900886382","0.000402900886382","0.0","0.0","0.0","0.0","0.0","0.000604351329573","0.0","0.000201450443191","0.0","0.0","0.0","0.0","0.0","0.0","0.0","0.0","0.000805801772764","0.0","0.000201450443191","0.0","0.0","0.0","0.0","0.0","0.0","0.0","0.000201450443191","0.0","0.0","0.0","0.0","0.0","0.000201450443191","0.00141015310234","0.0","0.000201450443191","0.0","0.0","0.0","0.0","0.000201450443191","0.000201450443191","0.000402900886382","0.0","0.000402900886382","0.0","0.0","0.0","0.0","0.000201450443191","0.0","0.0","0.0","0.000604351329573","0.0","0.0","0.0","0.0","0.000201450443191","0.0","0.0","0.0","0.0","0.0","0.0","0.0","0.0","0.0","0.0","0.0","0.0","0.0","0.0","0.0","0.0","0.000402900886382","0.000402900886382","0.000201450443191","+"
"2016-10-15","Boeing","0.0","0.0","0.0","0.0","0.000237981913375","0.0","0.0","0.0","0.000237981913375","0.0","0.0","0.000237981913375","0.0","0.0","0.0","0.0","0.00452165635412","0.0","0.0","0.0","0.00214183722037","0.0","0.000475963826749","0.000237981913375","0.0","0.000237981913375","0.000237981913375","0.0","0.0","0.0","0.000475963826749","0.0","0.0","0.000951927653498","0.0","0.000237981913375","0.0","0.00428367444074","0.0","0.0","0.000237981913375","0.0","0.0","0.0","0.000237981913375","0.0","0.0","0.000951927653498","0.0","0.000237981913375","0.000237981913375","0.000237981913375","0.0","0.0","0.0","0.000237981913375","0.000237981913375","0.000237981913375","0.0","0.000237981913375","0.000237981913375","0.000237981913375","0.0","0.000237981913375","0.0","0.00237981913375","0.000713945740124","0.00237981913375","0.0","0.0","0.0","0.0","0.0","0.000713945740124","0.0","0.000237981913375","0.0","0.0","0.0","0.0128510233222","0.000475963826749","0.000475963826749","0.0","0.0","0.000237981913375","0.0","0.000713945740124","0.0","0.0","0.0","0.0","0.0","0.000237981913375","0.0","0.0","0.0","0.000475963826749","0.000237981913375","0.0","0.000713945740124","0.0","0.000237981913375","0.0","0.0","0.000713945740124","0.0","0.000237981913375","0.0","0.0","0.000237981913375","0.000237981913375","0.0","0.0","0.000237981913375","0.0","0.000237981913375","0.0","0.0","0.0","0.0","0.0","0.0","0.0","0.0","0.0","0.0","0.000237981913375","0.0","0.0","0.0","0.0","0.000475963826749","0.000713945740124","0.0","0.000237981913375","0.0","0.0","0.0","0.0","0.000237981913375","0.0123750594955","0.0","0.0","0.000475963826749","0.0","0.000713945740124","0.0","0.0","0.0","0.0","0.0","0.0","0.000951927653498","0.0","0.0","0.0","0.0","0.0","0.0","0.0","0.000237981913375","0.0","0.0","0.0","0.0","0.0","0.0","0.000237981913375","0.0","0.0","0.0","0.0","0.0","0.0","0.000237981913375","0.0","0.000713945740124","+"
"2016-10-16","Boeing","0.0","0.0","0.0","0.0","0.0","0.0","0.0","0.0","0.00124316260567","0.0","0.0","0.000497265042268","0.0","0.0","0.0","0.000497265042268","0.00348085529587","0.0","0.0","0.000248632521134","0.00198906016907","0.0","0.000994530084535","0.00124316260567","0.0","0.000248632521134","0.0","0.0","0.0","0.0","0.000248632521134","0.0","0.000248632521134","0.000248632521134","0.0","0.0","0.0","0.00770760815515","0.0","0.0","0.0","0.0","0.0","0.0","0.000497265042268","0.000248632521134","0.0","0.0","0.000248632521134","0.0","0.00124316260567","0.0","0.0","0.0","0.0","0.00124316260567","0.000497265042268","0.000497265042268","0.0","0.000248632521134","0.0","0.0","0.000994530084535","0.0","0.000248632521134","0.0022376926902","0.000497265042268","0.0022376926902","0.0","0.0","0.0","0.000248632521134","0.0","0.000248632521134","0.0","0.0","0.0","0.0","0.000248632521134","0.016658378916","0.0","0.0","0.0","0.0","0.0","0.0","0.000745897563401","0.0","0.000248632521134","0.000248632521134","0.0","0.0","0.0","0.0","0.0","0.0","0.000497265042268","0.0","0.000248632521134","0.000745897563401","0.0","0.0","0.0","0.0","0.000497265042268","0.0","0.000248632521134","0.0","0.000248632521134","0.0","0.0","0.0","0.0","0.0","0.0","0.000497265042268","0.0","0.0","0.0","0.0","0.0","0.0","0.0","0.0","0.0","0.0","0.0","0.0","0.0","0.0","0.0","0.0","0.000497265042268","0.0","0.000248632521134","0.0","0.0","0.0","0.0","0.000248632521134","0.00174042764794","0.0","0.0","0.0","0.0","0.000248632521134","0.0","0.0","0.000497265042268","0.0","0.0","0.0","0.00124316260567","0.000248632521134","0.0","0.0","0.0","0.0","0.0","0.0","0.0","0.0","0.0","0.000248632521134","0.0","0.0","0.0","0.0","0.0","0.0","0.0","0.000248632521134","0.0","0.000248632521134","0.0","0.000248632521134","0.0","+"
"2016-10-17","Boeing","0.0","0.0","0.0","0.0","0.0","0.000221043324492","0.0","0.0","0.000663129973475","0.0","0.0","0.000221043324492","0.000221043324492","0.000221043324492","0.0","0.000221043324492","0.00353669319187","0.0","0.000221043324492","0.000221043324492","0.000663129973475","0.0","0.000442086648983","0.000663129973475","0.0","0.0","0.0","0.0","0.0","0.0","0.000221043324492","0.0","0.0","0.0","0.0","0.0","0.0","0.00618921308576","0.0","0.0","0.0","0.0","0.0","0.000442086648983","0.000221043324492","0.0","0.000221043324492","0.000884173297966","0.0","0.0","0.000663129973475","0.0","0.0","0.0","0.0","0.000663129973475","0.0","0.000221043324492","0.0","0.000663129973475","0.0","0.000221043324492","0.000884173297966","0.000221043324492","0.000221043324492","0.00198938992042","0.000221043324492","0.00221043324492","0.0","0.000221043324492","0.0","0.0","0.0","0.0","0.0","0.0","0.000221043324492","0.0","0.000221043324492","0.0114942528736","0.00176834659593","0.0","0.000221043324492","0.000221043324492","0.000221043324492","0.000221043324492","0.000663129973475","0.0","0.0","0.0","0.0","0.0","0.0","0.0","0.0","0.0","0.000221043324492","0.000221043324492","0.0","0.0","0.0","0.000663129973475","0.000221043324492","0.0","0.000221043324492","0.0","0.0","0.0","0.0","0.000221043324492","0.000221043324492","0.0","0.000221043324492","0.0","0.0","0.000442086648983","0.0","0.000221043324492","0.0","0.000221043324492","0.000221043324492","0.0","0.0","0.000221043324492","0.000221043324492","0.0","0.0","0.0","0.0","0.0","0.0","0.000663129973475","0.00110521662246","0.0","0.000221043324492","0.0","0.0","0.0","0.0","0.0","0.00397877984085","0.0","0.0","0.000221043324492","0.0","0.000663129973475","0.0","0.0","0.0","0.0","0.0","0.0","0.0","0.0","0.0","0.0","0.0","0.0","0.0","0.0","0.0","0.0","0.0","0.0","0.0","0.0","0.0","0.0","0.0","0.0","0.0","0.0","0.000221043324492","0.0","0.000442086648983","0.000221043324492","0.000221043324492","-"
"2016-10-18","Boeing","0.0","0.00021772262138","0.0","0.0","0.00021772262138","0.0","0.0","0.0","0.00195950359242","0.000435445242761","0.00021772262138","0.000870890485521","0.0","0.0","0.0","0.000653167864141","0.00261267145656","0.00021772262138","0.0","0.0","0.0010886131069","0.0","0.000653167864141","0.000653167864141","0.0","0.0","0.0","0.0","0.0","0.0","0.00021772262138","0.0","0.00021772262138","0.0","0.00021772262138","0.0","0.0","0.00827345961245","0.0","0.00021772262138","0.0","0.0","0.0","0.00021772262138","0.00021772262138","0.0","0.0","0.00021772262138","0.0","0.0","0.00195950359242","0.0","0.0","0.0","0.0","0.000653167864141","0.00021772262138","0.000870890485521","0.0","0.0","0.0","0.00152405834966","0.000653167864141","0.0","0.0","0.0021772262138","0.0","0.0010886131069","0.0","0.00021772262138","0.0","0.0","0.00021772262138","0.0","0.0","0.0","0.000435445242761","0.0","0.0","0.00936207271936","0.00239494883518","0.0","0.0","0.00021772262138","0.0","0.0","0.000653167864141","0.0","0.000435445242761","0.0","0.0","0.000870890485521","0.00021772262138","0.0","0.00021772262138","0.0","0.000870890485521","0.0","0.0","0.0","0.0","0.0","0.0","0.0","0.00021772262138","0.0","0.00021772262138","0.0","0.0","0.000870890485521","0.0","0.0","0.0","0.0","0.0","0.000435445242761","0.0","0.0","0.0","0.0","0.0","0.0","0.0","0.00021772262138","0.00021772262138","0.000435445242761","0.0","0.0","0.0","0.0","0.0","0.00021772262138","0.0010886131069","0.0","0.0","0.0","0.0","0.0","0.00021772262138","0.0","0.000870890485521","0.00021772262138","0.00021772262138","0.000435445242761","0.0","0.0","0.0","0.0","0.00021772262138","0.0","0.0","0.0","0.00021772262138","0.0","0.0","0.0","0.0","0.0","0.0","0.0","0.000653167864141","0.0","0.0","0.0","0.0","0.0","0.0","0.0","0.0","0.0","0.0","0.00021772262138","0.0","0.0","0.000653167864141","0.00021772262138","0.00021772262138","+"
"2016-10-21","Boeing","0.0","0.0","0.0","0.0","0.000241429261226","0.0","0.0","0.0","0.000482858522453","0.0","0.0","0.000482858522453","0.000482858522453","0.0","0.0","0.000241429261226","0.00555287300821","0.0","0.0","0.0","0.000241429261226","0.0","0.0","0.000482858522453","0.0","0.0","0.0","0.0","0.0","0.0","0.0","0.000241429261226","0.0","0.0","0.0","0.0","0.0","0.00531144374698","0.0","0.0","0.000241429261226","0.0","0.0","0.00120714630613","0.0","0.0","0.0","0.0","0.0","0.000482858522453","0.000482858522453","0.000241429261226","0.0","0.0","0.0","0.000482858522453","0.0","0.000482858522453","0.000241429261226","0.000482858522453","0.0","0.000724287783679","0.000241429261226","0.0","0.0","0.00193143408981","0.0","0.00193143408981","0.000241429261226","0.0","0.0","0.000241429261226","0.0","0.000482858522453","0.000482858522453","0.0","0.0","0.0","0.0","0.0120714630613","0.00241429261226","0.0","0.0","0.0","0.0","0.0","0.000482858522453","0.0","0.0","0.0","0.0","0.0","0.0","0.0","0.0","0.0","0.000241429261226","0.000724287783679","0.000482858522453","0.000482858522453","0.0","0.0","0.0","0.0","0.000241429261226","0.0","0.000241429261226","0.0","0.000241429261226","0.000482858522453","0.0","0.0","0.0","0.000241429261226","0.0","0.000241429261226","0.000241429261226","0.0","0.0","0.0","0.0","0.0","0.0","0.000241429261226","0.0","0.0","0.000482858522453","0.0","0.0","0.0","0.0","0.000724287783679","0.000241429261226","0.0","0.0","0.0","0.0","0.0","0.0","0.0","0.000965717044906","0.0","0.000241429261226","0.000241429261226","0.0","0.000241429261226","0.0","0.0","0.0","0.0","0.0","0.0","0.000482858522453","0.0","0.0","0.0","0.0","0.0","0.0","0.0","0.000482858522453","0.0","0.0","0.0","0.0","0.0","0.0","0.0","0.0","0.0","0.0","0.0","0.0","0.0","0.000482858522453","0.0","0.000724287783679","+"
"2016-10-22","Boeing","0.000251193167546","0.0","0.0","0.0","0.000251193167546","0.0","0.0","0.0","0.000753579502638","0.0","0.0","0.000753579502638","0.000753579502638","0.0","0.0","0.000502386335092","0.00351670434564","0.0","0.0","0.000502386335092","0.000753579502638","0.0","0.000251193167546","0.000251193167546","0.0","0.0","0.000251193167546","0.0","0.0","0.0","0.0","0.0","0.0","0.0","0.0","0.0","0.0","0.00251193167546","0.0","0.0","0.000251193167546","0.000251193167546","0.0","0.0","0.000502386335092","0.0","0.0","0.00125596583773","0.0","0.0","0.000753579502638","0.0","0.0","0.0","0.0","0.000251193167546","0.0","0.000753579502638","0.000251193167546","0.000251193167546","0.0","0.000251193167546","0.000753579502638","0.0","0.0","0.00401909068073","0.000502386335092","0.00125596583773","0.0","0.0","0.0","0.0","0.0","0.000502386335092","0.0","0.0","0.0","0.0","0.000502386335092","0.0148203968852","0.000251193167546","0.000251193167546","0.0","0.0","0.0","0.0","0.000251193167546","0.0","0.0","0.0","0.0","0.0","0.000251193167546","0.0","0.0","0.000251193167546","0.000753579502638","0.0","0.000251193167546","0.0","0.0","0.000502386335092","0.0","0.0","0.000251193167546","0.0","0.0","0.0","0.0","0.000251193167546","0.0","0.0","0.0","0.0","0.0","0.000753579502638","0.0","0.0","0.0","0.0","0.0","0.0","0.0","0.0","0.000251193167546","0.0","0.000251193167546","0.0","0.0","0.0","0.000251193167546","0.000251193167546","0.000502386335092","0.0","0.0","0.0","0.0","0.0","0.0","0.0","0.000502386335092","0.000251193167546","0.0","0.000251193167546","0.0","0.0","0.0","0.0","0.0","0.0","0.0","0.0","0.00100477267018","0.0","0.0","0.0","0.0","0.0","0.0","0.0","0.0","0.0","0.0","0.0","0.0","0.0","0.000251193167546","0.000502386335092","0.0","0.0","0.0","0.0","0.0","0.0","0.000753579502638","0.000251193167546","0.000251193167546","+"
"2016-10-23","Boeing","0.0","0.0","0.0","0.0","0.0","0.0","0.0","0.0","0.000271296798698","0.0","0.0","0.000271296798698","0.000542593597396","0.0","0.0","0.000271296798698","0.00135648399349","0.0","0.0","0.000271296798698","0.0","0.0","0.000271296798698","0.000271296798698","0.0","0.0","0.000271296798698","0.0","0.0","0.0","0.000271296798698","0.0","0.0","0.0","0.0","0.0","0.0","0.00352685838307","0.0","0.0","0.0","0.0","0.0","0.000813890396093","0.000271296798698","0.0","0.0","0.00162778079219","0.000271296798698","0.0","0.000271296798698","0.0","0.0","0.0","0.0","0.000271296798698","0.0","0.000271296798698","0.0","0.000271296798698","0.000271296798698","0.000542593597396","0.000271296798698","0.0","0.000271296798698","0.00271296798698","0.000271296798698","0.00244167118828","0.0","0.0","0.0","0.0","0.0","0.0","0.0","0.0","0.000271296798698","0.000271296798698","0.0","0.0127509495388","0.000542593597396","0.0","0.000271296798698","0.0","0.0","0.0","0.000271296798698","0.0","0.0","0.0","0.0","0.0","0.0","0.000271296798698","0.0","0.0","0.0","0.000813890396093","0.000271296798698","0.000271296798698","0.0","0.0","0.0","0.000271296798698","0.000813890396093","0.0","0.000542593597396","0.0","0.0","0.000271296798698","0.0","0.0","0.0","0.0","0.0","0.0","0.0","0.0","0.0","0.0","0.0","0.0","0.0","0.0","0.0","0.0","0.000271296798698","0.0","0.0","0.0","0.0","0.00108518719479","0.000813890396093","0.000271296798698","0.0","0.0","0.0","0.0","0.0","0.0","0.000271296798698","0.0","0.0","0.000271296798698","0.0","0.000271296798698","0.0","0.0","0.0","0.0","0.0","0.0","0.00108518719479","0.0","0.0","0.0","0.0","0.0","0.0","0.0","0.0","0.0","0.000271296798698","0.0","0.0","0.0","0.000271296798698","0.000271296798698","0.0","0.0","0.0","0.0","0.0","0.000271296798698","0.000542593597396","0.000271296798698","0.000271296798698","+"
"2016-10-24","Boeing","0.0","0.0","0.0","0.0","0.000229568411387","0.000229568411387","0.0","0.0","0.00068870523416","0.0","0.0","0.00114784205693","0.000459136822773","0.0","0.0","0.000459136822773","0.00413223140496","0.0","0.0","0.0","0.000229568411387","0.0","0.000229568411387","0.000459136822773","0.00068870523416","0.0","0.0","0.000229568411387","0.0","0.0","0.000229568411387","0.0","0.0","0.000229568411387","0.0","0.0","0.0","0.00390266299357","0.0","0.0","0.0","0.0","0.0","0.000918273645546","0.000459136822773","0.0","0.000229568411387","0.00068870523416","0.0","0.0","0.00068870523416","0.0","0.0","0.0","0.0","0.000459136822773","0.0","0.00114784205693","0.0","0.0","0.0","0.000918273645546","0.00068870523416","0.0","0.0","0.00482093663912","0.0","0.00229568411387","0.000229568411387","0.0","0.0","0.0","0.0","0.0","0.000229568411387","0.0","0.000229568411387","0.0","0.000229568411387","0.0149219467401","0.00160697887971","0.00068870523416","0.0","0.0","0.0","0.0","0.000459136822773","0.000229568411387","0.0","0.0","0.0","0.0","0.000229568411387","0.0","0.000459136822773","0.0","0.000918273645546","0.00068870523416","0.0","0.00160697887971","0.000229568411387","0.0","0.0","0.0","0.000459136822773","0.0","0.000459136822773","0.000229568411387","0.000229568411387","0.0","0.000229568411387","0.000229568411387","0.0","0.000229568411387","0.0","0.00068870523416","0.0","0.000229568411387","0.0","0.0","0.0","0.000229568411387","0.0","0.000229568411387","0.000229568411387","0.0","0.0","0.0","0.0","0.0","0.0","0.000918273645546","0.00068870523416","0.0","0.0","0.0","0.0","0.0","0.0","0.0","0.0","0.000459136822773","0.0","0.000918273645546","0.0","0.0","0.0","0.0","0.0","0.0","0.0","0.0","0.000229568411387","0.0","0.0","0.0","0.0","0.0","0.0","0.0","0.0","0.0","0.0","0.0","0.0","0.0","0.0","0.0","0.0","0.000229568411387","0.0","0.0","0.0","0.0","0.0","0.000229568411387","0.000459136822773","-"
"2016-10-25","Boeing","0.0","0.000222617987533","0.0","0.0","0.000222617987533","0.0","0.0","0.000222617987533","0.000890471950134","0.0","0.0","0.000445235975067","0.0","0.0","0.0","0.000445235975067","0.00356188780053","0.000445235975067","0.0","0.0006678539626","0.000445235975067","0.0","0.0006678539626","0.000445235975067","0.000222617987533","0.0","0.000890471950134","0.0","0.0","0.0","0.0","0.0","0.000222617987533","0.000222617987533","0.0","0.0","0.000222617987533","0.00489759572573","0.0","0.000222617987533","0.0","0.0","0.0","0.0","0.000222617987533","0.0","0.0","0.0006678539626","0.000222617987533","0.0","0.000890471950134","0.0","0.0","0.0","0.0","0.000445235975067","0.000222617987533","0.000445235975067","0.0","0.000445235975067","0.0","0.0006678539626","0.0","0.000222617987533","0.000222617987533","0.00178094390027","0.000445235975067","0.00178094390027","0.0","0.000222617987533","0.0","0.0","0.0","0.000222617987533","0.0","0.000222617987533","0.000222617987533","0.0","0.0","0.013357079252","0.00289403383793","0.000222617987533","0.0","0.0","0.0","0.0","0.000445235975067","0.0","0.0","0.0","0.0","0.0","0.0","0.0","0.0","0.0","0.0","0.0006678539626","0.000222617987533","0.000445235975067","0.0","0.0","0.0","0.0","0.000222617987533","0.000222617987533","0.000222617987533","0.0","0.000222617987533","0.0006678539626","0.0","0.0","0.0","0.0","0.0","0.00111308993767","0.0","0.000890471950134","0.0","0.0","0.000222617987533","0.0","0.000222617987533","0.0","0.0","0.0","0.0","0.000222617987533","0.0","0.000222617987533","0.0","0.000222617987533","0.0","0.0","0.000222617987533","0.000222617987533","0.0","0.0","0.0","0.0","0.00378450578807","0.0","0.0","0.000222617987533","0.0","0.0","0.0","0.0","0.000222617987533","0.0","0.0","0.0","0.0006678539626","0.0","0.0","0.0","0.0","0.0","0.0","0.0","0.000222617987533","0.0","0.0","0.0","0.0","0.0","0.0","0.0","0.0","0.0","0.0","0.000222617987533","0.0","0.0","0.0","0.000222617987533","0.0006678539626","-"
"2016-10-28","Boeing","0.0","0.0","0.0","0.0","0.0","0.0","0.0","0.0","0.0","0.0","0.0","0.0","0.0","0.0","0.0","0.000898472596586","0.00404312668464","0.0","0.0","0.0","0.0","0.0","0.000898472596586","0.000898472596586","0.0","0.0","0.0","0.0","0.0","0.0","0.0","0.0","0.0","0.0","0.0","0.0","0.0","0.00539083557951","0.0","0.0","0.0","0.0","0.0","0.0","0.000449236298293","0.000449236298293","0.0","0.00179694519317","0.0","0.0","0.0","0.000898472596586","0.0","0.0","0.0","0.000898472596586","0.0","0.0","0.0","0.0","0.0","0.00134770889488","0.000898472596586","0.0","0.0","0.000898472596586","0.0","0.0","0.000449236298293","0.0","0.0","0.0","0.0","0.0","0.0","0.0","0.0","0.0","0.000898472596586","0.00224618149146","0.0","0.000898472596586","0.000449236298293","0.000449236298293","0.0","0.0","0.0","0.0","0.0","0.0","0.0","0.0","0.0","0.0","0.0","0.0","0.000449236298293","0.0","0.0","0.0","0.0","0.0","0.0","0.0","0.0","0.0","0.0","0.0","0.0","0.0","0.0","0.0","0.0","0.0","0.0","0.000449236298293","0.0","0.0","0.0","0.0","0.0","0.0","0.000898472596586","0.0","0.0","0.0","0.0","0.0","0.0","0.0","0.000449236298293","0.000449236298293","0.0","0.0","0.0","0.0","0.0","0.0","0.0","0.000449236298293","0.00359389038634","0.0","0.0","0.0","0.0","0.0","0.0","0.0","0.0","0.0","0.0","0.0","0.0","0.0","0.0","0.0","0.0","0.0","0.0","0.0","0.000449236298293","0.0","0.0","0.0","0.0","0.0","0.0","0.0","0.0","0.0","0.0","0.0","0.0","0.0","0.000449236298293","0.0","0.00134770889488","-"
"2016-10-29","Boeing","0.0","0.0","0.0","0.0","0.0","0.0","0.0","0.0","0.0","0.0","0.0","0.00064391500322","0.0","0.0","0.00064391500322","0.0","0.00901481004507","0.0","0.0","0.0","0.0","0.0","0.00128783000644","0.0","0.0","0.0","0.0","0.0","0.0","0.0","0.0","0.0","0.0","0.0","0.0","0.0","0.00064391500322","0.00515132002576","0.0","0.0","0.0","0.0","0.0","0.0","0.00064391500322","0.0","0.0","0.00128783000644","0.0","0.0","0.0","0.0","0.0","0.0","0.0","0.0","0.0","0.00064391500322","0.0","0.0","0.0","0.00064391500322","0.0","0.0","0.0","0.00128783000644","0.0","0.0","0.00064391500322","0.0","0.0","0.0","0.0","0.0","0.0","0.00064391500322","0.0","0.0","0.0","0.00386349001932","0.0","0.0","0.0","0.0","0.0","0.0","0.0","0.0","0.0","0.0","0.0","0.0","0.0","0.0","0.0","0.0","0.0","0.0","0.0","0.0","0.0","0.00064391500322","0.0","0.0","0.0","0.0","0.00064391500322","0.0","0.0","0.0","0.0","0.0","0.0","0.0","0.0","0.0","0.0","0.0","0.0","0.0","0.0","0.0","0.0","0.0","0.0","0.0","0.0","0.0","0.0","0.0","0.0","0.00064391500322","0.0","0.0","0.0","0.0","0.0","0.0","0.0","0.0","0.00257566001288","0.0","0.0","0.0","0.0","0.0","0.0","0.0","0.0","0.0","0.0","0.0","0.0","0.0","0.0","0.0","0.0","0.0","0.0","0.0","0.0","0.0","0.0","0.0","0.0","0.0","0.0","0.0","0.0","0.0","0.0","0.0","0.0","0.0","0.0","0.0","0.0","-"
"2016-10-30","Boeing","0.0","0.0","0.0","0.000784929356358","0.0","0.0","0.0","0.0","0.0","0.0","0.0","0.0","0.0","0.0","0.0","0.0","0.00235478806907","0.0","0.0","0.0","0.0","0.0","0.000784929356358","0.00156985871272","0.0","0.0","0.0","0.0","0.0","0.0","0.0","0.0","0.0","0.0","0.000784929356358","0.0","0.0","0.00235478806907","0.0","0.0","0.0","0.0","0.0","0.0","0.0","0.00392464678179","0.0","0.000784929356358","0.0","0.000784929356358","0.0","0.000784929356358","0.0","0.0","0.0","0.00156985871272","0.0","0.0","0.0","0.0","0.0","0.0","0.00156985871272","0.0","0.000784929356358","0.0","0.0","0.00156985871272","0.0","0.0","0.000784929356358","0.0","0.0","0.0","0.00156985871272","0.0","0.0","0.0","0.000784929356358","0.00627943485086","0.000784929356358","0.0","0.0","0.0","0.0","0.0","0.0","0.0","0.0","0.0","0.0","0.0","0.0","0.0","0.0","0.0","0.0","0.0","0.0","0.000784929356358","0.0","0.0","0.0","0.0","0.0","0.0","0.000784929356358","0.0","0.0","0.0","0.0","0.0","0.0","0.000784929356358","0.0","0.0","0.0","0.0","0.0","0.0","0.0","0.0","0.0","0.0","0.0","0.0","0.0","0.0","0.0","0.000784929356358","0.0","0.0","0.0","0.0","0.0","0.0","0.0","0.0","0.0","0.0","0.000784929356358","0.000784929356358","0.0","0.00156985871272","0.0","0.0","0.0","0.0","0.0","0.0","0.0","0.0","0.0","0.0","0.0","0.0","0.0","0.0","0.0","0.0","0.00156985871272","0.0","0.0","0.0","0.0","0.0","0.000784929356358","0.0","0.0","0.0","0.0","0.0","0.0","0.0","0.0","0.0","0.0","-"
"2016-10-31","Boeing","0.000542299349241","0.0","0.0","0.0","0.0","0.000542299349241","0.0","0.0","0.0","0.0","0.0","0.000542299349241","0.0","0.0","0.0","0.0","0.00108459869848","0.0","0.0","0.0","0.0","0.0","0.000542299349241","0.0","0.0","0.0","0.000542299349241","0.0","0.0","0.0","0.0","0.0","0.0","0.0","0.0","0.0","0.0","0.00596529284165","0.0","0.0","0.0","0.0","0.0","0.000542299349241","0.0","0.0","0.0","0.0","0.0","0.000542299349241","0.0","0.0","0.0","0.0","0.0","0.0","0.0","0.000542299349241","0.0","0.0","0.0","0.0","0.000542299349241","0.0","0.0","0.000542299349241","0.0","0.0","0.000542299349241","0.0","0.0","0.0","0.0","0.000542299349241","0.0","0.0","0.0","0.0","0.0","0.0027114967462","0.0","0.0","0.0","0.000542299349241","0.000542299349241","0.0","0.0","0.0","0.0","0.0","0.0","0.0","0.0","0.0","0.0","0.0","0.0","0.0","0.0","0.0","0.0","0.0","0.0","0.0","0.0","0.0","0.0","0.0","0.00108459869848","0.0","0.0","0.0","0.0","0.0","0.0","0.0","0.0","0.0","0.0","0.0","0.0","0.0","0.00108459869848","0.0","0.0","0.0","0.0","0.0","0.0","0.0","0.0","0.0","0.0","0.0","0.0","0.0","0.0","0.0","0.0","0.0","0.0","0.0","0.0","0.0","0.0","0.0","0.0","0.0","0.0","0.0","0.0","0.0","0.0","0.0","0.0","0.0","0.0","0.0","0.0","0.0","0.00108459869848","0.0","0.0","0.0","0.0","0.0","0.0","0.0","0.0","0.0","0.0","0.0","0.0","0.0","0.0","0.0","0.0","-"
"2016-11-01","Boeing","0.0","0.0","0.0","0.0","0.0","0.0","0.0","0.0","0.000695410292072","0.0","0.0","0.00208623087622","0.0","0.0","0.0","0.0","0.00278164116829","0.0","0.0","0.0","0.000695410292072","0.0","0.0","0.000695410292072","0.0","0.0","0.00208623087622","0.0","0.0","0.0","0.0","0.0","0.0","0.000695410292072","0.0","0.0","0.0","0.00904033379694","0.0","0.0","0.0","0.0","0.0","0.00208623087622","0.00417246175243","0.0","0.000695410292072","0.0","0.0","0.0","0.000695410292072","0.0","0.0","0.0","0.0","0.000695410292072","0.0","0.00208623087622","0.0","0.000695410292072","0.0","0.0","0.000695410292072","0.0","0.0","0.0","0.0","0.0","0.000695410292072","0.0","0.000695410292072","0.0","0.0","0.0","0.0","0.0","0.0","0.0","0.0","0.00417246175243","0.0","0.0","0.0","0.0","0.0","0.0","0.0","0.0","0.0","0.0","0.0","0.0","0.0","0.0","0.0","0.0","0.000695410292072","0.0","0.0","0.0","0.0","0.0","0.0","0.0","0.0","0.0","0.0","0.0","0.0","0.0","0.0","0.0","0.0","0.0","0.0","0.0","0.0","0.000695410292072","0.0","0.0","0.0","0.0","0.0","0.0","0.0","0.0","0.0","0.0","0.0","0.0","0.0","0.0","0.0","0.0","0.0","0.0","0.0","0.0","0.0","0.000695410292072","0.0","0.0","0.0","0.0","0.0","0.0","0.0","0.0","0.0","0.0","0.0","0.0","0.0","0.0","0.0","0.0","0.0","0.0","0.000695410292072","0.0","0.0","0.0","0.0","0.0","0.0","0.0","0.0","0.0","0.0","0.000695410292072","0.0","0.0","0.0","0.0","0.0","0.0","0.0","+"
"2016-11-04","Boeing","0.0","0.0","0.0","0.0","0.0","0.0","0.0","0.0","0.0","0.0","0.0","0.0","0.0","0.0","0.0","0.0","0.00213675213675","0.0","0.0","0.0","0.000712250712251","0.0","0.000712250712251","0.0","0.0","0.0","0.0014245014245","0.0","0.0","0.0","0.0","0.0","0.0","0.000712250712251","0.0","0.0","0.0","0.0042735042735","0.0","0.0","0.0","0.0","0.0","0.0","0.002849002849","0.0","0.0","0.000712250712251","0.0","0.0","0.0","0.000712250712251","0.0","0.0","0.0","0.0","0.0","0.0","0.0","0.0","0.0","0.0","0.0","0.0","0.000712250712251","0.000712250712251","0.0","0.000712250712251","0.0","0.0","0.0","0.0","0.0","0.0","0.0","0.0","0.0","0.0","0.0","0.00356125356125","0.000712250712251","0.0","0.0","0.0","0.0","0.0","0.0","0.0","0.0","0.0","0.0","0.0","0.0","0.0","0.0","0.0","0.000712250712251","0.0","0.0","0.000712250712251","0.0","0.000712250712251","0.0","0.0","0.000712250712251","0.0","0.0","0.0","0.0","0.0","0.0","0.0","0.0","0.0","0.0","0.000712250712251","0.0","0.0","0.0","0.0","0.0","0.0","0.0","0.0","0.0","0.0","0.0","0.0","0.0","0.0","0.0","0.0","0.0","0.0","0.0","0.0","0.0","0.0","0.0","0.0","0.000712250712251","0.0","0.0","0.0","0.0","0.0","0.0","0.0","0.0","0.0","0.0","0.0","0.0","0.0","0.0","0.0","0.0","0.0","0.0","0.0","0.0","0.0","0.0","0.0","0.0","0.0","0.0","0.0","0.0","0.0","0.0","0.0","0.0","0.0","0.0","0.0","0.0","+"
"2016-11-05","Boeing","0.0","0.0","0.0","0.0","0.0","0.0","0.0","0.0","0.0","0.0","0.0","0.0010775862069","0.0","0.0","0.0","0.0","0.0010775862069","0.0","0.0","0.0010775862069","0.0","0.0","0.0","0.0","0.0","0.0","0.0010775862069","0.0","0.0","0.0","0.0","0.0","0.0","0.0","0.0","0.0","0.0","0.00646551724138","0.0","0.0","0.0","0.0","0.0","0.0","0.00431034482759","0.0","0.0","0.00215517241379","0.0","0.0","0.0","0.0","0.0","0.0","0.0","0.0","0.0","0.0010775862069","0.0","0.0010775862069","0.0","0.0","0.0","0.0","0.0","0.0","0.0","0.0","0.0","0.0","0.0","0.0","0.0","0.0","0.0","0.0","0.0","0.0","0.0","0.00538793103448","0.0","0.0","0.0","0.0","0.0","0.0","0.0","0.0","0.0","0.0","0.0","0.0","0.0","0.0","0.0","0.0","0.0","0.0","0.0","0.0","0.0","0.0","0.0","0.0","0.0","0.0","0.0","0.0","0.0","0.0","0.0","0.0","0.0","0.0","0.0","0.0","0.0","0.0","0.0","0.0","0.0","0.0","0.0","0.0","0.0","0.0","0.0","0.0","0.0","0.0","0.0","0.0","0.0","0.0","0.0","0.0","0.0","0.0","0.0","0.0","0.0","0.0","0.0","0.0010775862069","0.0","0.0","0.0","0.0","0.0","0.0","0.0","0.0","0.0","0.0","0.0","0.0","0.0","0.0","0.0","0.0","0.0","0.0","0.0","0.0","0.0","0.0","0.0010775862069","0.0","0.0","0.0","0.0","0.0","0.0","0.0","0.0","0.0","0.0","+"
"2016-11-06","Boeing","0.0","0.0","0.0","0.0","0.0","0.0","0.0","0.0","0.0","0.0","0.0","0.0","0.0","0.0","0.0","0.0","0.0","0.0","0.0","0.0","0.00197044334975","0.0","0.0","0.0","0.0","0.0","0.000985221674877","0.0","0.0","0.0","0.000985221674877","0.0","0.0","0.0","0.0","0.0","0.0","0.00591133004926","0.0","0.0","0.0","0.0","0.0","0.0","0.0","0.0","0.0","0.0","0.0","0.000985221674877","0.0","0.0","0.0","0.0","0.0","0.0","0.0","0.0","0.0","0.000985221674877","0.0","0.0","0.0","0.0","0.0","0.0","0.0","0.00492610837438","0.0","0.0","0.0","0.0","0.0","0.0","0.0","0.0","0.0","0.0","0.0","0.00591133004926","0.0","0.0","0.0","0.0","0.0","0.0","0.0","0.0","0.0","0.0","0.0","0.0","0.0","0.0","0.0","0.0","0.0","0.000985221674877","0.0","0.0","0.0","0.0","0.0","0.0","0.0","0.0","0.0","0.0","0.0","0.00197044334975","0.0","0.0","0.0","0.0","0.0","0.0","0.0","0.0","0.0","0.0","0.0","0.0","0.0","0.0","0.0","0.0","0.0","0.0","0.0","0.0","0.0","0.0","0.0","0.0","0.0","0.0","0.0","0.0","0.0","0.0","0.0","0.0","0.0","0.0","0.0","0.0","0.0","0.0","0.0","0.0","0.0","0.0","0.0","0.0","0.0","0.0","0.000985221674877","0.0","0.0","0.0","0.00492610837438","0.0","0.0","0.0","0.0","0.0","0.000985221674877","0.0","0.0","0.0","0.0","0.0","0.0","0.0","0.0","0.0","0.000985221674877","+"
"2016-11-07","Boeing","0.0","0.0","0.0","0.0","0.0","0.0","0.0","0.0","0.0","0.000578034682081","0.0","0.00115606936416","0.0","0.0","0.0","0.0","0.00346820809249","0.0","0.0","0.000578034682081","0.000578034682081","0.0","0.0","0.0","0.0","0.0","0.000578034682081","0.0","0.0","0.0","0.000578034682081","0.0","0.0","0.0","0.0","0.0","0.000578034682081","0.0028901734104","0.0","0.0","0.00115606936416","0.0","0.0","0.0","0.0","0.0","0.0","0.000578034682081","0.0","0.00115606936416","0.0","0.000578034682081","0.0","0.0","0.0","0.0","0.0","0.00115606936416","0.0","0.0","0.0","0.00115606936416","0.000578034682081","0.0","0.0","0.00173410404624","0.0","0.000578034682081","0.000578034682081","0.000578034682081","0.0","0.0","0.0","0.0","0.00520231213873","0.0","0.0","0.0","0.0","0.00462427745665","0.0","0.0","0.0","0.000578034682081","0.0","0.0","0.0","0.0","0.0","0.0","0.0","0.0","0.0","0.0","0.0","0.0","0.0","0.000578034682081","0.0","0.0","0.0","0.0","0.0","0.000578034682081","0.000578034682081","0.0","0.0","0.0","0.0","0.0","0.0","0.0","0.0","0.0","0.0","0.0","0.0","0.0","0.0","0.0","0.0","0.0","0.0","0.0","0.0","0.0","0.0","0.0","0.0","0.0","0.0","0.0","0.0","0.000578034682081","0.0","0.0","0.0","0.0","0.0","0.0","0.000578034682081","0.0","0.0","0.0","0.0","0.0","0.0","0.0","0.0","0.0","0.0","0.0","0.0","0.0","0.0","0.0","0.0","0.0","0.0","0.0","0.00173410404624","0.0","0.0","0.0","0.0","0.0","0.0","0.0","0.0","0.0","0.0","0.0","0.0","0.0","0.0","0.0","0.000578034682081","+"
"2016-11-08","Boeing","0.0","0.0","0.0","0.0","0.0","0.0","0.0","0.0","0.0","0.0","0.0","0.0","0.0","0.0","0.0","0.0","0.00236406619385","0.0","0.0","0.0","0.000788022064618","0.0","0.0","0.0","0.0","0.0","0.0","0.0","0.0","0.0","0.0","0.0","0.0","0.0","0.0","0.0","0.000788022064618","0.00551615445232","0.0","0.0","0.0","0.0","0.0","0.0","0.0","0.0","0.0","0.000788022064618","0.0","0.000788022064618","0.0","0.0","0.0","0.0","0.0","0.0","0.0","0.0","0.0","0.0","0.0","0.000788022064618","0.0","0.000788022064618","0.000788022064618","0.00236406619385","0.0","0.000788022064618","0.0","0.0","0.0","0.0","0.0","0.0","0.00630417651694","0.0","0.0","0.0","0.0","0.00394011032309","0.0","0.0","0.0","0.0","0.0","0.0","0.0","0.0","0.0","0.0","0.0","0.0","0.0","0.0","0.0","0.0","0.0","0.0","0.0","0.0","0.0","0.0","0.0","0.0","0.000788022064618","0.0","0.0","0.0","0.0","0.0","0.0","0.0","0.0","0.0","0.0","0.0","0.0","0.0","0.0","0.0","0.0","0.0","0.0","0.0","0.0","0.0","0.0","0.0","0.0","0.0","0.0","0.0","0.0","0.0","0.0","0.0","0.0","0.0","0.0","0.0","0.0","0.0","0.0","0.0","0.0","0.0","0.0","0.0","0.000788022064618","0.0","0.0","0.0","0.0","0.0","0.0","0.0","0.0","0.0","0.0","0.0","0.000788022064618","0.0","0.0","0.0","0.0","0.0","0.0","0.0","0.0","0.0","0.0","0.0","0.0","0.0","0.0","0.0","0.000788022064618","+"
"2016-11-18","Boeing","0.0","0.0","0.0","0.0","0.0","0.0","0.0","0.0","0.0","0.0","0.0","0.000507872016252","0.0","0.0","0.0","0.0","0.00203148806501","0.000507872016252","0.0","0.0","0.0","0.0","0.0","0.0","0.0","0.0","0.0","0.0","0.0","0.0","0.0","0.0","0.0","0.000507872016252","0.0","0.0","0.0","0.00406297613002","0.0","0.0","0.0","0.0","0.0","0.0","0.000507872016252","0.0116810563738","0.0","0.00152361604876","0.0","0.0","0.0","0.0","0.0","0.0","0.0","0.0","0.0","0.000507872016252","0.0","0.000507872016252","0.0","0.00203148806501","0.000507872016252","0.0","0.0","0.0","0.0","0.0","0.000507872016252","0.0","0.000507872016252","0.0","0.0","0.0","0.000507872016252","0.0","0.0","0.0","0.000507872016252","0.00660233621127","0.0","0.0","0.0","0.0","0.0","0.0","0.0","0.0","0.0010157440325","0.0","0.0","0.0","0.0","0.0","0.0","0.0","0.0","0.000507872016252","0.0","0.0","0.0","0.0","0.0","0.0","0.000507872016252","0.0","0.0","0.0","0.0","0.0","0.0","0.0","0.0","0.0","0.0","0.0","0.0","0.0","0.0","0.0","0.0","0.0","0.0","0.000507872016252","0.0","0.0","0.0","0.0","0.0","0.0","0.00203148806501","0.00203148806501","0.0","0.0","0.0","0.0","0.0","0.0","0.0","0.0","0.0","0.0","0.0","0.0","0.0","0.000507872016252","0.0","0.0","0.0","0.0","0.0","0.0","0.000507872016252","0.0","0.0","0.0","0.0","0.0","0.000507872016252","0.0","0.00152361604876","0.0","0.0","0.0","0.0","0.0","0.000507872016252","0.0","0.0","0.0","0.0","0.0","0.0","0.0","0.0","0.0","0.0","-"
"2016-11-19","Boeing","0.0","0.0","0.0","0.0","0.0","0.0","0.0","0.0","0.0","0.0","0.0","0.0","0.0","0.0","0.0","0.0","0.00249169435216","0.0","0.0","0.00166112956811","0.0","0.0","0.000830564784053","0.0","0.0","0.0","0.0","0.0","0.0","0.0","0.000830564784053","0.0","0.0","0.0","0.0","0.0","0.0","0.00415282392027","0.0","0.0","0.0","0.0","0.0","0.0","0.0","0.00166112956811","0.0","0.00166112956811","0.0","0.0","0.0","0.0","0.0","0.0","0.000830564784053","0.0","0.0","0.0","0.0","0.0","0.0","0.0","0.000830564784053","0.000830564784053","0.0","0.000830564784053","0.0","0.0","0.0","0.0","0.0","0.0","0.0","0.00166112956811","0.000830564784053","0.0","0.0","0.0","0.0","0.00498338870432","0.0","0.0","0.0","0.0","0.0","0.0","0.0","0.0","0.0","0.0","0.0","0.0","0.0","0.0","0.0","0.0","0.0","0.0","0.0","0.0","0.0","0.0","0.0","0.0","0.000830564784053","0.0","0.0","0.0","0.0","0.000830564784053","0.0","0.0","0.0","0.0","0.0","0.0","0.0","0.0","0.0","0.0","0.0","0.0","0.0","0.0","0.0","0.0","0.0","0.0","0.0","0.0","0.0","0.00166112956811","0.0","0.0","0.0","0.0","0.0","0.0","0.0","0.0","0.00166112956811","0.0","0.0","0.0","0.0","0.0","0.0","0.0","0.0","0.0","0.0","0.0","0.0","0.0","0.0","0.0","0.0","0.0","0.0","0.000830564784053","0.000830564784053","0.0","0.0","0.0","0.0","0.0","0.0","0.0","0.0","0.0","0.0","0.0","0.0","0.0","0.0","0.0","0.0","+"
"2016-11-20","Boeing","0.0","0.0","0.0","0.0","0.0","0.0","0.0","0.0","0.0","0.0","0.0","0.000712758374911","0.0","0.0","0.0","0.0","0.00213827512473","0.0","0.0","0.0","0.000712758374911","0.0","0.0","0.0","0.0","0.0","0.000712758374911","0.0","0.0","0.0","0.0","0.0","0.0","0.0","0.0","0.0","0.0","0.00142551674982","0.0","0.0","0.000712758374911","0.0","0.0","0.0","0.0","0.0","0.0","0.0","0.0","0.0","0.0","0.0","0.0","0.0","0.0","0.0","0.0","0.000712758374911","0.0","0.0","0.0","0.000712758374911","0.0","0.0","0.0","0.0","0.0","0.0","0.0","0.000712758374911","0.0","0.0","0.0","0.000712758374911","0.0","0.0","0.0","0.0","0.000712758374911","0.00285103349964","0.0","0.0","0.0","0.0","0.000712758374911","0.0","0.0","0.0","0.00142551674982","0.0","0.0","0.0","0.0","0.0","0.0","0.0","0.0","0.0","0.0","0.0","0.0","0.0","0.0","0.000712758374911","0.0","0.0","0.0","0.0","0.0","0.0","0.0","0.0","0.0","0.0","0.0","0.0","0.0","0.0","0.0","0.0","0.0","0.0","0.0","0.000712758374911","0.0","0.0","0.0","0.0","0.0","0.0","0.0","0.0","0.0","0.000712758374911","0.0","0.0","0.0","0.0","0.0","0.000712758374911","0.00427655024947","0.0","0.0","0.0","0.0","0.0","0.0","0.0","0.0","0.0","0.0","0.0","0.0","0.0","0.0","0.0","0.0","0.0","0.0","0.0","0.00142551674982","0.0","0.0","0.0","0.0","0.0","0.0","0.0","0.0","0.0","0.0","0.0","0.0","0.0","0.000712758374911","0.0","0.0","+"
"2016-11-22","Boeing","0.0","0.0","0.0","0.0","0.0","0.0","0.0","0.0","0.0","0.0","0.0","0.0","0.0","0.0","0.0","0.000404694455686","0.00121408336706","0.0","0.0","0.0","0.0","0.0","0.0","0.0","0.0","0.0","0.000404694455686","0.0","0.0","0.0","0.0","0.0","0.0","0.0","0.0","0.0","0.0","0.00323755564549","0.0","0.0","0.00121408336706","0.0","0.0","0.0","0.0","0.0","0.000404694455686","0.000404694455686","0.0","0.0","0.0","0.000404694455686","0.0","0.0","0.0","0.0","0.0","0.0","0.0","0.0","0.0","0.000404694455686","0.000404694455686","0.0","0.0","0.000404694455686","0.0","0.0","0.0","0.0","0.000404694455686","0.0","0.0","0.0","0.0","0.0","0.0","0.0","0.000404694455686","0.00364225010117","0.000404694455686","0.0","0.0","0.000404694455686","0.0","0.0","0.0","0.0","0.000404694455686","0.0","0.0","0.0","0.0","0.000404694455686","0.000404694455686","0.0","0.0","0.000404694455686","0.0","0.000404694455686","0.0","0.0","0.0","0.0","0.000809388911372","0.0","0.0","0.0","0.0","0.0","0.0","0.0","0.0","0.0","0.0","0.0","0.0","0.0","0.0","0.0","0.0","0.0","0.0","0.0","0.0","0.0","0.0","0.0","0.0","0.0","0.0","0.0","0.0","0.0","0.000404694455686","0.0","0.0","0.0","0.0","0.0","0.000404694455686","0.0","0.0","0.0","0.0","0.0","0.0","0.0","0.0","0.0","0.0","0.0","0.000809388911372","0.0","0.0","0.0","0.0","0.0","0.0","0.0","0.000404694455686","0.0","0.0","0.0","0.0","0.0","0.0","0.0","0.0","0.0","0.0","0.0","0.0","0.0","0.0","0.0","0.000404694455686","+"
"2016-11-25","Boeing","0.0","0.0","0.0","0.0","0.0","0.0","0.0","0.0","0.00855365474339","0.0","0.0","0.000777604976672","0.0","0.0","0.0","0.0","0.00233281493002","0.0","0.0","0.000777604976672","0.0","0.0","0.0","0.0","0.0","0.0","0.0","0.0","0.0","0.0","0.000777604976672","0.0","0.0","0.0","0.0","0.0","0.0","0.00233281493002","0.0","0.0","0.0","0.0","0.0","0.0","0.0","0.000777604976672","0.0","0.0","0.0","0.0","0.00855365474339","0.0","0.0","0.0","0.0","0.0","0.0","0.000777604976672","0.0","0.0","0.0","0.0","0.000777604976672","0.0","0.0","0.00311041990669","0.0","0.0","0.0","0.000777604976672","0.0","0.0","0.000777604976672","0.0","0.0","0.0","0.000777604976672","0.0","0.0","0.00155520995334","0.0","0.0","0.0","0.0","0.0","0.0","0.0","0.0","0.0","0.0","0.0","0.0","0.0","0.0","0.0","0.0","0.0","0.0","0.0","0.0","0.0","0.0","0.0","0.0","0.0","0.0","0.0","0.0","0.0","0.0","0.0","0.0","0.0","0.0","0.0","0.0","0.0","0.0","0.0","0.0","0.0","0.0","0.0","0.0","0.0","0.0","0.0","0.0","0.0","0.0","0.0","0.0","0.0","0.0","0.0","0.0","0.0","0.0","0.0","0.0","0.000777604976672","0.000777604976672","0.0","0.0","0.0","0.0","0.0","0.0","0.0","0.0","0.0","0.0","0.000777604976672","0.0","0.0","0.0","0.0","0.0","0.0","0.0","0.000777604976672","0.0","0.0","0.0","0.0","0.0","0.0","0.0","0.0","0.0","0.0","0.0","0.0","0.0","0.0","0.0","0.000777604976672","+"
"2016-11-26","Boeing","0.0","0.0","0.0","0.0","0.0","0.0","0.0","0.0","0.00280112044818","0.0","0.0","0.00093370681606","0.0","0.0","0.0","0.0","0.00373482726424","0.0","0.0","0.0","0.00186741363212","0.0","0.0","0.00093370681606","0.0","0.0","0.0","0.0","0.0","0.0","0.0","0.0","0.0","0.0","0.0","0.0","0.0","0.00280112044818","0.0","0.0","0.0","0.0","0.0","0.00093370681606","0.0","0.0","0.0","0.0","0.0","0.0","0.00280112044818","0.0","0.0","0.0","0.0","0.00093370681606","0.0","0.00093370681606","0.0","0.0","0.0","0.00093370681606","0.0","0.0","0.00093370681606","0.0","0.0","0.0","0.0","0.0","0.0","0.0","0.0","0.0","0.0","0.0","0.0","0.0","0.0","0.00653594771242","0.00093370681606","0.0","0.0","0.0","0.0","0.0","0.0","0.0","0.0","0.0","0.0","0.0","0.0","0.0","0.0","0.0","0.0","0.0","0.0","0.0","0.0","0.0","0.0","0.0","0.00093370681606","0.0","0.0","0.0","0.0","0.0","0.0","0.0","0.0","0.0","0.0","0.0","0.0","0.0","0.0","0.0","0.0","0.0","0.0","0.0","0.0","0.0","0.0","0.0","0.0","0.0","0.0","0.0","0.0","0.0","0.0","0.0","0.0","0.0","0.0","0.0","0.00093370681606","0.0","0.0","0.0","0.0","0.0","0.0","0.0","0.0","0.0","0.0","0.0","0.00186741363212","0.0","0.0","0.00093370681606","0.0","0.0","0.0","0.0","0.00186741363212","0.0","0.0","0.0","0.0","0.0","0.0","0.0","0.0","0.0","0.0","0.0","0.0","0.0","0.0","0.0","0.00186741363212","+"
"2016-11-27","Boeing","0.0","0.0","0.0","0.0","0.0","0.0","0.0","0.0","0.0","0.0","0.0","0.0","0.0","0.0","0.0","0.0","0.0020325203252","0.0","0.0","0.0","0.0010162601626","0.0","0.0010162601626","0.0","0.0","0.0","0.0","0.0","0.0","0.0","0.0","0.0","0.0","0.0","0.0","0.0","0.0","0.0030487804878","0.0","0.0","0.0","0.0","0.0","0.0","0.0","0.0","0.0","0.0","0.0","0.0","0.0","0.0","0.0","0.0","0.0","0.0","0.0","0.0","0.0","0.0","0.0","0.0010162601626","0.0010162601626","0.0","0.0","0.0010162601626","0.0","0.0","0.0","0.0010162601626","0.0","0.0","0.0","0.0","0.0010162601626","0.0","0.0","0.0","0.0","0.0030487804878","0.0","0.0","0.0","0.0","0.0","0.0","0.0","0.0","0.0","0.0","0.0","0.0","0.0","0.0","0.0","0.0","0.0","0.0","0.0","0.0","0.0","0.0","0.0","0.0","0.0","0.0","0.0","0.0","0.0","0.0","0.0","0.0","0.0","0.0","0.0","0.0010162601626","0.0","0.0","0.0","0.0","0.0","0.0","0.0","0.0010162601626","0.0","0.0","0.0","0.0","0.0","0.0","0.0010162601626","0.0","0.0","0.0","0.0","0.0","0.0","0.0","0.0","0.0","0.0","0.0020325203252","0.0","0.0","0.0","0.0","0.0","0.0","0.0","0.0","0.0","0.0","0.0","0.0","0.0","0.0","0.0","0.0","0.0","0.0","0.00609756097561","0.0","0.0","0.0","0.0","0.0","0.0","0.0","0.0","0.0","0.0","0.0","0.0","0.0","0.0","0.0","0.0020325203252","-"
"2016-11-28","Boeing","0.0","0.0","0.0","0.0","0.0","0.0","0.0","0.0","0.000941619585687","0.0","0.0","0.000470809792844","0.0","0.0","0.0","0.000470809792844","0.00423728813559","0.0","0.0","0.000470809792844","0.000470809792844","0.0","0.0","0.0","0.0","0.0","0.000470809792844","0.0","0.0","0.0","0.0","0.0","0.0","0.000470809792844","0.0","0.0","0.0","0.00423728813559","0.0","0.0","0.0131826741996","0.0","0.0","0.0","0.000470809792844","0.0","0.000470809792844","0.00141242937853","0.0","0.0","0.000941619585687","0.000470809792844","0.0","0.0","0.0","0.0","0.0","0.000470809792844","0.0","0.0","0.0","0.0","0.000941619585687","0.000470809792844","0.000941619585687","0.0","0.0","0.0","0.0","0.0","0.0","0.0","0.0","0.0","0.0","0.0","0.0","0.0","0.0","0.00235404896422","0.000470809792844","0.0","0.0","0.0","0.0","0.0","0.0","0.0","0.0","0.0","0.0","0.000470809792844","0.0","0.0","0.0","0.0","0.0","0.0","0.0","0.0","0.0","0.000470809792844","0.0","0.0","0.0","0.0","0.0","0.0","0.0","0.0","0.0","0.0","0.0","0.0","0.0","0.0","0.0","0.0","0.0","0.0","0.0","0.0","0.0","0.0","0.0","0.0","0.0","0.0","0.0","0.0","0.0","0.0","0.0","0.0","0.0","0.0","0.0","0.0","0.0","0.000470809792844","0.000941619585687","0.204331450094","0.0","0.0","0.0","0.0","0.0","0.0","0.0","0.0","0.0","0.0","0.0","0.0","0.0","0.0","0.0","0.0","0.0","0.0","0.0","0.0","0.0","0.0","0.0","0.0","0.0","0.0","0.0","0.0","0.0","0.0","0.0","0.0","0.0","0.0","0.00141242937853","+"
"2016-11-29","Boeing","0.0","0.0","0.0","0.0","0.0","0.0","0.0","0.0","0.0019267822736","0.0","0.0","0.0","0.0","0.0","0.0","0.0019267822736","0.0115606936416","0.0","0.0","0.0","0.0","0.0","0.0","0.0019267822736","0.0","0.0","0.0","0.0","0.0","0.0","0.0","0.0","0.0","0.00385356454721","0.0","0.0","0.0","0.0019267822736","0.0","0.0","0.0","0.0","0.0","0.0","0.0","0.0","0.0","0.00385356454721","0.0","0.0","0.0019267822736","0.0","0.0","0.0","0.0","0.0019267822736","0.0","0.0","0.0","0.0","0.0","0.0","0.0","0.0","0.0","0.0","0.0","0.0","0.0","0.0","0.0","0.0","0.0","0.0","0.0","0.0","0.0","0.0","0.0","0.00770712909441","0.0","0.0","0.0","0.0","0.0","0.0","0.0","0.0","0.0","0.0","0.0","0.0","0.0","0.0","0.0","0.0","0.0","0.0","0.0","0.0","0.0","0.0","0.0","0.0","0.0","0.0","0.0","0.0","0.0","0.0","0.0","0.0","0.0","0.0","0.0","0.0019267822736","0.0","0.0","0.0","0.0","0.0","0.0","0.0","0.0","0.0","0.0","0.0","0.0","0.0","0.0","0.0","0.0","0.0","0.0","0.0","0.0","0.0","0.0","0.0","0.0019267822736","0.0","0.0597302504817","0.0","0.0","0.0","0.0","0.0","0.0","0.0","0.0","0.0","0.0","0.0","0.0","0.0","0.0","0.0","0.0","0.0","0.0","0.0","0.0","0.0","0.0","0.0","0.0","0.00385356454721","0.0","0.0","0.0","0.0","0.0","0.0","0.0","0.0","0.0","0.0","-"
