"DATE","COMPANY","trusted","greatness","authentic","blockbuster","convenient","gaining","providence","thinner","benefits","improvements","perfection","helped","competitive","encourage","amusing","fair","right","interests","relaxed","clearly","luxury","enterprising","safe","loved","cheapest","humour","cleared","applaud","slick","uplifting","golden","reclaim","empower","benefit","scenic","serenity","excitement","work","invaluable","honoring","appeal","accomplish","instrumental","famous","keen","approval","favour","wonder","promising","comfort","benefits","upgraded","strongest","exceptional","unreal","loved","lover","helped","recommendation","quiet","cleaner","innovation","helping","superior","safely","thank","promise","favorite","generous","grateful","bullish","colorful","precise","afford","innovative","beloved","heaven","recommendations","honor","love","fresh","confidence","dynamic","significant","gains","foul","fail","virus","error","slump","volatility","dumping","anger","bugs","leaks","pan","broken","sucks","suffer","stuck","tumble","loser","disturb","bust","losing","neglect","scary","fever","scare","mistake","denied","vibrating","mysterious","conflict","hypocritical","bitch","sabotage","protest","deplorable","poorly","demonic","skinny","sharply","corrupt","gape","cheat","diss","slower","moan","dent","sued","hurt","tired","bust","bloody","illness","biases","abuses","slime","struck","emergency","illegal","damaging","blind","taboo","screwed","feint","regrets","anxiety","disprove","confront","blackmail","stupid","blunder","cruelty","delusional","overwhelmingly","phony","blasted","backward","crashes","drastically","ranting","crappy","intimidating","gossip","odd","insult","harms","absurd","invader","fails","vague","clash","scared","trick","dumb","+/-/="
"2016-09-19","Intel","0.0","0.0","0.0","0.0","0.0","0.0","0.0","0.0","0.0","0.000396510705789","0.0","0.0","0.00277557494052","0.0","0.0","0.000793021411578","0.00237906423473","0.0","0.0","0.000396510705789","0.0","0.0","0.000396510705789","0.000396510705789","0.000396510705789","0.0","0.0","0.0","0.0","0.0","0.0","0.0","0.0","0.000396510705789","0.0","0.0","0.0","0.00634417129262","0.0","0.0","0.0","0.0","0.0","0.0","0.0","0.0","0.0","0.00118953211737","0.0","0.0","0.0","0.0","0.0","0.0","0.0","0.000396510705789","0.0","0.0","0.0","0.0","0.0","0.00237906423473","0.000396510705789","0.0","0.0","0.000396510705789","0.0","0.0","0.0","0.0","0.000793021411578","0.0","0.0","0.0","0.0","0.0","0.0","0.0","0.0","0.000793021411578","0.00237906423473","0.0","0.000396510705789","0.0","0.0","0.0","0.0","0.0","0.0","0.0","0.0","0.0","0.0","0.0","0.0","0.0","0.0","0.0","0.0","0.0","0.0","0.0","0.0","0.0","0.000396510705789","0.0","0.0","0.0","0.0","0.000396510705789","0.0","0.0","0.0","0.0","0.0","0.0","0.0","0.0","0.0","0.0","0.0","0.00118953211737","0.0","0.0","0.0","0.0","0.0","0.000396510705789","0.0","0.0","0.0","0.000396510705789","0.000793021411578","0.0","0.0","0.0","0.0","0.0","0.0","0.0","0.0","0.00118953211737","0.0","0.0","0.0","0.000396510705789","0.0","0.0","0.0","0.0","0.0","0.0","0.000396510705789","0.0","0.0","0.0","0.0","0.0","0.0","0.0","0.0","0.0","0.0","0.0","0.0","0.0","0.0","0.000396510705789","0.0","0.0","0.0","0.0","0.0","0.0","0.0","0.0","0.0","-"
"2016-09-20","Intel","0.0","0.000356633380884","0.0","0.0","0.000356633380884","0.000356633380884","0.0","0.0","0.0","0.0","0.0","0.000356633380884","0.00213980028531","0.0","0.0","0.0","0.00356633380884","0.0","0.0","0.000713266761769","0.0","0.0","0.000713266761769","0.000356633380884","0.0","0.0","0.0","0.0","0.0","0.0","0.0","0.0","0.0","0.0","0.0","0.0","0.0","0.00499286733238","0.0","0.0","0.0","0.0","0.0","0.0","0.0","0.0","0.0","0.00213980028531","0.0","0.0","0.0","0.00106990014265","0.0","0.0","0.0","0.000356633380884","0.0","0.000356633380884","0.0","0.0","0.0","0.00213980028531","0.0","0.000356633380884","0.0","0.00142653352354","0.0","0.000356633380884","0.0","0.0","0.000356633380884","0.0","0.000356633380884","0.000356633380884","0.000356633380884","0.0","0.0","0.0","0.0","0.00285306704708","0.000713266761769","0.0","0.0","0.0","0.000356633380884","0.0","0.0","0.0","0.000713266761769","0.0","0.0","0.0","0.000356633380884","0.0","0.0","0.0","0.0","0.0","0.0","0.0","0.0","0.0","0.0","0.0","0.0","0.0","0.000356633380884","0.0","0.0","0.000356633380884","0.0","0.0","0.0","0.0","0.0","0.000356633380884","0.0","0.0","0.0","0.0","0.0","0.0","0.0","0.0","0.0","0.0","0.0","0.0","0.0","0.0","0.0","0.0","0.000356633380884","0.0","0.0","0.0","0.0","0.000356633380884","0.0","0.0","0.0","0.000356633380884","0.0","0.0","0.0","0.0","0.0","0.0","0.0","0.0","0.0","0.0","0.00106990014265","0.0","0.0","0.0","0.0","0.0","0.0","0.0","0.0","0.0","0.0","0.0","0.0","0.0","0.0","0.000356633380884","0.0","0.0","0.0","0.000356633380884","0.0","0.0","0.0","0.0","0.00142653352354","-"
"2016-09-23","Intel","0.000412881915772","0.0","0.0","0.0","0.0","0.0","0.0","0.0","0.000412881915772","0.0","0.0","0.0","0.00206440957886","0.0","0.0","0.0","0.00165152766309","0.000825763831544","0.0","0.000412881915772","0.0","0.0","0.0","0.000412881915772","0.0","0.0","0.0","0.0","0.0","0.0","0.0","0.0","0.0","0.000412881915772","0.0","0.0","0.0","0.00990916597853","0.0","0.0","0.0","0.0","0.0","0.0","0.0","0.0","0.0","0.00123864574732","0.00371593724195","0.0","0.000412881915772","0.0","0.0","0.0","0.0","0.000412881915772","0.0","0.0","0.0","0.0","0.0","0.000825763831544","0.0","0.0","0.0","0.00123864574732","0.000412881915772","0.0","0.0","0.0","0.0","0.0","0.0","0.0","0.0","0.0","0.0","0.0","0.0","0.00206440957886","0.000412881915772","0.0","0.000412881915772","0.000412881915772","0.0","0.0","0.0","0.0","0.000412881915772","0.0","0.0","0.0","0.0","0.0","0.0","0.0","0.0","0.0","0.0","0.000412881915772","0.0","0.0","0.0","0.0","0.000412881915772","0.0","0.000412881915772","0.0","0.000412881915772","0.0","0.0","0.0","0.0","0.0","0.0","0.0","0.0","0.0","0.0","0.0","0.0","0.000412881915772","0.0","0.000412881915772","0.0","0.0","0.0","0.0","0.0","0.0","0.0","0.000412881915772","0.0","0.0","0.0","0.0","0.0","0.000412881915772","0.0","0.0","0.0","0.000825763831544","0.0","0.000412881915772","0.0","0.0","0.0","0.0","0.0","0.0","0.0","0.0","0.000412881915772","0.0","0.0","0.0","0.0","0.0","0.0","0.0","0.0","0.0","0.0","0.0","0.0","0.0","0.000412881915772","0.0","0.0","0.0","0.0","0.000412881915772","0.0","0.0","0.0","0.0","0.000412881915772","-"
"2016-09-24","Intel","0.0","0.0","0.0","0.0","0.0","0.0","0.0","0.0","0.0","0.0","0.0","0.000391083300743","0.0","0.0","0.0","0.0","0.00156433320297","0.000391083300743","0.0","0.000391083300743","0.0","0.0","0.0","0.000391083300743","0.000391083300743","0.0","0.0","0.0","0.0","0.0","0.0","0.0","0.000391083300743","0.000391083300743","0.0","0.0","0.0","0.0117324990223","0.0","0.0","0.0","0.0","0.0","0.0","0.0","0.0","0.0","0.000391083300743","0.0","0.0","0.0","0.0","0.0","0.0","0.0","0.000391083300743","0.0","0.000391083300743","0.0","0.0","0.0","0.0","0.00117324990223","0.0","0.0","0.000391083300743","0.0","0.0","0.0","0.0","0.0","0.0","0.0","0.000391083300743","0.0","0.0","0.0","0.0","0.0","0.00234649980446","0.0","0.0","0.0","0.0","0.0","0.0","0.0","0.0","0.0","0.0","0.0","0.0","0.0","0.0","0.0","0.0","0.000391083300743","0.0","0.0","0.0","0.0","0.0","0.0","0.0","0.000782166601486","0.0","0.0","0.0","0.0","0.000391083300743","0.0","0.0","0.0","0.0","0.0","0.000391083300743","0.0","0.0","0.0","0.0","0.0","0.0","0.0","0.0","0.0","0.0","0.0","0.000391083300743","0.0","0.0","0.0","0.0","0.0","0.0","0.000391083300743","0.0","0.0","0.0","0.0","0.0","0.0","0.000391083300743","0.0","0.0","0.0","0.0","0.0","0.0","0.0","0.0","0.0","0.0","0.0","0.0","0.0","0.0","0.0","0.0","0.0","0.0","0.0","0.0","0.0","0.0","0.0","0.0","0.0","0.0","0.0","0.0","0.0","0.0","0.000391083300743","0.000391083300743","0.0","0.0","0.0","+"
"2016-09-25","Intel","0.0","0.0","0.0","0.0","0.0","0.00040749796251","0.0","0.0","0.0","0.0","0.0","0.0","0.0","0.0","0.0","0.0","0.00448247758761","0.0","0.0","0.0","0.0","0.0","0.0","0.0","0.0","0.0","0.0","0.0","0.0","0.0","0.0","0.0","0.0","0.00081499592502","0.0","0.0","0.0","0.0114099429503","0.0","0.0","0.0","0.0","0.0","0.0","0.0","0.0","0.0","0.00040749796251","0.00040749796251","0.0","0.0","0.0","0.0","0.0","0.0","0.0","0.0","0.0","0.0","0.0","0.0","0.0","0.00081499592502","0.00040749796251","0.0","0.0","0.0","0.0","0.0","0.0","0.00040749796251","0.0","0.0","0.0","0.0","0.0","0.0","0.0","0.0","0.00040749796251","0.0","0.0","0.0","0.0","0.0","0.0","0.0","0.0","0.00040749796251","0.0","0.0","0.0","0.0","0.0","0.0","0.0","0.00040749796251","0.0","0.0","0.0","0.0","0.0","0.0","0.0","0.00081499592502","0.0","0.0","0.0","0.0","0.0","0.0","0.0","0.0","0.0","0.0","0.0","0.0","0.0","0.0","0.0","0.0","0.0","0.0","0.0","0.0","0.0","0.0","0.0","0.0","0.0","0.0","0.0","0.00040749796251","0.0","0.00040749796251","0.0","0.0","0.0","0.0","0.0","0.0","0.0","0.0","0.0","0.0","0.0","0.0","0.0","0.0","0.0","0.0","0.0","0.00040749796251","0.0","0.0","0.0","0.0","0.0","0.0","0.0","0.0","0.0","0.0","0.0","0.0","0.0","0.0","0.0","0.0","0.0","0.0","0.0","0.0","0.0","0.00040749796251","0.00040749796251","0.0","+"
"2016-09-26","Intel","0.0","0.0","0.0","0.0","0.0","0.0","0.0","0.0","0.0","0.0","0.0","0.000776699029126","0.00271844660194","0.0","0.0","0.0","0.00233009708738","0.0","0.0","0.0","0.0","0.0","0.0","0.0","0.0","0.0","0.0","0.0","0.0","0.0","0.0","0.0","0.0","0.000388349514563","0.0","0.0","0.0","0.0104854368932","0.0","0.0","0.0","0.0","0.0","0.0","0.0","0.0","0.000776699029126","0.00116504854369","0.0","0.0","0.0","0.000388349514563","0.0","0.000776699029126","0.0","0.0","0.0","0.000776699029126","0.0","0.0","0.0","0.000388349514563","0.0","0.000776699029126","0.0","0.00116504854369","0.000388349514563","0.000776699029126","0.0","0.0","0.000388349514563","0.0","0.0","0.0","0.0","0.0","0.0","0.0","0.0","0.00388349514563","0.0","0.000388349514563","0.0","0.0","0.0","0.0","0.0","0.0","0.0","0.0","0.0","0.0","0.0","0.0","0.000388349514563","0.0","0.0","0.0","0.0","0.0","0.0","0.0","0.0","0.0","0.0","0.0","0.0","0.0","0.0","0.0","0.0","0.0","0.0","0.0","0.0","0.0","0.0","0.000388349514563","0.0","0.0","0.0","0.0","0.0","0.0","0.0","0.0","0.0","0.0","0.0","0.0","0.0","0.0","0.000388349514563","0.0","0.0","0.0","0.0","0.0","0.0","0.0","0.0","0.000388349514563","0.0","0.0","0.0","0.000388349514563","0.0","0.0","0.0","0.0","0.0","0.0","0.00116504854369","0.0","0.0","0.0","0.0","0.0","0.0","0.0","0.0","0.0","0.0","0.0","0.0","0.0","0.0","0.0","0.0","0.0","0.0","0.0","0.0","0.0","0.0","0.0","0.0","-"
"2016-09-27","Intel","0.000358422939068","0.0","0.0","0.0","0.0","0.0","0.0","0.0","0.000358422939068","0.0","0.0","0.000716845878136","0.0","0.000358422939068","0.0","0.0","0.0010752688172","0.0","0.0","0.0","0.0","0.0","0.0","0.0010752688172","0.0","0.0","0.000358422939068","0.0","0.0","0.0","0.0","0.0","0.0","0.000716845878136","0.0","0.0","0.0","0.0150537634409","0.0","0.0","0.0","0.0","0.0","0.0","0.000358422939068","0.0","0.0","0.00143369175627","0.0","0.0","0.000358422939068","0.000358422939068","0.0","0.000716845878136","0.0","0.0010752688172","0.0","0.000716845878136","0.0","0.0","0.0","0.00179211469534","0.0010752688172","0.0","0.0","0.000716845878136","0.0","0.0","0.0","0.0","0.000358422939068","0.0","0.0","0.0","0.000358422939068","0.0","0.0","0.0","0.0","0.00143369175627","0.000358422939068","0.0","0.0","0.000358422939068","0.0","0.0","0.000358422939068","0.0","0.0","0.0","0.0","0.0","0.000358422939068","0.0","0.0","0.0","0.0","0.0","0.000358422939068","0.0","0.0","0.0","0.0","0.0","0.0","0.0","0.0","0.0","0.0","0.0","0.0","0.0","0.0","0.0","0.0","0.0","0.0","0.0","0.0","0.0","0.0","0.0","0.0","0.000716845878136","0.0","0.0","0.0","0.0","0.0","0.0","0.0","0.000358422939068","0.0","0.0","0.0","0.0","0.0","0.0","0.0","0.0","0.0","0.0","0.0","0.0","0.0","0.0","0.0","0.0","0.000358422939068","0.0","0.0","0.0","0.0010752688172","0.0","0.0","0.0","0.0","0.0","0.0","0.0","0.000716845878136","0.0","0.0","0.0","0.0","0.000358422939068","0.0","0.0","0.0","0.000358422939068","0.0","0.0","0.0","0.0","0.0","0.0","0.000358422939068","+"
"2016-09-30","Intel","0.0","0.0","0.0","0.0","0.0","0.0","0.0","0.0","0.000400160064026","0.0","0.0","0.0","0.0","0.0","0.0","0.000400160064026","0.0016006402561","0.0","0.0","0.000400160064026","0.0","0.0","0.000400160064026","0.000400160064026","0.0","0.0","0.0","0.0","0.0","0.0","0.0","0.0","0.00120048019208","0.000800320128051","0.0","0.0","0.0","0.0120048019208","0.0","0.0","0.0","0.0","0.0","0.0","0.0","0.0","0.0","0.00200080032013","0.0","0.0","0.000400160064026","0.0","0.0","0.0","0.0","0.000400160064026","0.0","0.0","0.0","0.0","0.0","0.00200080032013","0.000400160064026","0.0","0.0","0.000800320128051","0.0","0.0","0.0","0.0","0.0","0.0","0.0","0.0","0.000400160064026","0.0","0.0","0.0","0.000800320128051","0.00280112044818","0.000400160064026","0.0","0.0","0.0","0.0","0.0","0.0","0.0","0.0","0.0","0.0","0.0","0.0","0.0","0.0","0.0","0.0","0.0","0.0","0.0","0.0","0.0","0.0","0.0","0.0","0.0","0.0","0.0","0.0","0.0","0.0","0.0","0.0","0.0","0.0","0.0","0.0","0.0","0.0","0.0","0.0","0.0","0.0","0.000400160064026","0.0","0.0","0.0","0.0","0.0","0.0","0.0","0.000400160064026","0.000400160064026","0.0","0.0","0.0","0.0","0.0","0.0","0.0","0.0","0.000400160064026","0.0","0.0","0.0","0.000400160064026","0.0","0.0","0.0","0.0","0.0","0.0","0.000400160064026","0.0","0.0","0.0","0.0","0.0","0.0","0.0","0.0","0.0","0.0","0.0","0.0","0.0","0.000400160064026","0.0","0.0","0.0","0.0","0.000400160064026","0.0","0.0","0.000400160064026","0.0","0.0","-"
"2016-10-01","Intel","0.0","0.0","0.0","0.0","0.0","0.0","0.0","0.0","0.0","0.0","0.0","0.0","0.000394632991318","0.0","0.0","0.0","0.0","0.0","0.0","0.000394632991318","0.0","0.0","0.00315706393054","0.000394632991318","0.000394632991318","0.0","0.0","0.0","0.0","0.0","0.0","0.0","0.000394632991318","0.000789265982636","0.0","0.0","0.0","0.0142067876875","0.0","0.0","0.0","0.0","0.0","0.0","0.0","0.0","0.0","0.000789265982636","0.0","0.0","0.0","0.0","0.0","0.000789265982636","0.0","0.000394632991318","0.0","0.0","0.0","0.0","0.0","0.000394632991318","0.0","0.0","0.0","0.0","0.000394632991318","0.000394632991318","0.0","0.000394632991318","0.0","0.0","0.0","0.000394632991318","0.000394632991318","0.0","0.0","0.0","0.0","0.00394632991318","0.0","0.0","0.0","0.0","0.000789265982636","0.0","0.0","0.0","0.0","0.0","0.0","0.0","0.0","0.0","0.000789265982636","0.0","0.000394632991318","0.000789265982636","0.0","0.000394632991318","0.0","0.0","0.0","0.000394632991318","0.0","0.0","0.0","0.0","0.0","0.0","0.0","0.0","0.0","0.0","0.0","0.0","0.0","0.0","0.0","0.0","0.0","0.000394632991318","0.0","0.0","0.0","0.000394632991318","0.0","0.0","0.0","0.0","0.0","0.000394632991318","0.0","0.000394632991318","0.0","0.0","0.0","0.0","0.0","0.0","0.0","0.0","0.0","0.0","0.0","0.0","0.0","0.000394632991318","0.0","0.0","0.0","0.0","0.000394632991318","0.0","0.0","0.0","0.0","0.0","0.0","0.0","0.0","0.0","0.0","0.0","0.0","0.0","0.0","0.0","0.0","0.0","0.0","0.0","0.0","0.0","0.0","0.000394632991318","0.0","-"
"2016-10-02","Intel","0.0","0.0","0.0","0.0","0.0","0.000386548125242","0.0","0.0","0.0","0.0","0.0","0.0","0.000386548125242","0.0","0.0","0.000386548125242","0.00193274062621","0.0","0.0","0.0","0.0","0.0","0.000773096250483","0.0","0.000386548125242","0.0","0.0","0.0","0.0","0.0","0.0","0.0","0.0","0.00115964437572","0.0","0.0","0.0","0.0181677618864","0.0","0.0","0.0","0.0","0.0","0.0","0.0","0.0","0.0","0.000386548125242","0.0","0.0","0.0","0.0","0.0","0.000773096250483","0.0","0.0","0.0","0.0","0.0","0.0","0.0","0.000386548125242","0.000773096250483","0.0","0.0","0.000386548125242","0.0","0.0","0.000386548125242","0.0","0.0","0.0","0.0","0.0","0.000773096250483","0.0","0.0","0.0","0.0","0.00270583687669","0.0","0.0","0.0","0.0","0.000386548125242","0.0","0.000773096250483","0.0","0.000386548125242","0.0","0.0","0.0","0.0","0.0","0.0","0.0","0.0","0.0","0.000773096250483","0.0","0.0","0.0","0.0","0.0","0.0","0.0","0.0","0.0","0.0","0.0","0.0","0.0","0.0","0.0","0.0","0.000773096250483","0.0","0.0","0.0","0.0","0.0","0.0","0.0","0.0","0.0","0.0","0.0","0.0","0.0","0.0","0.0","0.0","0.0","0.0","0.0","0.0","0.0","0.0","0.0","0.000386548125242","0.0","0.000773096250483","0.0","0.0","0.0","0.0","0.0","0.0","0.0","0.0","0.0","0.000386548125242","0.00115964437572","0.0","0.0","0.0","0.0","0.0","0.0","0.0","0.0","0.0","0.0","0.0","0.0","0.0","0.0","0.0","0.0","0.000386548125242","0.0","0.0","0.0","0.0","0.0","0.0","0.000386548125242","+"
"2016-10-03","Intel","0.0","0.0","0.0","0.0","0.0","0.0","0.0","0.0","0.0","0.0","0.0","0.000757002271007","0.000757002271007","0.0","0.0","0.0","0.00378501135503","0.0","0.0","0.000378501135503","0.0","0.0","0.0","0.0","0.000378501135503","0.0","0.0","0.0","0.0","0.0","0.0","0.0","0.0","0.00113550340651","0.000378501135503","0.0","0.0","0.0113550340651","0.0","0.0","0.0","0.0","0.0","0.0","0.0","0.0","0.0","0.000378501135503","0.0","0.0","0.0","0.000378501135503","0.0","0.0","0.0","0.0","0.0","0.000757002271007","0.0","0.0","0.0","0.00151400454201","0.000378501135503","0.0","0.0","0.000378501135503","0.000378501135503","0.0","0.0","0.0","0.0","0.0","0.0","0.0","0.000378501135503","0.0","0.0","0.0","0.0","0.00227100681302","0.000757002271007","0.0","0.0","0.0","0.000378501135503","0.0","0.0","0.0","0.0","0.0","0.0","0.000378501135503","0.0","0.0","0.00113550340651","0.0","0.0","0.000757002271007","0.0","0.0","0.0","0.0","0.0","0.0","0.0","0.0","0.0","0.0","0.000757002271007","0.0","0.0","0.0","0.0","0.0","0.0","0.000378501135503","0.0","0.0","0.0","0.0","0.0","0.0","0.0","0.000378501135503","0.0","0.0","0.0","0.000378501135503","0.0","0.0","0.0","0.0","0.0","0.0","0.0","0.0","0.0","0.0","0.0","0.0","0.0","0.0","0.0","0.0","0.0","0.0","0.0","0.0","0.0","0.0","0.0","0.0","0.000378501135503","0.0","0.0","0.0","0.0","0.0","0.0","0.0","0.0","0.0","0.0","0.0","0.0","0.0","0.0","0.0","0.0","0.0","0.0","0.0","0.0","0.000378501135503","0.0","0.0","0.000378501135503","+"
"2016-10-04","Intel","0.0","0.0","0.0","0.0","0.0","0.000427167876976","0.0","0.0","0.0","0.0","0.0","0.0","0.000427167876976","0.0","0.0","0.0","0.00299017513883","0.000854335753951","0.0","0.000427167876976","0.0","0.0","0.00128150363093","0.0","0.000427167876976","0.0","0.0","0.0","0.0","0.0","0.0","0.0","0.0","0.000427167876976","0.0","0.0","0.0","0.0106791969244","0.0","0.0","0.0","0.0","0.0","0.0","0.0","0.000427167876976","0.0","0.0017086715079","0.0","0.0","0.0","0.0","0.0","0.0","0.0","0.0","0.0","0.0","0.0","0.0","0.0","0.0","0.0017086715079","0.0","0.0","0.00128150363093","0.0","0.0","0.000427167876976","0.0","0.0","0.0","0.0","0.0","0.0","0.0","0.0","0.0","0.000427167876976","0.00299017513883","0.0","0.0","0.0","0.0","0.0","0.0","0.0","0.0","0.0","0.0","0.0","0.0","0.0","0.0","0.000427167876976","0.0","0.0","0.0","0.0","0.0","0.0","0.0","0.0","0.0","0.0","0.0","0.000427167876976","0.0","0.0","0.0","0.0","0.0","0.000427167876976","0.0","0.0","0.000854335753951","0.0","0.0","0.0","0.0","0.0","0.0","0.0","0.000427167876976","0.0","0.0","0.0","0.0","0.0","0.0","0.0","0.0","0.0","0.0","0.0","0.0","0.0","0.0","0.0","0.0","0.0","0.000427167876976","0.0","0.0","0.0","0.000427167876976","0.0","0.0","0.0","0.0","0.0","0.0","0.000427167876976","0.0","0.0","0.0","0.0","0.0","0.0","0.0","0.0","0.0","0.0","0.0","0.0","0.0","0.0","0.0","0.0","0.0","0.0","0.0","0.0","0.0","0.0","0.0","0.00128150363093","+"
"2016-10-07","Intel","0.000750750750751","0.0","0.0","0.0","0.000375375375375","0.0","0.0","0.0","0.0","0.0","0.0","0.0","0.000375375375375","0.000375375375375","0.0","0.0","0.003003003003","0.0","0.0","0.0","0.0","0.0","0.000750750750751","0.000750750750751","0.0","0.0","0.0","0.0","0.0","0.000375375375375","0.0","0.0","0.0","0.000375375375375","0.0","0.0","0.0","0.0116366366366","0.0","0.0","0.0","0.0","0.0","0.0","0.0","0.0","0.0","0.000750750750751","0.0","0.0","0.0","0.0","0.000375375375375","0.0","0.0","0.000750750750751","0.0","0.0","0.0","0.0","0.0","0.000375375375375","0.000375375375375","0.0","0.0","0.000750750750751","0.0","0.0","0.0","0.000375375375375","0.0","0.0","0.0","0.000375375375375","0.0","0.0","0.0","0.0","0.0","0.0015015015015","0.000375375375375","0.000375375375375","0.0","0.0","0.0","0.0","0.0","0.0","0.0","0.0","0.000375375375375","0.0","0.0","0.0","0.000375375375375","0.0","0.0","0.0","0.0","0.0","0.0","0.0","0.0","0.0","0.0","0.0","0.000375375375375","0.0","0.0","0.0","0.0","0.0","0.0","0.0","0.0","0.0","0.0","0.0","0.0","0.0","0.0","0.0","0.0","0.0","0.0","0.0","0.0","0.000375375375375","0.0","0.0","0.0","0.0","0.0","0.0","0.0","0.0","0.0","0.0","0.0","0.0","0.0","0.000375375375375","0.0","0.0","0.0","0.0","0.0","0.0","0.0","0.0","0.0","0.0","0.000375375375375","0.0","0.0","0.0","0.0","0.0","0.0","0.0","0.0","0.0","0.0","0.0","0.000375375375375","0.0","0.000750750750751","0.0","0.0","0.0","0.0","0.0","0.0","0.0","0.0","0.0","0.0","-"
"2016-10-08","Intel","0.0","0.0","0.0","0.0","0.0","0.0","0.0","0.0","0.0","0.0","0.0","0.0","0.0","0.0","0.0","0.000318369945877","0.00191021967526","0.0","0.0","0.000318369945877","0.0","0.0","0.0","0.0","0.0","0.0","0.0","0.0","0.0","0.0","0.0","0.0","0.000318369945877","0.000636739891754","0.0","0.0","0.0","0.015600127348","0.0","0.0","0.0","0.0","0.0","0.0","0.000318369945877","0.000318369945877","0.0","0.000636739891754","0.0","0.0","0.0","0.0","0.000318369945877","0.0","0.0","0.0","0.0","0.0","0.0","0.0","0.0","0.000636739891754","0.000955109837631","0.000318369945877","0.0","0.000636739891754","0.0","0.0","0.0","0.000318369945877","0.0","0.0","0.000318369945877","0.0","0.0","0.0","0.0","0.000318369945877","0.0","0.00127347978351","0.0","0.0","0.0","0.0","0.0","0.0","0.000636739891754","0.0","0.0","0.0","0.0","0.0","0.0","0.0","0.00127347978351","0.0","0.0","0.0","0.0","0.0","0.0","0.0","0.0","0.000318369945877","0.0","0.0","0.0","0.0","0.0","0.0","0.0","0.0","0.0","0.0","0.0","0.000318369945877","0.0","0.0","0.0","0.0","0.0","0.0","0.0","0.000318369945877","0.0","0.0","0.0","0.0","0.0","0.0","0.0","0.0","0.0","0.000318369945877","0.000318369945877","0.0","0.000318369945877","0.0","0.0","0.000318369945877","0.0","0.0","0.0","0.0","0.0","0.0","0.0","0.0","0.0","0.0","0.0","0.000318369945877","0.000636739891754","0.0","0.0","0.0","0.0","0.0","0.0","0.0","0.0","0.0","0.0","0.0","0.0","0.0","0.000636739891754","0.000318369945877","0.0","0.000318369945877","0.0","0.0","0.0","0.0","0.0","0.0","0.000318369945877","-"
"2016-10-09","Intel","0.0","0.0","0.0","0.0","0.0","0.0","0.0","0.0","0.0","0.0","0.0","0.000986517592897","0.0","0.0","0.0","0.000657678395265","0.00164419598816","0.0","0.0","0.000657678395265","0.0","0.0","0.000657678395265","0.0","0.000328839197632","0.0","0.0","0.0","0.0","0.0","0.0","0.0","0.0","0.000328839197632","0.0","0.0","0.0","0.0141400854982","0.0","0.0","0.0","0.0","0.0","0.0","0.0","0.0","0.0","0.00164419598816","0.0","0.0","0.0","0.0","0.0","0.0","0.0","0.0","0.0","0.000986517592897","0.0","0.000328839197632","0.0","0.000657678395265","0.000328839197632","0.0","0.0","0.000657678395265","0.0","0.0","0.0","0.000328839197632","0.000328839197632","0.0","0.000328839197632","0.0","0.0","0.0","0.0","0.000328839197632","0.0","0.000657678395265","0.000657678395265","0.000328839197632","0.0","0.0","0.0","0.0","0.0","0.000328839197632","0.0","0.0","0.0","0.0","0.0","0.0","0.0","0.0","0.000986517592897","0.0","0.0","0.0","0.0","0.000328839197632","0.0","0.0","0.0","0.0","0.0","0.0","0.0","0.000328839197632","0.0","0.0","0.0","0.0","0.0","0.0","0.0","0.0","0.0","0.0","0.0","0.000328839197632","0.0","0.000328839197632","0.0","0.0","0.0","0.0","0.0","0.0","0.0","0.0","0.000328839197632","0.0","0.0","0.0","0.0","0.0","0.000328839197632","0.0","0.000328839197632","0.0","0.0","0.0","0.0","0.0","0.0","0.0","0.0","0.0","0.0","0.0","0.0","0.0","0.0","0.0","0.0","0.0","0.0","0.0","0.0","0.0","0.0","0.000328839197632","0.0","0.0","0.000986517592897","0.0","0.0","0.0","0.0","0.000328839197632","0.0","0.0","0.000328839197632","0.0","0.000328839197632","-"
"2016-10-10","Intel","0.0","0.0","0.0","0.0","0.0","0.0","0.0","0.0","0.00146466495789","0.0","0.0","0.000366166239473","0.0","0.000366166239473","0.0","0.000366166239473","0.00256316367631","0.0","0.0","0.00109849871842","0.0","0.0","0.0","0.000732332478945","0.0","0.0","0.0","0.0","0.0","0.0","0.0","0.0","0.000366166239473","0.000732332478945","0.0","0.0","0.0","0.0117173196631","0.000366166239473","0.0","0.0","0.0","0.0","0.0","0.0","0.000366166239473","0.000366166239473","0.00183083119736","0.0","0.0","0.00146466495789","0.000366166239473","0.0","0.0","0.0","0.000732332478945","0.0","0.000366166239473","0.000366166239473","0.0","0.0","0.00146466495789","0.000366166239473","0.000366166239473","0.0","0.000732332478945","0.0","0.0","0.0","0.0","0.000366166239473","0.0","0.0","0.0","0.0","0.0","0.0","0.0","0.0","0.00256316367631","0.000366166239473","0.0","0.0","0.0","0.0","0.0","0.0","0.0","0.000366166239473","0.0","0.0","0.0","0.0","0.0","0.000366166239473","0.0","0.0","0.000366166239473","0.0","0.0","0.0","0.0","0.0","0.000366166239473","0.0","0.0","0.0","0.0","0.0","0.000366166239473","0.00146466495789","0.0","0.0","0.000366166239473","0.0","0.0","0.0","0.000366166239473","0.000366166239473","0.0","0.0","0.0","0.0","0.00146466495789","0.0","0.0","0.0","0.0","0.0","0.0","0.0","0.0","0.0","0.000366166239473","0.0","0.0","0.0","0.0","0.0","0.0","0.0","0.000732332478945","0.0","0.000366166239473","0.0","0.000366166239473","0.0","0.0","0.0","0.0","0.0","0.0","0.000732332478945","0.0","0.0","0.0","0.0","0.0","0.0","0.0","0.0","0.0","0.0","0.0","0.0","0.000366166239473","0.0","0.0","0.0","0.0","0.0","0.0","0.000366166239473","0.0","0.000732332478945","0.0","0.0","+"
"2016-10-11","Intel","0.000353232073472","0.0","0.0","0.0","0.0","0.0","0.0","0.0","0.0","0.0","0.0","0.00105969622042","0.000706464146945","0.000353232073472","0.0","0.000353232073472","0.00141292829389","0.0","0.0","0.000353232073472","0.0","0.0","0.000353232073472","0.0","0.0","0.0","0.0","0.0","0.0","0.0","0.0","0.000353232073472","0.0","0.000353232073472","0.0","0.0","0.0","0.00883080183681","0.0","0.0","0.0","0.0","0.0","0.0","0.0","0.0","0.0","0.000706464146945","0.0","0.000353232073472","0.0","0.000353232073472","0.0","0.0","0.0","0.0","0.0","0.00105969622042","0.0","0.0","0.0","0.00105969622042","0.000706464146945","0.0","0.0","0.00141292829389","0.0","0.0","0.000353232073472","0.0","0.0","0.0","0.0","0.000353232073472","0.0","0.0","0.0","0.0","0.0","0.00282585658778","0.000353232073472","0.0","0.0","0.000353232073472","0.0","0.0","0.0","0.0","0.000353232073472","0.0","0.0","0.000353232073472","0.0","0.0","0.00105969622042","0.0","0.0","0.0","0.0","0.0","0.0","0.000353232073472","0.0","0.0","0.0","0.0","0.0","0.0","0.0","0.0","0.000706464146945","0.0","0.0","0.0","0.0","0.0","0.0","0.0","0.0","0.0","0.0","0.0","0.0","0.0","0.0","0.0","0.0","0.0","0.0","0.0","0.0","0.0","0.0","0.0","0.0","0.0","0.0","0.0","0.0","0.0","0.0","0.0","0.0","0.0","0.0","0.0","0.0","0.0","0.0","0.0","0.0","0.0","0.000706464146945","0.000353232073472","0.0","0.0","0.0","0.000353232073472","0.0","0.0","0.000353232073472","0.0","0.0","0.0","0.0","0.000353232073472","0.0","0.0","0.000353232073472","0.0","0.0","0.0","0.0","0.0","0.0","0.0","0.000353232073472","+"
"2016-10-14","Intel","0.0","0.0","0.0","0.0","0.0","0.0","0.0","0.000354609929078","0.000354609929078","0.0","0.0","0.000709219858156","0.00106382978723","0.000709219858156","0.0","0.0","0.0031914893617","0.0","0.0","0.0","0.000354609929078","0.0","0.0","0.0","0.0","0.0","0.0","0.0","0.0","0.0","0.00567375886525","0.0","0.0","0.000354609929078","0.0","0.0","0.0","0.0166666666667","0.0","0.0","0.0","0.0","0.0","0.000354609929078","0.0","0.0","0.0","0.000354609929078","0.0","0.000354609929078","0.000354609929078","0.000354609929078","0.0","0.000354609929078","0.0","0.0","0.0","0.000709219858156","0.0","0.000354609929078","0.0","0.000709219858156","0.000354609929078","0.0","0.0","0.00141843971631","0.0","0.000354609929078","0.0","0.0","0.0","0.0","0.000354609929078","0.0","0.0","0.0","0.000354609929078","0.0","0.0","0.00177304964539","0.0","0.0","0.0","0.0","0.000354609929078","0.0","0.0","0.0","0.0","0.0","0.0","0.0","0.0","0.0","0.00106382978723","0.0","0.0","0.000354609929078","0.0","0.0","0.0","0.0","0.0","0.0","0.0","0.0","0.0","0.0","0.0","0.000354609929078","0.0","0.0","0.0","0.0","0.0","0.0","0.0","0.0","0.0","0.0","0.000354609929078","0.0","0.0","0.000354609929078","0.0","0.000354609929078","0.0","0.0","0.0","0.0","0.0","0.0","0.0","0.0","0.0","0.0","0.0","0.0","0.0","0.0","0.0","0.000709219858156","0.0","0.0","0.0","0.0","0.0","0.0","0.0","0.0","0.0","0.0","0.000354609929078","0.0","0.0","0.000354609929078","0.0","0.0","0.0","0.0","0.0","0.0","0.0","0.000354609929078","0.0","0.0","0.0","0.00141843971631","0.0","0.0","0.0","0.0","0.0","0.0","0.0","0.0","0.0","-"
"2016-10-15","Intel","0.0","0.0","0.0","0.0","0.0","0.0","0.0","0.0","0.0","0.0","0.0","0.0","0.000329489291598","0.000329489291598","0.0","0.000329489291598","0.00362438220758","0.0","0.0","0.0","0.0","0.0","0.0","0.000329489291598","0.000329489291598","0.0","0.0","0.0","0.0","0.0","0.000329489291598","0.0","0.0","0.000329489291598","0.000329489291598","0.0","0.0","0.0174629324547","0.0","0.0","0.0","0.0","0.0","0.000658978583196","0.0","0.0","0.0","0.000658978583196","0.0","0.0","0.0","0.000329489291598","0.0","0.0","0.0","0.000329489291598","0.0","0.0","0.0","0.0","0.0","0.000329489291598","0.00164744645799","0.0","0.000329489291598","0.000329489291598","0.000329489291598","0.0","0.0","0.0","0.0","0.0","0.0","0.0","0.000658978583196","0.0","0.0","0.0","0.000329489291598","0.000988467874794","0.0","0.0","0.0","0.0","0.000329489291598","0.0","0.000658978583196","0.0","0.0","0.0","0.000658978583196","0.0","0.0","0.0","0.000329489291598","0.0","0.0","0.0","0.0","0.000988467874794","0.0","0.0","0.0","0.0","0.000329489291598","0.0","0.0","0.0","0.0","0.000658978583196","0.0","0.0","0.0","0.000329489291598","0.0","0.0","0.0","0.0","0.0","0.0","0.0","0.0","0.0","0.00263591433278","0.0","0.0","0.0","0.0","0.0","0.0","0.0","0.000658978583196","0.000658978583196","0.0","0.0","0.0","0.0","0.0","0.0","0.0","0.0","0.000329489291598","0.0","0.000329489291598","0.0","0.0","0.0","0.0","0.0","0.0","0.0","0.0","0.000329489291598","0.0","0.0","0.000329489291598","0.0","0.000329489291598","0.0","0.0","0.0","0.000329489291598","0.0","0.0","0.0","0.0","0.0","0.000988467874794","0.0","0.0","0.0","0.0","0.0","0.0","0.0","0.0","0.000329489291598","-"
"2016-10-16","Intel","0.000807102502018","0.0","0.0","0.0","0.0","0.0","0.0","0.0","0.0","0.000403551251009","0.0","0.000403551251009","0.000403551251009","0.000403551251009","0.0","0.000403551251009","0.000807102502018","0.0","0.0","0.0","0.000403551251009","0.0","0.000403551251009","0.0","0.0","0.0","0.0","0.0","0.0","0.0","0.000403551251009","0.0","0.0","0.000403551251009","0.0","0.0","0.0","0.0181598062954","0.0","0.0","0.0","0.0","0.0","0.0","0.0","0.0","0.000403551251009","0.000403551251009","0.0","0.0","0.0","0.0","0.0","0.0","0.0","0.0","0.0","0.000403551251009","0.0","0.0","0.0","0.00201775625504","0.0","0.000403551251009","0.0","0.000807102502018","0.0","0.0","0.0","0.0","0.0","0.0","0.000403551251009","0.0","0.0","0.0","0.0","0.0","0.0","0.000807102502018","0.00322841000807","0.0","0.0","0.000403551251009","0.0","0.0","0.0","0.0","0.00121065375303","0.0","0.0","0.0","0.0","0.0","0.0","0.0","0.0","0.000403551251009","0.0","0.0","0.0","0.0","0.0","0.0","0.000403551251009","0.0","0.0","0.0","0.0","0.0","0.0","0.0","0.0","0.0","0.0","0.0","0.0","0.0","0.000403551251009","0.0","0.0","0.0","0.0","0.000403551251009","0.0","0.0","0.0","0.0","0.0","0.0","0.000403551251009","0.0","0.0","0.0","0.0","0.0","0.0","0.0","0.0","0.0","0.0","0.000403551251009","0.000403551251009","0.0","0.0","0.000403551251009","0.0","0.0","0.0","0.0","0.0","0.000403551251009","0.000807102502018","0.0","0.0","0.0","0.0","0.0","0.0","0.0","0.0","0.0","0.0","0.0","0.0","0.0","0.000403551251009","0.000403551251009","0.0","0.0","0.0","0.000403551251009","0.0","0.0","0.0","0.0","0.000403551251009","-"
"2016-10-17","Intel","0.000367376928729","0.0","0.0","0.0","0.000367376928729","0.0","0.0","0.0","0.000367376928729","0.0","0.0","0.00110213078619","0.00330639235856","0.0","0.0","0.0","0.00146950771492","0.000367376928729","0.0","0.0","0.0","0.0","0.00110213078619","0.000367376928729","0.000734753857458","0.0","0.0","0.0","0.0","0.0","0.000734753857458","0.0","0.000734753857458","0.000734753857458","0.0","0.0","0.0","0.00367376928729","0.0","0.0","0.0","0.0","0.0","0.0","0.0","0.000367376928729","0.0","0.000734753857458","0.0","0.000367376928729","0.000367376928729","0.0","0.0","0.0","0.0","0.000367376928729","0.0","0.00110213078619","0.0","0.0","0.0","0.0","0.000734753857458","0.0","0.0","0.00146950771492","0.000367376928729","0.0","0.0","0.0","0.0","0.000367376928729","0.0","0.0","0.0","0.0","0.0","0.0","0.0","0.00220426157237","0.000734753857458","0.0","0.0","0.0","0.000367376928729","0.0","0.0","0.000367376928729","0.0","0.0","0.000734753857458","0.0","0.0","0.0","0.000367376928729","0.0","0.0","0.0","0.0","0.000367376928729","0.0","0.0","0.0","0.0","0.0","0.0","0.0","0.0","0.0","0.0","0.000367376928729","0.0","0.0","0.0","0.0","0.0","0.0","0.0","0.0","0.0","0.0","0.0","0.0","0.0","0.0","0.0","0.0","0.0","0.0","0.0","0.0","0.0","0.0","0.0","0.0","0.0","0.0","0.0","0.0","0.0","0.0","0.0","0.000367376928729","0.0","0.0","0.000367376928729","0.0","0.0","0.0","0.0","0.0","0.000367376928729","0.0","0.0","0.0","0.0","0.0","0.0","0.0","0.000367376928729","0.0","0.0","0.0","0.0","0.0","0.0","0.0","0.0","0.000367376928729","0.0","0.0","0.0","0.000367376928729","0.0","0.0","0.0","0.0","+"
"2016-10-18","Intel","0.0","0.0","0.0","0.0","0.000322788896062","0.0","0.0","0.0","0.0","0.0","0.0","0.0025823111685","0.00161394448031","0.0","0.0","0.0","0.0122659780504","0.0","0.0","0.0","0.0","0.0","0.000968366688186","0.0","0.0","0.0","0.0","0.0","0.0","0.0","0.0","0.0","0.0","0.000645577792124","0.0","0.0","0.0","0.00129115558425","0.0","0.0","0.0","0.0","0.0","0.0","0.0","0.0","0.0","0.000645577792124","0.0","0.0","0.0","0.00548741123305","0.000322788896062","0.0","0.0","0.0","0.0","0.0025823111685","0.0","0.0","0.0","0.000322788896062","0.0","0.000322788896062","0.0","0.000645577792124","0.000322788896062","0.000322788896062","0.0","0.0","0.000968366688186","0.0","0.0","0.000322788896062","0.0","0.0","0.0","0.0","0.0","0.00193673337637","0.000645577792124","0.000322788896062","0.0","0.0","0.00129115558425","0.0","0.0","0.0","0.000322788896062","0.0","0.000645577792124","0.000322788896062","0.0","0.0","0.000322788896062","0.0","0.0","0.000645577792124","0.0","0.0","0.0","0.0","0.0","0.0","0.0","0.0","0.0","0.0","0.0","0.000322788896062","0.0","0.0","0.0","0.0","0.0","0.0","0.0","0.0","0.0","0.000322788896062","0.0","0.0","0.0","0.0","0.0","0.0","0.0","0.0","0.0","0.0","0.0","0.000645577792124","0.0","0.0","0.0","0.0","0.000322788896062","0.0","0.0","0.0","0.0","0.0","0.0","0.0","0.0","0.0","0.0","0.0","0.0","0.0","0.0","0.000322788896062","0.000968366688186","0.000322788896062","0.0","0.0","0.0","0.0","0.0","0.0","0.000322788896062","0.0","0.0","0.0","0.0","0.0","0.000322788896062","0.0","0.0","0.0","0.0","0.0","0.0","0.0","0.0","0.000322788896062","0.0","-"
"2016-10-21","Intel","0.0","0.0","0.0","0.0","0.0","0.0","0.0","0.0","0.0","0.0","0.0","0.000473260766682","0.0","0.0","0.0","0.0","0.00283956460009","0.0","0.0","0.0","0.0","0.0","0.000473260766682","0.000473260766682","0.000473260766682","0.0","0.0","0.0","0.0","0.0","0.0","0.0","0.0","0.000473260766682","0.0","0.0","0.0","0.00236630383341","0.0","0.0","0.000473260766682","0.0","0.0","0.0","0.0","0.0","0.0","0.000473260766682","0.0","0.0","0.0","0.0","0.0","0.0","0.0","0.000473260766682","0.0","0.000473260766682","0.000473260766682","0.0","0.0","0.000473260766682","0.0","0.0","0.0","0.00141978230005","0.0","0.0","0.0","0.0","0.0","0.0","0.0","0.000473260766682","0.000946521533365","0.0","0.0","0.0","0.0","0.00283956460009","0.000473260766682","0.0","0.0","0.0","0.000473260766682","0.0","0.0","0.0","0.000946521533365","0.0","0.0","0.0","0.000473260766682","0.0","0.000473260766682","0.0","0.0","0.00141978230005","0.0","0.0","0.0","0.0","0.0","0.0","0.0","0.0","0.000473260766682","0.0","0.0","0.0","0.0","0.0","0.0","0.000473260766682","0.0","0.0","0.000473260766682","0.0","0.0","0.0","0.0","0.0","0.0","0.000473260766682","0.0","0.0","0.0","0.00189304306673","0.0","0.0","0.0","0.000473260766682","0.0","0.0","0.0","0.0","0.00189304306673","0.0","0.0","0.0","0.0","0.0","0.0","0.0","0.0","0.0","0.0","0.0","0.0","0.0","0.0","0.0","0.0","0.0","0.0","0.0","0.0","0.0","0.0","0.0","0.0","0.0","0.0","0.0","0.0","0.0","0.0","0.0","0.0","0.0","0.0","0.0","0.0","0.0","0.0","0.0","0.0","-"
"2016-10-22","Intel","0.0","0.0","0.0","0.0","0.0","0.0","0.0","0.0","0.000426985482494","0.0","0.0","0.0","0.0","0.0","0.0","0.0","0.00170794192997","0.0","0.0","0.0","0.000426985482494","0.0","0.00170794192997","0.000426985482494","0.0","0.0","0.0","0.0","0.0","0.0","0.0","0.0","0.0","0.000426985482494","0.0","0.0","0.0","0.00256191289496","0.0","0.0","0.0","0.0","0.000426985482494","0.0","0.0","0.000426985482494","0.0","0.000853970964987","0.0","0.0","0.000426985482494","0.000853970964987","0.0","0.0","0.000426985482494","0.000426985482494","0.0","0.0","0.0","0.0","0.0","0.000853970964987","0.00128095644748","0.0","0.000426985482494","0.0","0.0","0.0","0.0","0.0","0.0","0.0","0.0","0.0","0.000426985482494","0.0","0.0","0.0","0.0","0.000853970964987","0.0","0.0","0.0","0.000426985482494","0.0","0.0","0.0","0.0","0.000853970964987","0.0","0.0","0.0","0.0","0.000426985482494","0.000853970964987","0.000426985482494","0.0","0.000853970964987","0.000426985482494","0.0","0.0","0.0","0.0","0.0","0.0","0.0","0.000426985482494","0.0","0.0","0.0","0.000426985482494","0.0","0.0","0.0","0.0","0.0","0.000426985482494","0.0","0.0","0.0","0.0","0.0","0.0","0.0","0.0","0.0","0.0","0.00128095644748","0.0","0.0","0.0","0.000426985482494","0.0","0.0","0.0","0.0","0.0","0.0","0.0","0.0","0.0","0.00128095644748","0.0","0.0","0.0","0.00128095644748","0.0","0.0","0.0","0.0","0.0","0.0","0.000853970964987","0.0","0.0","0.0","0.0","0.0","0.0","0.0","0.0","0.0","0.0","0.0","0.0","0.0","0.0","0.000426985482494","0.0","0.0","0.0","0.0","0.0","0.0","0.000426985482494","0.0","0.000426985482494","-"
"2016-10-23","Intel","0.000424628450106","0.0","0.0","0.0","0.0","0.0","0.0","0.0","0.0","0.0","0.0","0.0","0.0","0.0","0.0","0.000849256900212","0.00382165605096","0.0","0.0","0.0","0.0","0.0","0.000424628450106","0.0","0.0","0.0","0.0","0.0","0.0","0.0","0.0","0.0","0.0","0.000849256900212","0.0","0.0","0.0","0.00509554140127","0.0","0.0","0.000424628450106","0.0","0.0","0.0","0.0","0.0","0.0","0.00254777070064","0.0","0.0","0.0","0.0","0.0","0.0","0.0","0.0","0.0","0.0","0.0","0.0","0.000424628450106","0.0","0.000424628450106","0.0","0.0","0.000849256900212","0.0","0.000424628450106","0.0","0.0","0.0","0.0","0.0","0.0","0.000424628450106","0.0","0.0","0.0","0.0","0.00169851380042","0.0","0.0","0.0","0.0","0.000424628450106","0.0","0.0","0.0","0.0","0.0","0.0","0.0","0.0","0.0","0.000849256900212","0.0","0.000849256900212","0.0","0.0","0.000849256900212","0.0","0.0","0.0","0.0","0.00169851380042","0.0","0.0","0.0","0.000424628450106","0.0","0.0","0.0","0.0","0.0","0.0","0.000849256900212","0.0","0.0","0.0","0.0","0.0","0.0","0.0","0.0","0.0","0.0","0.0","0.00169851380042","0.0","0.0","0.0","0.0","0.0","0.0","0.0","0.0","0.000424628450106","0.0","0.0","0.0","0.0","0.000424628450106","0.0","0.0","0.0","0.0","0.0","0.0","0.0","0.0","0.000424628450106","0.0","0.0","0.0","0.0","0.000424628450106","0.0","0.0","0.0","0.0","0.0","0.0","0.0","0.000424628450106","0.0","0.0","0.0","0.0","0.0","0.0","0.0","0.0","0.0","0.0","0.0","0.000424628450106","0.0","-"
"2016-10-24","Intel","0.0","0.0","0.0","0.0","0.0","0.0","0.0","0.0","0.0","0.0","0.0","0.000429553264605","0.0","0.0","0.0","0.000429553264605","0.00171821305842","0.0","0.0","0.0","0.0","0.0","0.00128865979381","0.0","0.0","0.0","0.0","0.0","0.0","0.0","0.0","0.0","0.0","0.000429553264605","0.0","0.0","0.0","0.00214776632302","0.0","0.0","0.0","0.0","0.0","0.0","0.0","0.0","0.0","0.000429553264605","0.0","0.0","0.0","0.0","0.0","0.0","0.000429553264605","0.0","0.0","0.000429553264605","0.0","0.000429553264605","0.0","0.00128865979381","0.000429553264605","0.0","0.0","0.0","0.0","0.000429553264605","0.0","0.000429553264605","0.0","0.0","0.0","0.0","0.0","0.0","0.0","0.000429553264605","0.0","0.00085910652921","0.0","0.000429553264605","0.0","0.0","0.0","0.0","0.0","0.0","0.00085910652921","0.0","0.0","0.0","0.0","0.0","0.0","0.0","0.0","0.000429553264605","0.0","0.000429553264605","0.0","0.0","0.0","0.0","0.00085910652921","0.0","0.0","0.0","0.0","0.0","0.0","0.0","0.0","0.0","0.0","0.0","0.0","0.0","0.0","0.0","0.0","0.0","0.0","0.00085910652921","0.0","0.0","0.0","0.00085910652921","0.0","0.0","0.0","0.0","0.0","0.0","0.000429553264605","0.0","0.000429553264605","0.0","0.0","0.0","0.0","0.0","0.0","0.00085910652921","0.0","0.000429553264605","0.0","0.0","0.0","0.0","0.0","0.0","0.000429553264605","0.0","0.0","0.0","0.0","0.0","0.0","0.0","0.0","0.0","0.0","0.0","0.0","0.0","0.0","0.00085910652921","0.0","0.0","0.0","0.0","0.0","0.0","0.000429553264605","0.0","0.00085910652921","-"
"2016-10-25","Intel","0.00111482720178","0.0","0.0","0.0","0.0","0.0","0.0","0.0","0.000371609067261","0.0","0.0","0.000371609067261","0.00706057227796","0.0","0.0","0.0","0.000743218134522","0.0","0.0","0.0","0.0","0.0","0.0","0.0","0.000371609067261","0.0","0.0","0.0","0.0","0.0","0.0","0.0","0.0","0.000371609067261","0.0","0.0","0.0","0.00297287253809","0.0","0.0","0.0","0.0","0.0","0.0","0.0","0.0","0.0","0.000371609067261","0.0","0.0","0.000371609067261","0.0","0.0","0.0","0.0","0.0","0.0","0.000371609067261","0.0","0.0","0.000371609067261","0.00111482720178","0.000371609067261","0.0","0.0","0.00185804533631","0.0","0.0","0.0","0.0","0.0","0.0","0.0","0.000371609067261","0.0","0.0","0.0","0.0","0.0","0.00260126347083","0.0","0.000371609067261","0.0","0.0","0.0","0.0","0.000743218134522","0.0","0.0","0.0","0.0","0.0","0.0","0.0","0.000371609067261","0.0","0.000371609067261","0.000371609067261","0.0","0.0","0.0","0.0","0.0","0.000371609067261","0.0","0.000371609067261","0.000743218134522","0.0","0.0","0.0","0.000371609067261","0.0","0.0","0.0","0.0","0.0","0.0","0.0","0.0","0.0","0.0","0.0","0.0","0.000743218134522","0.0","0.0","0.0","0.000743218134522","0.0","0.0","0.0","0.0","0.000371609067261","0.000371609067261","0.0","0.0","0.000371609067261","0.0","0.0","0.0","0.0","0.0","0.0","0.0","0.0","0.000371609067261","0.0","0.0","0.0","0.0","0.0","0.0","0.000743218134522","0.0","0.0","0.0","0.0","0.0","0.0","0.0","0.0","0.0","0.0","0.0","0.0","0.0","0.0","0.0","0.0","0.0","0.0","0.0","0.0","0.0","0.000371609067261","0.0","0.0","-"
"2016-10-28","Intel","0.0","0.0","0.0","0.0","0.0","0.0","0.0","0.0","0.0","0.0","0.0","0.0","0.0","0.0","0.0","0.0","0.0","0.0","0.0","0.0","0.0","0.0","0.0","0.0","0.0","0.0","0.0","0.0","0.0","0.0","0.0","0.0","0.0","0.00934579439252","0.0","0.0","0.0","0.0","0.0","0.0","0.0","0.0","0.0","0.0","0.0","0.0","0.0","0.0","0.0","0.0","0.0","0.0","0.0","0.0","0.0","0.0","0.0","0.0","0.0","0.0","0.0","0.00934579439252","0.0","0.0","0.0","0.0","0.0","0.0","0.0","0.0","0.0","0.0","0.0","0.0","0.0","0.0","0.0","0.0","0.0","0.0","0.0","0.0","0.0","0.0","0.0","0.0","0.0","0.0","0.0","0.0","0.0","0.0","0.0","0.0","0.0","0.0","0.0","0.0","0.0","0.0","0.0","0.0","0.0","0.0","0.0","0.0","0.0","0.0","0.0","0.0","0.0","0.0","0.0","0.0","0.0","0.0","0.0","0.0","0.0","0.0","0.0","0.0","0.0","0.0","0.0","0.0","0.0","0.0","0.0","0.0","0.0","0.0","0.0","0.0","0.0","0.0","0.0","0.0","0.0","0.0","0.0","0.0","0.0","0.0","0.0","0.0","0.0","0.0","0.0","0.0","0.0","0.0","0.0","0.0","0.0","0.0","0.0","0.0","0.0","0.0","0.0","0.0","0.0","0.0","0.0","0.0","0.0","0.0","0.0","0.0","0.0","0.0","0.0","0.0","0.0","0.0","0.0","-"
"2016-10-29","Intel","0.0","0.0","0.0","0.0","0.0","0.0","0.0","0.0","0.0","0.0","0.0","0.0","0.0","0.0","0.0","0.0","0.0","0.0","0.0","0.0","0.0","0.0","0.0","0.0","0.0","0.0","0.0","0.0","0.0","0.0","0.0","0.0","0.0125","0.0125","0.0","0.0","0.0","0.0","0.0","0.0","0.0","0.0","0.0","0.0","0.0","0.0","0.0","0.0","0.0","0.0","0.0","0.0","0.0","0.0","0.0","0.0","0.0","0.0","0.0","0.0","0.0","0.0375","0.0","0.0","0.0","0.0","0.0","0.0","0.0","0.0","0.0","0.0","0.0","0.0","0.0","0.0","0.0","0.0","0.0","0.0","0.0","0.0","0.0","0.0","0.0","0.0","0.0","0.0","0.0","0.0","0.0","0.0","0.0","0.0","0.0","0.0","0.0","0.0","0.0","0.0","0.0","0.0","0.0","0.0","0.0","0.0","0.0","0.0","0.0","0.0","0.0","0.0","0.0","0.0","0.0","0.0","0.0","0.0","0.0","0.0","0.0","0.0","0.0","0.0","0.0","0.0","0.0","0.0","0.0","0.0","0.0","0.0","0.0","0.0","0.0","0.0","0.0","0.0","0.0","0.0","0.0","0.0","0.0","0.0","0.0","0.0","0.0","0.0","0.0","0.0","0.0","0.0","0.0","0.0","0.0","0.0","0.0","0.0","0.0","0.0","0.0","0.0","0.0","0.0","0.0","0.0","0.0","0.0","0.0","0.0","0.0","0.0","0.0","0.0","0.0","0.0","0.0","-"
"2016-10-30","Intel","0.0","0.0","0.0","0.0","0.0","0.0","0.0","0.0","0.0","0.0","0.0","0.0","0.0","0.0","0.0","0.0","0.0","0.0","0.0","0.0","0.0","0.0","0.0","0.0","0.0","0.0","0.0","0.0","0.0","0.0","0.0","0.0","0.0","0.0106382978723","0.0","0.0","0.0","0.0","0.0","0.0","0.0","0.0","0.0","0.0","0.0","0.0","0.0","0.0","0.0","0.0","0.0","0.0","0.0","0.0","0.0","0.0","0.0","0.0","0.0","0.0","0.0","0.0425531914894","0.0","0.0","0.0","0.0","0.0","0.0","0.0","0.0","0.0","0.0","0.0","0.0","0.0","0.0","0.0","0.0","0.0","0.0","0.0","0.0","0.0","0.0","0.0","0.0","0.0","0.0","0.0","0.0","0.0","0.0","0.0","0.0","0.0","0.0","0.0","0.0","0.0","0.0","0.0","0.0","0.0","0.0","0.0106382978723","0.0","0.0","0.0","0.0","0.0","0.0","0.0","0.0","0.0","0.0","0.0","0.0","0.0","0.0","0.0","0.0","0.0","0.0","0.0","0.0","0.0","0.0","0.0106382978723","0.0","0.0","0.0","0.0","0.0","0.0","0.0","0.0","0.0","0.0","0.0","0.0","0.0","0.0","0.0","0.0","0.0","0.0","0.0","0.0","0.0","0.0","0.0","0.0","0.0","0.0","0.0","0.0","0.0","0.0","0.0","0.0","0.0","0.0","0.0","0.0","0.0","0.0","0.0","0.0","0.0","0.0","0.0","0.0","0.0","0.0","0.0","0.0","0.0","="
"2016-10-31","Intel","0.0","0.0","0.0","0.0","0.0","0.0","0.0","0.0","0.0","0.0","0.0","0.0","0.0","0.0","0.0","0.0","0.0","0.0","0.0","0.0","0.0","0.0","0.0","0.0","0.0","0.0","0.0","0.0","0.0","0.0","0.0","0.0","0.0","0.00540540540541","0.0","0.0","0.0","0.00540540540541","0.0","0.0","0.0","0.0","0.0","0.0","0.0","0.0","0.0","0.0","0.0","0.0","0.0","0.0","0.0","0.0","0.0","0.0","0.0","0.0","0.0","0.0","0.0","0.00540540540541","0.0","0.0","0.0","0.0","0.0","0.0","0.0","0.0","0.0","0.0","0.0","0.0","0.0","0.0","0.0","0.0","0.0","0.0","0.0","0.0","0.0","0.0","0.0","0.0","0.0","0.0","0.0","0.0","0.0","0.0","0.0","0.0","0.00540540540541","0.0","0.0","0.0","0.0","0.0","0.0","0.0","0.0","0.0","0.0","0.0","0.0","0.0","0.0","0.0","0.0","0.0","0.0","0.0","0.0","0.0","0.0","0.0","0.0","0.0","0.0","0.0","0.0","0.0","0.0","0.0","0.0","0.0","0.0","0.0","0.0","0.0","0.0","0.0","0.0","0.0","0.0","0.0","0.0","0.0","0.0","0.0","0.0","0.0","0.0","0.0","0.0","0.0","0.0","0.0","0.0","0.0","0.0","0.0","0.0","0.0","0.0","0.0","0.0","0.0","0.0","0.0","0.0","0.0","0.0","0.0","0.0","0.0","0.0","0.0","0.0","0.0","0.0","0.0","0.0","0.0","0.0","-"
"2016-11-01","Intel","0.0","0.0","0.0","0.0","0.0","0.0","0.0","0.0","0.0","0.0","0.0","0.0","0.0","0.0","0.0","0.0","0.00892857142857","0.0","0.0","0.0","0.0","0.0","0.0","0.0","0.0","0.0","0.0","0.0","0.0","0.0","0.0","0.0","0.0","0.0","0.0","0.0","0.0","0.0","0.0","0.0","0.0","0.0","0.0","0.0","0.0","0.0","0.0","0.0","0.0","0.0","0.0","0.0","0.0","0.0","0.0","0.0","0.0","0.0","0.0","0.0","0.0","0.00892857142857","0.0","0.0","0.0","0.0","0.0","0.0","0.0","0.0","0.0","0.0","0.0","0.0","0.0","0.0","0.0","0.0","0.0","0.0","0.0","0.0","0.0","0.0","0.0","0.0","0.0","0.0","0.0","0.0","0.0","0.0","0.0","0.0","0.00892857142857","0.0","0.0","0.0","0.0","0.0","0.0","0.0","0.0","0.0","0.0","0.0","0.0","0.0","0.0","0.0","0.0","0.0","0.0","0.0","0.0","0.0","0.0","0.0","0.0","0.0","0.0","0.0","0.0","0.0","0.0","0.0","0.0","0.0","0.0","0.0","0.0","0.0","0.0","0.0","0.0","0.0","0.0","0.0","0.0","0.0","0.0","0.0","0.0","0.0","0.0","0.0","0.0","0.0","0.0","0.0","0.0","0.0","0.0","0.0","0.0","0.0","0.0","0.0","0.0","0.0","0.0","0.0","0.0","0.0","0.0","0.0","0.0","0.0","0.0","0.0","0.0","0.0","0.0","0.0","0.0","0.0","0.0","+"
"2016-11-04","Intel","0.0","0.0","0.0","0.0","0.0","0.0","0.0","0.0","0.0","0.0","0.0","0.0","0.0","0.0","0.0","0.0","0.0","0.0","0.0","0.0","0.0","0.0","0.0","0.0","0.0","0.0","0.0","0.0","0.0","0.0","0.0","0.0","0.0","0.0","0.0","0.0","0.0","0.0","0.0","0.0","0.0","0.0","0.0","0.0","0.0","0.0","0.0","0.0","0.0","0.0","0.0","0.0","0.0","0.0","0.0","0.0","0.0","0.0","0.0","0.0","0.0","0.0048309178744","0.0","0.0","0.0","0.0","0.0","0.0","0.0","0.0","0.0048309178744","0.0","0.0","0.0","0.0","0.0","0.0","0.0","0.0","0.0","0.0","0.0","0.0","0.0","0.0","0.0","0.0","0.0","0.0","0.0","0.0","0.0","0.0","0.0","0.0","0.0","0.0","0.0","0.0","0.0","0.0","0.0","0.0","0.0","0.0","0.0","0.0","0.0","0.0","0.0","0.0","0.0","0.0","0.0","0.0","0.0","0.0","0.0","0.0","0.0","0.0","0.0","0.0","0.0","0.0","0.0","0.0","0.0","0.0","0.0","0.0","0.0","0.0","0.0","0.0","0.0","0.0","0.0","0.0","0.0","0.0","0.0","0.0","0.0","0.0","0.0","0.0","0.0","0.0","0.0","0.0","0.0","0.0","0.0","0.0","0.0","0.0","0.0","0.0","0.0","0.0","0.0","0.0","0.0","0.0","0.0","0.0","0.0","0.0","0.0","0.0","0.0","0.0","0.0","0.0","0.0","0.0","+"
"2016-11-05","Intel","0.0","0.0","0.0","0.0","0.0","0.0","0.0","0.0","0.0","0.0","0.0","0.0","0.0","0.0","0.0","0.0","0.0","0.0","0.0","0.0","0.0","0.0","0.0","0.0","0.0","0.0","0.0","0.0","0.0","0.0","0.0","0.0","0.0","0.0","0.0","0.0","0.0","0.0","0.0","0.0","0.0","0.0","0.0","0.0","0.0","0.0","0.0","0.0","0.0","0.0","0.0","0.0","0.0","0.0","0.0","0.0","0.0","0.0","0.0","0.0","0.0","0.0111111111111","0.0","0.0","0.0","0.0","0.0","0.0","0.0","0.0","0.0","0.0","0.0","0.0","0.0","0.0","0.0","0.0","0.0","0.0","0.0","0.0","0.0","0.0","0.0","0.0","0.0","0.0","0.0","0.0","0.0","0.0","0.0","0.0","0.0","0.0","0.0","0.0","0.0","0.0","0.0","0.0","0.0","0.0","0.0","0.0","0.0","0.0","0.0","0.0","0.0","0.0","0.0","0.0","0.0","0.0","0.0","0.0","0.0","0.0","0.0","0.0","0.0","0.0","0.0","0.0","0.0","0.0","0.0","0.0","0.0","0.0","0.0","0.0","0.0","0.0","0.0","0.0","0.0","0.0","0.0","0.0","0.0","0.0","0.0","0.0","0.0","0.0","0.0","0.0","0.0","0.0","0.0","0.0","0.0","0.0","0.0","0.0","0.0","0.0","0.0","0.0","0.0","0.0","0.0","0.0","0.0","0.0","0.0","0.0","0.0","0.0","0.0","0.0","0.0","0.0","0.0","+"
"2016-11-06","Intel","0.0","0.0","0.0","0.0","0.0","0.0","0.0","0.0","0.0","0.0","0.0","0.0","0.0","0.0","0.0","0.0","0.0","0.0","0.0","0.0","0.0","0.0","0.0","0.0","0.0","0.0","0.0","0.0","0.0","0.0","0.0","0.0","0.0","0.0","0.0","0.0","0.0","0.0","0.0","0.0","0.0","0.0","0.0","0.0","0.0","0.0","0.0","0.0","0.0","0.0","0.0","0.0","0.0","0.0","0.0","0.0","0.0","0.0","0.0","0.0","0.0","0.010989010989","0.0","0.0","0.0","0.0","0.0","0.0","0.0","0.0","0.010989010989","0.0","0.0","0.0","0.0","0.0","0.0","0.0","0.0","0.0","0.0","0.0","0.0","0.0","0.0","0.0","0.0","0.0","0.0","0.0","0.0","0.0","0.0","0.0","0.0","0.0","0.0","0.0","0.0","0.0","0.0","0.0","0.0","0.0","0.0","0.0","0.0","0.0","0.0","0.0","0.0","0.0","0.0","0.0","0.0","0.0","0.0","0.0","0.0","0.0","0.0","0.0","0.0","0.0","0.0","0.0","0.0","0.0","0.0","0.0","0.0","0.0","0.0","0.0","0.0","0.0","0.0","0.0","0.0","0.0","0.0","0.0","0.0","0.0","0.0","0.0","0.0","0.0","0.0","0.0","0.0","0.0","0.0","0.0","0.0","0.0","0.0","0.0","0.0","0.0","0.0","0.0","0.0","0.0","0.0","0.0","0.0","0.0","0.0","0.0","0.0","0.0","0.0","0.0","0.0","0.0","0.0","+"
"2016-11-07","Intel","0.0","0.0","0.0","0.0","0.0","0.0","0.0","0.0","0.0","0.0","0.0","0.0","0.0","0.0","0.0","0.0","0.0","0.0","0.0","0.0","0.0","0.0","0.0","0.0","0.0","0.0","0.0","0.0","0.0","0.0","0.0","0.0","0.0","0.0","0.0","0.0","0.0","0.0","0.0","0.0","0.0","0.0","0.0","0.0","0.0","0.0","0.0","0.0","0.0","0.0","0.0","0.0","0.0","0.0","0.0","0.0","0.0","0.0","0.0","0.0","0.0","0.0","0.0","0.0","0.0","0.0","0.0","0.0","0.0","0.0","0.0","0.0","0.0","0.0","0.0","0.0","0.0","0.0","0.0","0.0","0.0","0.0","0.0","0.0","0.0","0.0","0.0","0.0","0.0","0.0","0.0","0.0","0.0","0.0","0.0","0.0","0.0","0.0","0.0","0.0","0.0","0.0","0.0","0.0","0.0","0.0","0.0","0.0","0.0","0.0","0.0","0.0","0.0","0.0","0.0","0.0","0.0","0.0","0.0","0.0","0.0","0.0","0.0","0.0","0.0","0.0","0.0","0.0","0.0","0.0","0.0","0.0","0.0","0.0","0.0","0.0","0.0","0.0","0.0","0.0","0.0","0.0","0.0","0.0","0.0","0.0","0.0","0.0","0.0","0.0","0.0","0.0","0.0","0.0","0.0","0.0","0.0","0.0","0.0","0.0","0.0","0.0","0.0","0.0","0.0","0.0","0.0","0.0","0.0","0.0","0.0","0.0","0.0","0.0","0.0","0.0","0.0","-"
"2016-11-08","Intel","0.0123456790123","0.0","0.0","0.0","0.0","0.0","0.0","0.0","0.0","0.0","0.0","0.0","0.0","0.0","0.0","0.0","0.0","0.0","0.0","0.0","0.0","0.0","0.0","0.0","0.0","0.0","0.0","0.0","0.0","0.0","0.0","0.0","0.0","0.0","0.0","0.0","0.0","0.0","0.0","0.0","0.0","0.0","0.0","0.0","0.0","0.0","0.0","0.0","0.0","0.0","0.0","0.0","0.0","0.0","0.0","0.0","0.0","0.0","0.0","0.0","0.0","0.0123456790123","0.0","0.0","0.0","0.0","0.0","0.0","0.0","0.0","0.0123456790123","0.0","0.0","0.0","0.0","0.0","0.0","0.0","0.0","0.0","0.0","0.0","0.0","0.0","0.0","0.0","0.0","0.0","0.0","0.0","0.0","0.0","0.0","0.0","0.0","0.0","0.0","0.0","0.0","0.0","0.0","0.0","0.0","0.0","0.0","0.0","0.0","0.0","0.0","0.0","0.0","0.0","0.0","0.0","0.0","0.0","0.0","0.0","0.0","0.0","0.0","0.0","0.0","0.0","0.0","0.0","0.0","0.0","0.0","0.0","0.0","0.0","0.0","0.0","0.0","0.0","0.0","0.0","0.0","0.0","0.0","0.0","0.0","0.0","0.0","0.0","0.0","0.0","0.0","0.0","0.0","0.0","0.0","0.0","0.0","0.0","0.0","0.0","0.0","0.0","0.0","0.0","0.0","0.0","0.0","0.0","0.0","0.0","0.0","0.0","0.0","0.0","0.0","0.0","0.0","0.0","0.0","+"
"2016-11-18","Intel","0.0","0.0","0.0","0.0","0.0","0.0","0.0","0.0","0.0","0.0","0.0","0.0","0.0","0.0","0.0","0.0","0.0","0.0","0.0","0.0","0.0","0.0","0.0","0.0","0.0","0.0","0.0","0.0","0.0","0.0","0.0","0.0","0.0","0.0","0.0","0.0","0.0","0.0","0.0","0.0","0.0","0.0","0.0","0.0","0.0","0.0","0.0","0.0","0.0","0.0","0.0","0.0","0.0","0.0","0.0","0.0","0.0","0.0","0.0","0.0","0.0","0.00510204081633","0.0","0.0","0.0","0.0","0.0","0.0","0.0","0.0","0.0","0.0","0.0","0.0","0.0","0.0","0.0","0.0","0.0","0.0","0.0","0.0","0.0","0.0","0.0","0.0","0.0","0.0","0.0","0.0","0.0","0.0","0.0","0.0","0.0","0.0","0.0","0.0","0.0","0.0","0.0","0.0","0.0","0.0","0.0","0.0","0.0","0.0","0.0","0.0","0.0","0.0","0.0","0.0","0.0","0.0","0.0","0.0","0.0","0.0","0.0","0.0","0.0","0.0","0.0","0.0","0.0","0.00255102040816","0.0","0.0","0.0","0.0","0.0","0.0","0.0","0.0","0.0","0.0","0.0","0.0","0.0","0.0","0.0","0.0","0.0","0.0","0.0","0.0","0.0","0.0","0.0","0.0","0.0","0.0","0.0","0.0","0.0","0.0","0.0","0.0","0.0","0.0","0.0","0.0","0.0","0.0","0.0","0.0","0.0","0.0","0.0","0.0","0.0","0.0","0.0","0.0","0.0","-"
"2016-11-19","Intel","0.0","0.0","0.0","0.0","0.0","0.0","0.0","0.0","0.0","0.0","0.0","0.0","0.0","0.0","0.0","0.0","0.0","0.0","0.0","0.0","0.0","0.0","0.0","0.0","0.0","0.0","0.0","0.0","0.0","0.0","0.0","0.0","0.0","0.0","0.0","0.0","0.0","0.0","0.0","0.0","0.0","0.0","0.0","0.0","0.0","0.0","0.0","0.0","0.0","0.0","0.0","0.0","0.0","0.0","0.0","0.0","0.0","0.0","0.0","0.0","0.0","0.00975609756098","0.0","0.0","0.0","0.0","0.0","0.0","0.0","0.0","0.00975609756098","0.0","0.0","0.0","0.0","0.0","0.0","0.0","0.0","0.0","0.0","0.0","0.0","0.0","0.0","0.0","0.0","0.0","0.0","0.0","0.0","0.0","0.0","0.0","0.0","0.0","0.0","0.0","0.0","0.0","0.0","0.0","0.0","0.0","0.0","0.0","0.0","0.0","0.0","0.0","0.0","0.0","0.0","0.0","0.0","0.0","0.0","0.0","0.0","0.0","0.0","0.0","0.0","0.0","0.0","0.0","0.0","0.0","0.0","0.0","0.0","0.0","0.0","0.0","0.0","0.0","0.0","0.0","0.0","0.0","0.0","0.0","0.0","0.0","0.0","0.0","0.0","0.0","0.0","0.0","0.0","0.0","0.0","0.0","0.0","0.0","0.0","0.0","0.0","0.0","0.0","0.0","0.0","0.0","0.0","0.0","0.0","0.0","0.0","0.0","0.0","0.0","0.0","0.0","0.0","0.0","0.0","+"
"2016-11-20","Intel","0.0","0.0","0.0","0.0","0.0","0.0","0.0","0.0","0.0","0.0","0.0","0.0","0.0","0.0","0.0","0.0","0.00497512437811","0.0","0.0","0.0","0.0","0.0","0.0","0.0","0.0","0.0","0.0","0.0","0.0","0.0","0.0","0.0","0.0","0.0","0.0","0.0","0.0","0.00497512437811","0.0","0.0","0.0","0.0","0.0","0.0","0.0","0.0","0.0","0.0","0.0","0.0","0.0","0.0","0.0","0.0","0.0","0.0","0.0","0.0","0.0","0.0","0.0","0.00497512437811","0.0","0.0","0.0","0.0","0.0","0.0","0.0","0.0","0.0","0.0","0.0","0.0","0.0","0.0","0.0","0.0","0.0","0.0","0.0","0.0","0.0","0.0","0.0","0.0","0.0","0.0","0.0","0.0","0.0","0.0","0.0","0.0","0.0","0.0","0.0","0.0","0.0","0.0","0.0","0.0","0.0","0.0","0.0","0.0","0.0","0.0","0.0","0.0","0.0","0.0","0.0","0.0","0.0","0.0","0.0","0.0","0.0","0.0","0.0","0.0","0.0","0.0","0.0","0.0","0.0","0.0","0.0","0.0","0.0","0.0","0.0","0.0","0.0","0.0","0.0","0.0","0.0","0.0","0.0","0.00497512437811","0.0","0.0","0.0","0.0","0.0","0.0","0.0","0.0","0.0","0.0","0.0","0.0","0.0","0.0","0.0","0.0","0.0","0.0","0.0","0.0","0.0","0.0","0.0","0.0","0.0","0.0","0.0","0.0","0.0","0.0","0.0","0.0","0.0","0.0","0.0","-"
"2016-11-22","Intel","0.0","0.0","0.0","0.0","0.0","0.0","0.0","0.0","0.0","0.0","0.0","0.0","0.0","0.0","0.0","0.0","0.0","0.0","0.0","0.0","0.0","0.0","0.0","0.0","0.0","0.0","0.0","0.0","0.0","0.0","0.0","0.0","0.0","0.004329004329","0.0","0.0","0.0","0.0","0.0","0.0","0.0","0.0","0.0","0.0","0.0","0.0","0.0","0.0","0.0","0.0","0.0","0.0","0.0","0.0","0.0","0.0","0.0","0.0","0.0","0.0","0.0","0.0","0.0","0.0","0.0","0.0","0.0","0.0","0.0","0.0","0.0","0.0","0.0","0.0","0.0","0.0","0.0","0.0","0.0","0.0","0.0","0.0","0.0","0.0","0.0","0.0","0.0","0.0","0.0","0.0","0.0","0.0","0.0","0.0","0.0","0.0","0.0","0.0","0.0","0.0","0.0","0.0","0.0","0.0","0.0","0.0","0.0","0.0","0.0","0.0","0.0","0.0","0.0","0.0","0.0","0.0","0.0","0.0","0.0","0.0","0.0","0.0","0.0","0.0","0.0","0.0","0.0","0.0","0.0","0.0","0.0","0.0","0.0","0.0","0.0","0.0","0.0","0.0","0.0","0.0","0.0","0.0","0.0","0.0","0.0","0.0","0.0","0.0","0.0","0.0","0.0","0.0","0.0","0.0","0.0","0.0","0.0","0.0","0.0","0.0","0.0","0.0","0.0","0.0","0.0","0.0","0.0","0.0","0.0","0.0","0.0","0.0","0.0","0.0","0.0","0.0","0.0","+"
"2016-11-25","Intel","0.0","0.0","0.0","0.0","0.0","0.0","0.0","0.0","0.0","0.0","0.0","0.0","0.0","0.0","0.0","0.0","0.0","0.0","0.0","0.0","0.0","0.0","0.0","0.0","0.0","0.0","0.0","0.0","0.0","0.0","0.0","0.0","0.0","0.0","0.0","0.0","0.0","0.0","0.0","0.0","0.0","0.0","0.0","0.0","0.0","0.0","0.0","0.0","0.0","0.0","0.0","0.00884955752212","0.0","0.0","0.0","0.0","0.0","0.0","0.0","0.0","0.0","0.00884955752212","0.0","0.0","0.0","0.0","0.0","0.0","0.0","0.0","0.0","0.0","0.0","0.0","0.0","0.0","0.0","0.0","0.0","0.0","0.00884955752212","0.0","0.0","0.0","0.0","0.0","0.0","0.0","0.0","0.0","0.0","0.0","0.0","0.0","0.0","0.0","0.0","0.0","0.0","0.0","0.0","0.0","0.0","0.0","0.0","0.0","0.0","0.0","0.0","0.0","0.0","0.0","0.0","0.0","0.0","0.0","0.0","0.0","0.0","0.0","0.0","0.0","0.0","0.0","0.0","0.0","0.0","0.0","0.0","0.0","0.0","0.00884955752212","0.0","0.0","0.0","0.0","0.0","0.0","0.0","0.0","0.0","0.0","0.0","0.0","0.0","0.0","0.0","0.0","0.0","0.0","0.0","0.0","0.0","0.0","0.0","0.0","0.0","0.0","0.0","0.0","0.0","0.0","0.0","0.0","0.0","0.0","0.0","0.0","0.0","0.0","0.0","0.0","0.0","0.0","0.0","0.0","0.0","+"
"2016-11-26","Intel","0.0","0.0","0.0","0.0","0.0","0.0","0.0","0.0","0.0","0.0","0.0","0.0","0.0","0.0","0.0","0.0","0.0","0.0","0.0","0.0","0.0","0.0","0.0","0.0","0.0","0.0","0.0","0.0","0.0","0.0","0.0","0.0","0.0","0.0","0.0","0.0","0.0","0.0","0.0","0.0","0.0","0.0","0.0","0.0","0.0","0.0","0.0","0.0","0.0","0.0","0.0","0.0","0.0","0.0","0.0","0.0","0.0","0.0","0.0","0.0","0.0","0.013698630137","0.0","0.0","0.0","0.0","0.0","0.0","0.0","0.0","0.0","0.0","0.0","0.0","0.0","0.0","0.0","0.0","0.0","0.0","0.0","0.0","0.0","0.0","0.0","0.0","0.0","0.0","0.0","0.0","0.0","0.0","0.0","0.0","0.0","0.0","0.0","0.0","0.0","0.0","0.0","0.0","0.0","0.0","0.0","0.0","0.0","0.0","0.0","0.0","0.0","0.0","0.0","0.0","0.0","0.0","0.0","0.0","0.0","0.0","0.0","0.0","0.0","0.0","0.0","0.0","0.0","0.0","0.0","0.0","0.0","0.0","0.0","0.0","0.0","0.0","0.0","0.0","0.0","0.0","0.0","0.0","0.0","0.0","0.0","0.0","0.0","0.0","0.0","0.0","0.0","0.0","0.0","0.0","0.0","0.0","0.0","0.0","0.0","0.0","0.0","0.0","0.0","0.0","0.0","0.0","0.0","0.0","0.0","0.0","0.0","0.0","0.0","0.0","0.0","0.0","0.0","-"
"2016-11-27","Intel","0.0","0.0","0.0","0.0","0.0","0.0","0.0","0.0","0.0","0.0","0.0","0.0","0.0","0.0","0.0","0.0","0.0","0.0","0.0","0.0","0.0","0.0","0.0","0.0","0.0","0.0","0.0","0.0","0.0","0.0","0.0","0.0","0.0","0.0","0.0","0.0","0.0","0.0078125","0.0","0.0","0.0","0.0","0.0","0.0","0.0","0.0","0.0","0.0","0.0","0.0","0.0","0.0","0.0","0.0","0.0","0.0","0.0","0.0","0.0","0.0","0.0","0.0","0.0","0.0","0.0","0.0","0.0","0.0","0.0","0.0","0.0","0.0","0.0","0.0","0.0","0.0","0.0","0.0","0.0","0.0","0.0","0.0","0.0","0.0","0.0","0.0","0.0","0.0","0.0","0.0","0.0","0.0","0.0","0.0","0.0","0.0","0.0","0.0","0.0","0.0","0.0","0.0","0.0","0.0","0.0","0.0","0.0","0.0","0.0","0.0","0.0","0.0","0.0","0.0","0.0","0.0","0.0","0.0","0.0","0.0","0.0","0.0","0.0","0.0","0.0","0.0","0.0","0.0","0.0","0.0","0.0","0.0","0.0","0.0","0.0","0.0","0.0","0.0","0.0","0.0","0.0","0.0","0.0","0.0","0.0","0.0","0.0","0.0","0.0","0.0","0.0","0.0","0.0","0.0","0.0","0.0","0.0","0.0","0.0","0.0","0.0","0.0","0.0","0.0","0.0","0.0","0.0","0.0","0.0","0.0","0.0","0.0","0.0","0.0","0.0","0.0","0.0","-"
"2016-11-28","Intel","0.0","0.0","0.0","0.0","0.0","0.0","0.0","0.0","0.0","0.0","0.0","0.0","0.0","0.0","0.0","0.0","0.0","0.0","0.0","0.0","0.0","0.0","0.0","0.0","0.0","0.0","0.0","0.0","0.0","0.0","0.0","0.0","0.0","0.0","0.0","0.0","0.0","0.0","0.0","0.0","0.0","0.0","0.0","0.0","0.0","0.0","0.0","0.0","0.0","0.0","0.0","0.0","0.0","0.0","0.0","0.0","0.0","0.0","0.0","0.0","0.0","0.0","0.0","0.0","0.0","0.0","0.0","0.0","0.0","0.0","0.0","0.0","0.0","0.0","0.0","0.0","0.0","0.0","0.0","0.0","0.0","0.0","0.0","0.0","0.0","0.0","0.0","0.0","0.0","0.0","0.0","0.0","0.0","0.0","0.0","0.0","0.0","0.0","0.0","0.0","0.0","0.0","0.0","0.0","0.0","0.0","0.0","0.0","0.0","0.0","0.0","0.0","0.0","0.0","0.0","0.0","0.0","0.0","0.0","0.0","0.0","0.0","0.0","0.0","0.0","0.0","0.0","0.0","0.0","0.0","0.0","0.0","0.0","0.0","0.0","0.0","0.0","0.0","0.0","0.0","0.0","0.0","0.0","0.0","0.0","0.0","0.0","0.0","0.0","0.0","0.0","0.0","0.0","0.0","0.0","0.0","0.0","0.0","0.0","0.0","0.0","0.0","0.0","0.0","0.0","0.0","0.0","0.0","0.0","0.0","0.0","0.0","0.0","0.0","0.0","0.0","0.0","-"
"2016-11-29","Intel","0.0","0.0","0.0","0.0","0.0","0.0","0.0","0.0","0.0","0.0","0.0","0.0","0.0","0.0","0.0","0.0","0.0","0.0","0.0","0.0","0.0","0.0","0.0","0.0","0.0","0.0","0.0","0.0","0.0","0.0","0.0","0.0","0.0","0.0","0.0","0.0","0.0","0.0","0.0","0.0","0.0","0.0","0.0","0.0","0.0","0.0","0.0","0.0","0.0","0.0","0.0","0.0","0.0","0.0","0.0","0.0","0.0","0.0","0.0","0.0","0.0","0.0","0.0","0.0","0.0","0.0","0.0","0.0","0.0","0.0","0.0","0.0","0.0","0.0","0.0","0.0","0.0","0.0","0.0","0.0","0.0","0.0","0.0","0.0","0.0","0.0","0.0","0.0","0.0","0.0","0.0","0.0","0.0","0.0","0.00456621004566","0.0","0.0","0.0","0.0","0.0","0.0","0.0","0.0","0.0","0.0","0.0","0.0","0.0","0.0","0.0","0.0","0.0","0.0","0.0","0.0","0.0","0.0","0.0","0.0","0.0","0.0","0.0","0.0","0.0","0.0","0.0","0.0","0.0","0.0","0.0","0.0","0.0","0.0","0.0","0.0","0.0","0.0","0.0","0.0","0.0","0.0","0.0","0.0","0.0","0.0","0.0","0.0","0.0","0.0","0.0","0.0","0.0","0.0","0.0","0.0","0.0","0.0","0.0","0.0","0.0","0.0","0.0","0.0","0.0","0.0","0.0","0.0","0.0","0.0","0.0","0.0","0.0","0.0","0.0","0.0","0.0","0.0","+"
