"DATE","COMPANY","trusted","greatness","authentic","blockbuster","convenient","gaining","providence","thinner","benefits","improvements","perfection","helped","competitive","encourage","amusing","fair","right","interests","relaxed","clearly","luxury","enterprising","safe","loved","cheapest","humour","cleared","applaud","slick","uplifting","golden","reclaim","empower","benefit","scenic","serenity","excitement","work","invaluable","honoring","appeal","accomplish","instrumental","famous","keen","approval","favour","wonder","promising","comfort","benefits","upgraded","strongest","exceptional","unreal","loved","lover","helped","recommendation","quiet","cleaner","innovation","helping","superior","safely","thank","promise","favorite","generous","grateful","bullish","colorful","precise","afford","innovative","beloved","heaven","recommendations","honor","love","fresh","confidence","dynamic","significant","gains","foul","fail","virus","error","slump","volatility","dumping","anger","bugs","leaks","pan","broken","sucks","suffer","stuck","tumble","loser","disturb","bust","losing","neglect","scary","fever","scare","mistake","denied","vibrating","mysterious","conflict","hypocritical","bitch","sabotage","protest","deplorable","poorly","demonic","skinny","sharply","corrupt","gape","cheat","diss","slower","moan","dent","sued","hurt","tired","bust","bloody","illness","biases","abuses","slime","struck","emergency","illegal","damaging","blind","taboo","screwed","feint","regrets","anxiety","disprove","confront","blackmail","stupid","blunder","cruelty","delusional","overwhelmingly","phony","blasted","backward","crashes","drastically","ranting","crappy","intimidating","gossip","odd","insult","harms","absurd","invader","fails","vague","clash","scared","trick","dumb","+/-/="
"2016-09-19","Walmart","0.0","0.0","0.0","0.0","0.0","0.0","0.0","0.0","0.0","0.0","0.0","0.0","0.0","0.000434216239687","0.0","0.0","0.00781589231437","0.0","0.0","0.000434216239687","0.0","0.0","0.000868432479375","0.000434216239687","0.000434216239687","0.0","0.0","0.0","0.0","0.0","0.0","0.0","0.0","0.0","0.0","0.0","0.000434216239687","0.01389491967","0.0","0.0","0.000434216239687","0.0","0.0","0.000868432479375","0.0","0.0","0.0","0.000868432479375","0.0","0.0","0.0","0.000434216239687","0.0","0.0","0.0","0.000434216239687","0.0","0.0","0.0","0.0","0.0","0.000434216239687","0.0","0.0","0.0","0.00217108119844","0.000868432479375","0.000868432479375","0.0","0.0","0.000434216239687","0.0","0.0","0.000868432479375","0.0","0.0","0.0","0.0","0.0","0.00868432479375","0.00173686495875","0.0","0.0","0.0","0.0","0.0","0.000868432479375","0.0","0.0","0.0","0.000434216239687","0.0","0.0","0.0","0.0","0.0","0.000434216239687","0.000434216239687","0.0","0.00130264871906","0.0","0.0","0.0","0.0","0.000434216239687","0.0","0.0","0.000434216239687","0.0","0.000434216239687","0.000434216239687","0.0","0.0","0.0","0.0","0.0034737299175","0.0","0.0","0.0","0.0","0.0","0.0","0.0","0.0","0.0","0.0","0.0","0.000434216239687","0.0","0.0","0.0","0.000434216239687","0.000868432479375","0.0","0.0","0.0","0.0","0.0","0.0","0.0","0.0","0.000434216239687","0.0","0.0","0.0","0.000868432479375","0.0","0.0","0.000434216239687","0.0","0.0","0.0","0.00173686495875","0.0","0.0","0.000434216239687","0.0","0.0","0.0","0.0","0.0","0.0","0.0","0.0","0.0","0.0","0.0","0.0","0.0","0.0","0.0","0.0","0.0","0.0","0.000434216239687","0.000868432479375","0.00130264871906","-"
"2016-09-20","Walmart","0.0","0.0","0.0","0.0","0.000777907429016","0.0","0.0","0.0","0.0","0.0","0.0","0.00116686114352","0.0","0.000388953714508","0.0","0.000777907429016","0.0101127965772","0.0","0.0","0.0","0.0","0.0","0.00116686114352","0.000777907429016","0.0","0.0","0.0","0.0","0.0","0.0","0.0","0.0","0.000388953714508","0.000388953714508","0.0","0.0","0.000388953714508","0.0151691948658","0.0","0.0","0.0","0.0","0.0","0.000388953714508","0.0","0.0","0.0","0.00155581485803","0.0","0.0","0.0","0.000388953714508","0.0","0.0","0.0","0.000777907429016","0.000388953714508","0.00116686114352","0.0","0.0","0.0","0.000777907429016","0.0","0.0","0.0","0.00233372228705","0.00116686114352","0.00311162971606","0.0","0.0","0.0","0.0","0.0","0.0","0.0","0.0","0.000388953714508","0.0","0.0","0.0105017502917","0.00155581485803","0.000388953714508","0.0","0.0","0.0","0.0","0.0","0.0","0.0","0.0","0.0","0.0","0.0","0.0","0.0","0.0","0.000388953714508","0.0","0.0","0.000777907429016","0.0","0.0","0.0","0.0","0.0","0.0","0.00194476857254","0.0","0.0","0.0","0.0","0.0","0.0","0.0","0.0","0.00388953714508","0.0","0.0","0.0","0.0","0.0","0.0","0.0","0.0","0.0","0.0","0.0","0.0","0.0","0.0","0.0","0.000388953714508","0.00311162971606","0.0","0.0","0.0","0.0","0.0","0.0","0.0","0.0","0.0","0.0","0.000388953714508","0.0","0.000388953714508","0.0","0.0","0.0","0.0","0.0","0.0","0.00272267600156","0.0","0.0","0.0","0.0","0.0","0.0","0.0","0.0","0.0","0.0","0.0","0.0","0.0","0.0","0.0","0.0","0.0","0.0","0.0","0.0","0.0","0.000388953714508","0.0","0.0","-"
"2016-09-23","Walmart","0.000410004100041","0.0","0.0","0.0","0.0","0.0","0.0","0.0","0.0","0.0","0.0","0.0","0.0","0.000410004100041","0.0","0.000410004100041","0.00574005740057","0.0","0.0","0.000820008200082","0.0","0.0","0.000820008200082","0.000410004100041","0.0","0.0","0.0","0.000410004100041","0.000410004100041","0.0","0.0","0.0","0.0","0.0","0.0","0.0","0.0","0.00820008200082","0.0","0.0","0.000410004100041","0.0","0.0","0.0","0.0","0.0","0.0","0.00164001640016","0.0","0.0","0.0","0.00287002870029","0.0","0.0","0.0","0.000410004100041","0.0","0.0","0.0","0.000410004100041","0.0","0.0","0.0","0.0","0.0","0.00123001230012","0.000820008200082","0.00205002050021","0.000820008200082","0.0","0.0","0.0","0.0","0.000820008200082","0.0","0.0","0.0","0.0","0.0","0.00943009430094","0.000820008200082","0.0","0.0","0.0","0.00123001230012","0.0","0.0","0.0","0.0","0.0","0.0","0.0","0.0","0.000410004100041","0.0","0.0","0.000820008200082","0.0","0.0","0.0","0.0","0.0","0.0","0.0","0.0","0.0","0.00164001640016","0.0","0.0","0.000410004100041","0.0","0.0","0.0","0.0","0.0","0.00123001230012","0.0","0.000410004100041","0.0","0.0","0.0","0.000410004100041","0.0","0.0","0.0","0.0","0.0","0.0","0.0","0.0","0.000410004100041","0.0","0.000410004100041","0.0","0.0","0.0","0.0","0.000410004100041","0.0","0.0","0.000410004100041","0.0","0.0","0.0","0.0","0.000410004100041","0.0","0.0","0.0","0.0","0.0","0.0","0.00205002050021","0.0","0.0","0.0","0.0","0.0","0.0","0.0","0.0","0.0","0.0","0.0","0.0","0.0","0.0","0.0","0.0","0.0","0.0","0.000410004100041","0.0","0.0","0.00123001230012","0.000410004100041","0.000820008200082","-"
"2016-09-24","Walmart","0.0","0.0","0.0","0.0","0.0","0.0","0.0","0.0","0.000742666171556","0.0","0.0","0.000371333085778","0.0","0.0","0.0","0.000371333085778","0.00445599702934","0.0","0.0","0.00111399925733","0.0","0.0","0.00148533234311","0.0","0.0","0.0","0.0","0.0","0.0","0.0","0.0","0.0","0.0","0.0","0.0","0.0","0.0","0.0118826587449","0.0","0.0","0.000371333085778","0.0","0.0","0.000371333085778","0.0","0.0","0.0","0.00259933160045","0.0","0.0","0.000742666171556","0.0","0.0","0.0","0.0","0.0","0.0","0.000371333085778","0.0","0.0","0.000371333085778","0.0","0.000371333085778","0.000371333085778","0.0","0.00185666542889","0.000371333085778","0.00259933160045","0.0","0.0","0.0","0.0","0.0","0.00148533234311","0.0","0.0","0.0","0.0","0.000371333085778","0.0111399925733","0.000742666171556","0.000371333085778","0.0","0.0","0.0","0.0","0.000742666171556","0.0","0.0","0.0","0.0","0.0","0.0","0.0","0.0","0.000371333085778","0.000742666171556","0.000371333085778","0.000371333085778","0.00148533234311","0.0","0.0","0.0","0.0","0.000742666171556","0.0","0.000371333085778","0.0","0.0","0.00297066468622","0.0","0.0","0.0","0.0","0.0","0.00297066468622","0.0","0.00111399925733","0.0","0.0","0.0","0.0","0.0","0.0","0.0","0.0","0.0","0.0","0.0","0.0","0.000371333085778","0.000371333085778","0.00111399925733","0.0","0.000742666171556","0.0","0.0","0.0","0.0","0.000371333085778","0.0","0.0","0.0","0.000371333085778","0.0","0.0","0.0","0.000371333085778","0.000371333085778","0.0","0.0","0.0","0.000742666171556","0.0","0.0","0.0","0.0","0.0","0.0","0.0","0.0","0.0","0.0","0.000371333085778","0.0","0.0","0.0","0.000371333085778","0.0","0.0","0.0","0.000371333085778","0.0","0.0","0.000742666171556","0.0","0.00185666542889","+"
"2016-09-25","Walmart","0.000397772474145","0.0","0.0","0.0","0.0","0.0","0.0","0.0","0.000397772474145","0.0","0.0","0.00079554494829","0.0","0.000397772474145","0.0","0.00119331742243","0.00994431185362","0.0","0.0","0.00079554494829","0.0","0.0","0.00079554494829","0.000397772474145","0.0","0.0","0.000397772474145","0.000397772474145","0.0","0.0","0.0","0.0","0.0","0.0","0.0","0.0","0.0","0.00954653937947","0.0","0.000397772474145","0.0","0.0","0.0","0.0","0.000397772474145","0.0","0.0","0.00159108989658","0.0","0.000397772474145","0.000397772474145","0.000397772474145","0.0","0.0","0.0","0.000397772474145","0.0","0.00079554494829","0.0","0.0","0.000397772474145","0.0","0.00119331742243","0.000397772474145","0.0","0.00159108989658","0.000397772474145","0.00159108989658","0.0","0.0","0.000397772474145","0.0","0.0","0.00119331742243","0.0","0.0","0.0","0.0","0.0","0.00994431185362","0.00079554494829","0.0","0.0","0.0","0.0","0.0","0.0","0.0","0.0","0.0","0.0","0.0","0.0","0.0","0.0","0.0","0.000397772474145","0.00159108989658","0.0","0.00079554494829","0.0","0.0","0.0","0.0","0.000397772474145","0.0","0.00079554494829","0.0","0.000397772474145","0.0","0.0","0.0","0.0","0.0","0.0","0.00238663484487","0.0","0.000397772474145","0.00079554494829","0.0","0.0","0.000397772474145","0.0","0.000397772474145","0.0","0.0","0.000397772474145","0.0","0.0","0.0","0.00238663484487","0.00079554494829","0.00079554494829","0.0","0.0","0.0","0.000397772474145","0.000397772474145","0.0","0.000397772474145","0.0","0.0","0.0","0.000397772474145","0.0","0.0","0.0","0.0","0.000397772474145","0.0","0.0","0.0","0.00119331742243","0.0","0.0","0.0","0.0","0.0","0.0","0.0","0.0","0.0","0.0","0.000397772474145","0.0","0.000397772474145","0.0","0.0","0.0","0.0","0.0","0.000397772474145","0.0","0.0","0.00079554494829","0.0","0.00079554494829","-"
"2016-09-26","Walmart","0.000771604938272","0.000385802469136","0.0","0.0","0.0","0.000385802469136","0.0","0.0","0.0","0.0","0.0","0.0","0.0","0.0","0.0","0.000385802469136","0.0100308641975","0.000385802469136","0.0","0.000385802469136","0.0","0.0","0.0","0.000771604938272","0.000385802469136","0.0","0.0","0.0","0.0","0.0","0.0","0.0","0.0","0.0","0.0","0.0","0.0","0.0135030864198","0.0","0.0","0.0","0.0","0.0","0.000771604938272","0.0","0.0","0.0","0.00192901234568","0.0","0.0","0.0","0.0","0.0","0.0","0.000385802469136","0.000771604938272","0.0","0.0","0.0","0.0","0.0","0.0","0.0","0.0","0.0","0.00192901234568","0.0","0.00308641975309","0.0","0.000385802469136","0.000771604938272","0.000385802469136","0.0","0.000385802469136","0.0","0.0","0.0","0.0","0.000385802469136","0.00925925925926","0.00154320987654","0.0","0.0","0.0","0.0","0.0","0.0","0.0","0.0","0.0","0.0","0.0","0.0","0.0","0.0","0.0","0.000771604938272","0.000771604938272","0.0","0.00192901234568","0.0","0.0","0.0","0.000385802469136","0.000771604938272","0.0","0.0","0.0","0.000385802469136","0.0","0.000771604938272","0.0","0.0","0.0","0.0","0.00308641975309","0.0","0.0","0.0","0.0","0.0","0.0","0.0","0.0","0.0","0.0","0.0","0.0","0.0","0.0","0.000385802469136","0.0","0.00154320987654","0.000385802469136","0.0","0.0","0.0","0.0","0.0","0.0","0.0","0.0","0.000385802469136","0.000385802469136","0.0","0.0","0.0","0.0","0.000385802469136","0.0","0.0","0.0","0.00231481481481","0.0","0.0","0.0","0.0","0.0","0.0","0.0","0.0","0.0","0.0","0.000771604938272","0.0","0.0","0.0","0.0","0.0","0.0","0.0","0.000771604938272","0.0","0.0","0.000385802469136","0.000385802469136","0.00115740740741","-"
"2016-09-27","Walmart","0.0","0.0","0.0","0.0","0.0","0.0","0.0","0.0","0.0","0.0","0.0","0.0","0.0","0.0","0.0","0.00149309443822","0.010078387458","0.0","0.0","0.000373273609556","0.0","0.0","0.000373273609556","0.0","0.0","0.0","0.0","0.0","0.0","0.0","0.0","0.0","0.0","0.0","0.0","0.0","0.0","0.0171705860396","0.0","0.0","0.0","0.0","0.0","0.0","0.0","0.000373273609556","0.0","0.0","0.0","0.0","0.0","0.0","0.0","0.0","0.000373273609556","0.0","0.000373273609556","0.0","0.0","0.000373273609556","0.0","0.0","0.0","0.0","0.0","0.00447928331467","0.000746547219112","0.00298618887645","0.000746547219112","0.0","0.0","0.0","0.0","0.000746547219112","0.0","0.0","0.0","0.0","0.0","0.0115714818962","0.00223964165733","0.0","0.0","0.0","0.000373273609556","0.0","0.000746547219112","0.0","0.0","0.0","0.0","0.0","0.0","0.000373273609556","0.0","0.0","0.0","0.000746547219112","0.0","0.000373273609556","0.0","0.0","0.0","0.0","0.0","0.0","0.0","0.0","0.000373273609556","0.0","0.0","0.0","0.000373273609556","0.0","0.0","0.00373273609556","0.0","0.0","0.0","0.0","0.0","0.00111982082867","0.0","0.0","0.0","0.0","0.0","0.0","0.0","0.0","0.000373273609556","0.0","0.000746547219112","0.0","0.0","0.0","0.0","0.0","0.000373273609556","0.00186636804778","0.0","0.000373273609556","0.0","0.000373273609556","0.0","0.0","0.0","0.000373273609556","0.000373273609556","0.0","0.0","0.0","0.00149309443822","0.0","0.0","0.000373273609556","0.0","0.0","0.0","0.0","0.0","0.0","0.0","0.0","0.0","0.0","0.0","0.0","0.0","0.0","0.0","0.0","0.0","0.0","0.00261291526689","0.000373273609556","0.00111982082867","+"
"2016-09-30","Walmart","0.0","0.000398565165405","0.0","0.0","0.0","0.0","0.0","0.0","0.000797130330809","0.0","0.0","0.000797130330809","0.0","0.0","0.0","0.000797130330809","0.00956556396971","0.0","0.0","0.000398565165405","0.0","0.0","0.000398565165405","0.000398565165405","0.0","0.0","0.0","0.0","0.0","0.0","0.0","0.0","0.0","0.0","0.0","0.0","0.0","0.0103626943005","0.0","0.0","0.0","0.0","0.0","0.0","0.0","0.0","0.0","0.00239139099243","0.0","0.000398565165405","0.000797130330809","0.0","0.0","0.0","0.0","0.000398565165405","0.0","0.000797130330809","0.0","0.000398565165405","0.0","0.0","0.000797130330809","0.0","0.0","0.00239139099243","0.000797130330809","0.00159426066162","0.000398565165405","0.0","0.0","0.000398565165405","0.0","0.000797130330809","0.000398565165405","0.0","0.0","0.0","0.00119569549621","0.00956556396971","0.00119569549621","0.0","0.0","0.0","0.000797130330809","0.0","0.00159426066162","0.0","0.0","0.0","0.0","0.0","0.0","0.000398565165405","0.0","0.0","0.000398565165405","0.00119569549621","0.000398565165405","0.000797130330809","0.0","0.000398565165405","0.0","0.000398565165405","0.000797130330809","0.0","0.0","0.0","0.000797130330809","0.000398565165405","0.000398565165405","0.0","0.0","0.0","0.0","0.00398565165405","0.0","0.0","0.0","0.0","0.0","0.0","0.0","0.0","0.0","0.0","0.0","0.0","0.0","0.0","0.0","0.0","0.00199282582702","0.000398565165405","0.0","0.0","0.0","0.0","0.0","0.0","0.0","0.0","0.0","0.000797130330809","0.0","0.000398565165405","0.0","0.0","0.000398565165405","0.0","0.0","0.0","0.0","0.0","0.0","0.0","0.0","0.0","0.0","0.0","0.0","0.0","0.0","0.000398565165405","0.0","0.0","0.0","0.0","0.0","0.0","0.0","0.0","0.0","0.0","0.00119569549621","0.0","0.000797130330809","+"
"2016-10-01","Walmart","0.0","0.0","0.0","0.0","0.0","0.0","0.0","0.0","0.000422475707647","0.0","0.0","0.0","0.0","0.0","0.000422475707647","0.0","0.0105618926912","0.0","0.0","0.000844951415294","0.0","0.0","0.0","0.0","0.0","0.0","0.000422475707647","0.0","0.0","0.0","0.0","0.0","0.0","0.0","0.0","0.0","0.0","0.0101394169835","0.0","0.000422475707647","0.0","0.0","0.0","0.0","0.0","0.0","0.0","0.000422475707647","0.0","0.0","0.000422475707647","0.0","0.0","0.0","0.0","0.0","0.0","0.0","0.000422475707647","0.0","0.0","0.000422475707647","0.000422475707647","0.0","0.0","0.00126742712294","0.0","0.00126742712294","0.0","0.0","0.0","0.0","0.0","0.0","0.0","0.0","0.000422475707647","0.0","0.000422475707647","0.00802703844529","0.00168990283059","0.0","0.0","0.000422475707647","0.0","0.0","0.0","0.0","0.0","0.0","0.0","0.0","0.0","0.0","0.0","0.0","0.000844951415294","0.000422475707647","0.0","0.000422475707647","0.0","0.0","0.0","0.0","0.000422475707647","0.0","0.000422475707647","0.000422475707647","0.0","0.000422475707647","0.0","0.0","0.0","0.0","0.0","0.00337980566117","0.0","0.0","0.0","0.0","0.0","0.000422475707647","0.0","0.0","0.0","0.0","0.0","0.0","0.0","0.0","0.0","0.000422475707647","0.000844951415294","0.0","0.0","0.0","0.0","0.0","0.0","0.0","0.0","0.0","0.0","0.0","0.0","0.0","0.0","0.0","0.0","0.0","0.0","0.0","0.00295732995353","0.0","0.0","0.0","0.0","0.0","0.0","0.0","0.0","0.0","0.0","0.0","0.0","0.0","0.0","0.000422475707647","0.0","0.0","0.0","0.000422475707647","0.0","0.0","0.00253485424588","0.0","0.000422475707647","-"
"2016-10-02","Walmart","0.0","0.0","0.0","0.0","0.0","0.0","0.0","0.0","0.0","0.0","0.0","0.000388048117967","0.0","0.000388048117967","0.0","0.000388048117967","0.0108653473031","0.0","0.0","0.000388048117967","0.0","0.0","0.000388048117967","0.000388048117967","0.0","0.0","0.0","0.000388048117967","0.0","0.0","0.0","0.0","0.0","0.0","0.0","0.0","0.0","0.011641443539","0.0","0.0","0.0","0.0","0.0","0.000388048117967","0.0","0.0","0.0","0.000776096235933","0.0","0.000776096235933","0.0","0.0","0.0","0.0","0.0","0.000388048117967","0.0","0.000388048117967","0.0","0.0","0.0","0.000388048117967","0.000388048117967","0.0","0.000388048117967","0.0011641443539","0.000388048117967","0.00271633682577","0.0","0.0","0.0","0.0","0.0","0.000776096235933","0.0","0.0","0.000388048117967","0.0","0.0","0.0131936360109","0.0011641443539","0.0","0.0","0.0","0.0","0.0","0.000776096235933","0.0","0.0","0.0","0.0","0.0","0.000388048117967","0.0","0.0","0.0","0.000776096235933","0.000776096235933","0.0","0.0011641443539","0.0","0.0","0.0","0.0","0.0","0.0","0.000388048117967","0.0","0.0","0.0","0.000388048117967","0.0","0.0","0.0","0.0","0.00620876988747","0.0","0.000388048117967","0.0","0.0","0.0","0.0","0.0","0.000388048117967","0.0","0.0","0.0","0.0","0.0","0.000388048117967","0.0","0.000388048117967","0.000388048117967","0.0","0.000776096235933","0.0","0.0","0.0","0.0","0.0","0.0","0.000388048117967","0.0","0.000388048117967","0.0","0.000388048117967","0.0","0.000388048117967","0.0011641443539","0.0","0.0","0.0","0.00194024058983","0.0","0.0","0.0","0.0","0.0","0.0","0.0","0.0","0.0","0.0","0.000388048117967","0.0","0.0","0.000388048117967","0.000388048117967","0.0","0.0","0.0","0.000388048117967","0.0","0.0","0.0011641443539","0.0","0.0011641443539","-"
"2016-10-03","Walmart","0.0","0.0","0.0","0.0","0.000393855848759","0.0","0.0","0.0","0.000393855848759","0.0","0.0","0.000393855848759","0.0","0.0","0.0","0.0","0.0110279637653","0.0","0.000393855848759","0.0","0.0","0.0","0.0","0.00118156754628","0.0","0.0","0.0","0.0","0.000393855848759","0.0","0.0","0.0","0.0","0.0","0.0","0.0","0.0","0.011421819614","0.0","0.0","0.0","0.0","0.0","0.0","0.0","0.0","0.0","0.000787711697519","0.0","0.0","0.000393855848759","0.0","0.0","0.0","0.0","0.00118156754628","0.0","0.000393855848759","0.0","0.0","0.0","0.000787711697519","0.000787711697519","0.0","0.0","0.00236313509256","0.0","0.00157542339504","0.0","0.000393855848759","0.0","0.0","0.0","0.0","0.0","0.0","0.0","0.0","0.0","0.0102402520677","0.000393855848759","0.0","0.0","0.0","0.0","0.0","0.000787711697519","0.0","0.0","0.0","0.0","0.0","0.0","0.0","0.0","0.0","0.000393855848759","0.0","0.0","0.00118156754628","0.0","0.0","0.0","0.000393855848759","0.000393855848759","0.0","0.0019692792438","0.0","0.0","0.000787711697519","0.0","0.0","0.0","0.0","0.0","0.00354470263883","0.0","0.0","0.0","0.0","0.0","0.0","0.0","0.0","0.0","0.0","0.0","0.0","0.0","0.0","0.0","0.000787711697519","0.000393855848759","0.000393855848759","0.0","0.0","0.0","0.0","0.0","0.0","0.000393855848759","0.0","0.0","0.000787711697519","0.0","0.0","0.0","0.0","0.00157542339504","0.0","0.0","0.0","0.0019692792438","0.0","0.0","0.000393855848759","0.0","0.0","0.000393855848759","0.0","0.0","0.0","0.0","0.0","0.0","0.0","0.0","0.0","0.0","0.0","0.0","0.0","0.0","0.0","0.000787711697519","0.000393855848759","0.00118156754628","-"
"2016-10-04","Walmart","0.000366703337","0.0","0.0","0.0","0.0","0.0","0.0","0.0","0.0","0.0","0.0","0.000366703337","0.0","0.0","0.0","0.0","0.013934726806","0.0","0.0","0.000366703337","0.0","0.0","0.001466813348","0.0","0.000366703337","0.0","0.0","0.0","0.0","0.0","0.0","0.0","0.0","0.0","0.0","0.0","0.000366703337","0.01466813348","0.0","0.0","0.0","0.0","0.0","0.0","0.0","0.0","0.0","0.000733406674001","0.0","0.0","0.0","0.0","0.0","0.0","0.0","0.0","0.0","0.000366703337","0.0","0.0","0.0","0.0","0.0","0.0","0.0","0.00366703337","0.0","0.000733406674001","0.0","0.0","0.0","0.0","0.0","0.001100110011","0.0","0.0","0.0","0.0","0.001833516685","0.013201320132","0.001833516685","0.0","0.0","0.0","0.0","0.0","0.000733406674001","0.0","0.0","0.0","0.000733406674001","0.0","0.0","0.0","0.0","0.0","0.001100110011","0.002200220022","0.0","0.001833516685","0.0","0.0","0.0","0.000366703337","0.000733406674001","0.0","0.000733406674001","0.0","0.0","0.000366703337","0.0","0.0","0.0","0.0","0.0","0.003300330033","0.0","0.000733406674001","0.000366703337","0.0","0.0","0.0","0.0","0.0","0.0","0.0","0.000366703337","0.0","0.0","0.0","0.0","0.0","0.001833516685","0.000366703337","0.0","0.000366703337","0.0","0.000366703337","0.0","0.0","0.001466813348","0.0","0.0","0.0","0.0","0.000366703337","0.0","0.0","0.000733406674001","0.0","0.0","0.0","0.001466813348","0.0","0.0","0.0","0.0","0.0","0.0","0.0","0.0","0.0","0.0","0.0","0.0","0.0","0.0","0.0","0.0","0.0","0.0","0.001100110011","0.0","0.0","0.002200220022","0.0","0.000733406674001","-"
"2016-10-07","Walmart","0.0","0.0","0.0","0.0","0.000337723741979","0.0","0.0","0.0","0.0","0.0","0.0","0.000337723741979","0.0","0.0","0.0","0.0","0.00844309354948","0.0","0.0","0.000675447483958","0.0","0.000337723741979","0.000675447483958","0.00202634245187","0.0","0.0","0.0","0.0","0.0","0.0","0.0","0.0","0.0","0.000337723741979","0.0","0.0","0.0","0.0118203309693","0.0","0.0","0.0","0.0","0.0","0.000337723741979","0.0","0.0","0.0","0.00101317122594","0.0","0.0","0.0","0.000337723741979","0.0","0.0","0.0","0.00202634245187","0.0","0.000337723741979","0.0","0.000337723741979","0.0","0.000337723741979","0.000675447483958","0.0","0.000675447483958","0.0016886187099","0.0","0.00202634245187","0.0","0.0","0.000337723741979","0.0","0.0","0.0","0.0","0.0","0.0","0.0","0.000337723741979","0.00574130361364","0.00101317122594","0.0","0.0","0.0","0.0","0.0","0.000675447483958","0.0","0.0","0.000337723741979","0.0","0.0","0.0","0.0","0.0","0.0","0.00101317122594","0.00101317122594","0.0","0.00236406619385","0.0","0.000337723741979","0.0","0.0","0.0016886187099","0.0","0.00202634245187","0.0","0.000337723741979","0.000337723741979","0.0","0.0","0.0","0.0","0.000337723741979","0.00270178993583","0.0","0.000337723741979","0.0","0.0","0.0","0.0","0.0","0.0","0.0","0.0","0.0","0.0","0.0","0.0","0.0","0.000675447483958","0.00135089496792","0.0","0.0","0.0","0.0","0.0","0.0","0.0","0.0","0.0","0.0","0.000337723741979","0.0","0.0","0.0","0.0","0.000675447483958","0.0","0.0","0.0","0.00135089496792","0.0","0.0","0.0","0.0","0.0","0.0","0.0","0.0","0.0","0.0","0.0","0.0","0.0","0.0","0.0","0.0","0.0","0.0","0.000337723741979","0.0","0.0","0.0016886187099","0.0","0.000675447483958","-"
"2016-10-08","Walmart","0.0","0.0","0.0","0.0","0.0","0.0","0.0","0.0","0.0","0.0","0.0","0.0","0.0","0.0","0.0","0.0003663003663","0.00989010989011","0.0","0.0","0.0003663003663","0.0","0.0","0.0010989010989","0.0","0.0","0.0","0.0003663003663","0.0","0.0003663003663","0.0","0.0","0.0","0.0","0.0","0.0","0.0","0.0","0.00915750915751","0.0","0.0","0.0","0.0003663003663","0.0","0.0","0.0","0.0","0.0","0.0010989010989","0.0","0.0","0.0","0.0003663003663","0.0","0.0","0.0","0.0","0.0","0.0","0.0","0.000732600732601","0.0","0.0","0.0003663003663","0.0","0.0","0.0021978021978","0.0","0.0021978021978","0.0","0.0","0.0","0.0","0.0","0.0003663003663","0.0","0.0","0.0","0.0","0.0003663003663","0.0131868131868","0.0021978021978","0.0","0.0","0.0","0.0","0.0003663003663","0.0","0.0","0.0","0.0","0.0","0.0","0.0","0.0","0.0","0.000732600732601","0.000732600732601","0.0003663003663","0.0","0.000732600732601","0.0","0.0","0.0","0.0","0.000732600732601","0.0","0.0010989010989","0.0","0.0","0.000732600732601","0.0003663003663","0.0","0.0","0.0","0.0","0.0014652014652","0.0","0.0","0.0","0.0","0.0","0.0003663003663","0.0","0.0","0.0","0.0","0.0","0.0","0.0","0.0","0.0","0.0003663003663","0.0010989010989","0.0","0.0","0.0","0.0","0.0003663003663","0.0","0.0","0.0003663003663","0.0","0.0","0.0","0.0","0.0","0.0","0.0","0.000732600732601","0.0","0.0","0.0","0.000732600732601","0.0","0.0","0.0","0.0","0.0003663003663","0.0","0.0","0.0","0.0","0.0","0.0003663003663","0.0","0.0","0.0","0.0","0.0","0.0","0.0","0.0","0.0","0.0","0.0","0.0","0.0018315018315","-"
"2016-10-09","Walmart","0.0","0.0","0.000364298724954","0.0","0.000728597449909","0.0","0.0","0.0","0.000364298724954","0.0","0.0","0.000728597449909","0.0","0.000364298724954","0.0","0.000364298724954","0.008014571949","0.0","0.0","0.0","0.0","0.0","0.00109289617486","0.000364298724954","0.000728597449909","0.0","0.0","0.0","0.0","0.0","0.0","0.0","0.0","0.0","0.0","0.0","0.0","0.0116575591985","0.0","0.0","0.0","0.0","0.0","0.0","0.0","0.0","0.0","0.00109289617486","0.0","0.0","0.000364298724954","0.0","0.0","0.0","0.0","0.000364298724954","0.0","0.000728597449909","0.0","0.000364298724954","0.000364298724954","0.000364298724954","0.000364298724954","0.0","0.0","0.00218579234973","0.000364298724954","0.00255009107468","0.000364298724954","0.0","0.0","0.0","0.0","0.000364298724954","0.0","0.0","0.0","0.0","0.0","0.0123861566485","0.00182149362477","0.0","0.0","0.0","0.0","0.0","0.000364298724954","0.0","0.0","0.0","0.0","0.0","0.0","0.0","0.0","0.0","0.00109289617486","0.00182149362477","0.0","0.00109289617486","0.0","0.000364298724954","0.0","0.0","0.000364298724954","0.0","0.000728597449909","0.0","0.000728597449909","0.000728597449909","0.0","0.0","0.0","0.0","0.0","0.00327868852459","0.0","0.0","0.0","0.0","0.0","0.000364298724954","0.0","0.0","0.0","0.0","0.0","0.0","0.0","0.0","0.0","0.00109289617486","0.00291438979964","0.0","0.0","0.0","0.0","0.0","0.0","0.0","0.0","0.0","0.0","0.000364298724954","0.0","0.000364298724954","0.0","0.0","0.00145719489982","0.0","0.0","0.0","0.00291438979964","0.0","0.0","0.0","0.0","0.0","0.0","0.0","0.0","0.0","0.0","0.0","0.0","0.0","0.000364298724954","0.0","0.0","0.0","0.0","0.0","0.0","0.0","0.000728597449909","0.000364298724954","0.000728597449909","-"
"2016-10-10","Walmart","0.000381242851697","0.0","0.0","0.000381242851697","0.0","0.0","0.0","0.0","0.000381242851697","0.0","0.0","0.0","0.0","0.0","0.0","0.0","0.00991231414411","0.0","0.0","0.000381242851697","0.0","0.0","0.0","0.0","0.0","0.0","0.0","0.0","0.0","0.0","0.0","0.0","0.0","0.000381242851697","0.0","0.0","0.0","0.00991231414411","0.0","0.0","0.0","0.0","0.0","0.0","0.0","0.0","0.0","0.00114372855509","0.0","0.000381242851697","0.000381242851697","0.000381242851697","0.0","0.0","0.0","0.0","0.0","0.0","0.000381242851697","0.000381242851697","0.0","0.0","0.000381242851697","0.0","0.0","0.00266869996188","0.000762485703393","0.00304994281357","0.000381242851697","0.000381242851697","0.0","0.0","0.0","0.000381242851697","0.0","0.0","0.000762485703393","0.0","0.000381242851697","0.0129622569577","0.00228745711018","0.000381242851697","0.0","0.0","0.0","0.0","0.000381242851697","0.0","0.0","0.0","0.000381242851697","0.0","0.0","0.0","0.0","0.0","0.0","0.00114372855509","0.0","0.00152497140679","0.0","0.0","0.0","0.0","0.000762485703393","0.0","0.00114372855509","0.0","0.000381242851697","0.0","0.0","0.0","0.0","0.0","0.0","0.000762485703393","0.0","0.0","0.0","0.0","0.0","0.000381242851697","0.0","0.0","0.0","0.000381242851697","0.0","0.0","0.0","0.0","0.0","0.0","0.000381242851697","0.0","0.0","0.0","0.0","0.0","0.0","0.0","0.000381242851697","0.0","0.0","0.0","0.0","0.0","0.0","0.0","0.00190621425848","0.0","0.0","0.0","0.000762485703393","0.0","0.0","0.0","0.0","0.0","0.0","0.0","0.000381242851697","0.0","0.0","0.000762485703393","0.0","0.0","0.0","0.0","0.0","0.0","0.0","0.000381242851697","0.0","0.0","0.00190621425848","0.0","0.00114372855509","+"
"2016-10-11","Walmart","0.0","0.0","0.0","0.0","0.0","0.0","0.0","0.000384763370527","0.0","0.0","0.0","0.0","0.0","0.0","0.0","0.0","0.00731050404002","0.0","0.0","0.000384763370527","0.000384763370527","0.0","0.000384763370527","0.000384763370527","0.0","0.0","0.000384763370527","0.0","0.0","0.0","0.0","0.0","0.0","0.000769526741054","0.0","0.0","0.0","0.0119276644863","0.0","0.0","0.0","0.0","0.0","0.0","0.0","0.0","0.0","0.000384763370527","0.0","0.000769526741054","0.0","0.0","0.0","0.0","0.0","0.000384763370527","0.0","0.0","0.0","0.0","0.00115429011158","0.0","0.000384763370527","0.0","0.0","0.00230858022316","0.000384763370527","0.000384763370527","0.000384763370527","0.0","0.0","0.0","0.0","0.000384763370527","0.0","0.0","0.0","0.0","0.000384763370527","0.0119276644863","0.00269334359369","0.0","0.0","0.0","0.0","0.000384763370527","0.00115429011158","0.0","0.0","0.0","0.000384763370527","0.0","0.0","0.0","0.0","0.0","0.000384763370527","0.00115429011158","0.0","0.00192381685264","0.0","0.0","0.0","0.000384763370527","0.000384763370527","0.0","0.00153905348211","0.0","0.0","0.000384763370527","0.0","0.0","0.0","0.0","0.0","0.00307810696422","0.0","0.0","0.0","0.0","0.0","0.0","0.0","0.0","0.0","0.0","0.0","0.000384763370527","0.0","0.0","0.000769526741054","0.0","0.000769526741054","0.000384763370527","0.0","0.0","0.0","0.0","0.0","0.0","0.0","0.000769526741054","0.0","0.0","0.0","0.0","0.0","0.0","0.000769526741054","0.0","0.0","0.0","0.000384763370527","0.0","0.0","0.0","0.0","0.0","0.0","0.0","0.0","0.0","0.0","0.000384763370527","0.0","0.000384763370527","0.0","0.000384763370527","0.0","0.0","0.0","0.000384763370527","0.0","0.0","0.000384763370527","0.0","0.000384763370527","+"
"2016-10-14","Walmart","0.0","0.0","0.0","0.0","0.0","0.0","0.0","0.0","0.0","0.0","0.0","0.000746547219112","0.0","0.0","0.0","0.0","0.006718924972","0.0","0.0","0.000373273609556","0.0","0.0","0.000746547219112","0.0","0.0","0.0","0.0","0.0","0.0","0.0","0.0","0.0","0.0","0.0","0.0","0.0","0.0","0.0156774916013","0.0","0.0","0.0","0.0","0.0","0.0","0.0","0.000373273609556","0.0","0.00149309443822","0.0","0.0","0.0","0.0","0.0","0.0","0.0","0.0","0.0","0.000746547219112","0.000373273609556","0.000373273609556","0.000746547219112","0.000373273609556","0.000746547219112","0.000373273609556","0.0","0.00186636804778","0.0","0.00559910414334","0.0","0.000373273609556","0.0","0.0","0.0","0.00261291526689","0.0","0.0","0.0","0.0","0.00111982082867","0.0126913027249","0.00149309443822","0.000373273609556","0.0","0.0","0.000373273609556","0.0","0.00111982082867","0.0","0.0","0.0","0.0","0.0","0.0","0.0","0.0","0.0","0.0","0.000746547219112","0.0","0.000746547219112","0.0","0.0","0.0","0.0","0.000373273609556","0.0","0.000746547219112","0.0","0.0","0.000373273609556","0.0","0.0","0.0","0.0","0.0","0.00298618887645","0.0","0.0","0.0","0.000373273609556","0.0","0.0","0.0","0.000373273609556","0.0","0.0","0.0","0.000373273609556","0.0","0.0","0.0","0.000746547219112","0.000746547219112","0.0","0.0","0.0","0.0","0.0","0.000746547219112","0.000373273609556","0.000373273609556","0.0","0.0","0.000373273609556","0.0","0.000373273609556","0.0","0.0","0.0","0.0","0.0","0.0","0.000373273609556","0.0","0.0","0.0","0.0","0.0","0.0","0.0","0.0","0.0","0.0","0.0","0.0","0.0","0.0","0.000373273609556","0.0","0.0","0.0","0.000373273609556","0.0","0.0","0.000373273609556","0.000373273609556","0.000746547219112","-"
"2016-10-15","Walmart","0.0","0.0","0.000447227191413","0.0","0.0","0.000447227191413","0.0","0.0","0.000447227191413","0.0","0.0","0.000894454382826","0.0","0.0","0.0","0.000447227191413","0.00626118067979","0.0","0.0","0.0","0.0","0.0","0.0","0.0","0.0","0.0","0.0","0.0","0.0","0.0","0.0","0.0","0.0","0.0","0.0","0.0","0.0","0.0120751341682","0.0","0.0","0.0","0.0","0.0","0.000447227191413","0.0","0.0","0.0","0.000894454382826","0.0","0.0","0.000447227191413","0.0","0.0","0.0","0.0","0.0","0.0","0.000894454382826","0.0","0.0","0.00313059033989","0.0","0.000894454382826","0.0","0.0","0.00134168157424","0.000447227191413","0.00313059033989","0.0","0.0","0.0","0.0","0.0","0.000894454382826","0.0","0.000447227191413","0.0","0.0","0.0","0.0111806797853","0.00134168157424","0.0","0.0","0.000894454382826","0.0","0.0","0.000894454382826","0.0","0.0","0.0","0.0","0.0","0.0","0.0","0.0","0.0","0.000447227191413","0.00134168157424","0.000447227191413","0.00134168157424","0.0","0.0","0.0","0.0","0.000894454382826","0.0","0.000447227191413","0.0","0.000447227191413","0.000894454382826","0.0","0.0","0.0","0.0","0.0","0.00402504472272","0.0","0.0","0.0","0.000894454382826","0.0","0.0","0.0","0.0","0.0","0.0","0.0","0.0","0.0","0.0","0.0","0.0","0.000447227191413","0.0","0.000447227191413","0.0","0.0","0.0","0.0","0.0","0.0","0.0","0.0","0.0","0.0","0.0","0.0","0.0","0.0","0.0","0.0","0.0","0.00223613595707","0.0","0.0","0.0","0.0","0.0","0.0","0.0","0.0","0.0","0.0","0.0","0.0","0.0","0.0","0.000447227191413","0.0","0.0","0.0","0.0","0.0","0.0","0.0","0.0","0.00134168157424","+"
"2016-10-16","Walmart","0.0","0.0","0.0","0.0","0.000384763370527","0.0","0.0","0.0","0.000769526741054","0.0","0.0","0.000769526741054","0.0","0.0","0.0","0.000384763370527","0.00961908426318","0.0","0.0","0.0","0.0","0.0","0.000769526741054","0.0","0.000384763370527","0.0","0.0","0.0","0.0","0.0","0.0","0.000384763370527","0.0","0.0","0.0","0.0","0.0","0.013851481339","0.0","0.0","0.0","0.0","0.0","0.000384763370527","0.0","0.0","0.0","0.00115429011158","0.0","0.000384763370527","0.000769526741054","0.0","0.0","0.0","0.000384763370527","0.0","0.0","0.000769526741054","0.0","0.0","0.00307810696422","0.0","0.000384763370527","0.0","0.0","0.00384763370527","0.0","0.00230858022316","0.000384763370527","0.000384763370527","0.0","0.000384763370527","0.0","0.000769526741054","0.0","0.0","0.0","0.000384763370527","0.0","0.0150057714506","0.00269334359369","0.0","0.0","0.0","0.0","0.0","0.0","0.0","0.0","0.0","0.0","0.0","0.0","0.0","0.000384763370527","0.0","0.0","0.00115429011158","0.0","0.00230858022316","0.0","0.0","0.0","0.0","0.0","0.0","0.000384763370527","0.0","0.000769526741054","0.000384763370527","0.0","0.0","0.0","0.0","0.0","0.0042323970758","0.0","0.0","0.0","0.000384763370527","0.0","0.0","0.0","0.0","0.0","0.000384763370527","0.0","0.0","0.0","0.0","0.0","0.00115429011158","0.00192381685264","0.0","0.0","0.0","0.0","0.0","0.0","0.0","0.000384763370527","0.0","0.0","0.0","0.0","0.000384763370527","0.0","0.0","0.000384763370527","0.0","0.0","0.0","0.00115429011158","0.0","0.0","0.0","0.0","0.0","0.0","0.0","0.0","0.0","0.0","0.0","0.0","0.0","0.000384763370527","0.0","0.0","0.0","0.0","0.000384763370527","0.0","0.0","0.000769526741054","0.0","0.000384763370527","-"
"2016-10-17","Walmart","0.0","0.0","0.0","0.0","0.000378931413414","0.0","0.0","0.0","0.0","0.0","0.0","0.00151572565366","0.0","0.0","0.0","0.000378931413414","0.00644183402804","0.0","0.0","0.0","0.0","0.0","0.000378931413414","0.0","0.0","0.0","0.0","0.0","0.000378931413414","0.0","0.0","0.0","0.0","0.000378931413414","0.0","0.0","0.0","0.01553618795","0.0","0.0","0.0","0.0","0.0","0.0","0.0","0.0","0.0","0.00151572565366","0.0","0.0","0.0","0.0","0.0","0.0","0.0","0.0","0.0","0.00151572565366","0.0","0.000378931413414","0.00113679424024","0.0","0.000378931413414","0.0","0.0","0.00189465706707","0.000757862826828","0.00341038272073","0.0","0.0","0.0","0.0","0.0","0.000378931413414","0.0","0.0","0.0","0.0","0.000378931413414","0.00985221674877","0.00113679424024","0.000378931413414","0.0","0.0","0.000757862826828","0.0","0.000378931413414","0.0","0.0","0.0","0.0","0.0","0.0","0.0","0.0","0.0","0.0","0.000757862826828","0.0","0.00151572565366","0.0","0.000378931413414","0.0","0.0","0.000757862826828","0.0","0.000378931413414","0.000378931413414","0.000757862826828","0.0","0.0","0.0","0.0","0.0","0.0","0.00492610837438","0.0","0.0","0.0","0.0","0.0","0.0","0.0","0.0","0.0","0.0","0.0","0.0","0.0","0.0","0.0","0.00113679424024","0.00113679424024","0.0","0.0","0.0","0.0","0.0","0.0","0.0","0.0","0.0","0.0","0.0","0.0","0.000378931413414","0.0","0.0","0.0","0.0","0.0","0.0","0.00227358848049","0.0","0.0","0.0","0.0","0.0","0.0","0.0","0.0","0.0","0.0","0.000378931413414","0.0","0.0","0.0","0.0","0.0","0.0","0.0","0.0","0.0","0.0","0.000757862826828","0.0","0.00189465706707","-"
"2016-10-18","Walmart","0.0","0.0","0.0","0.000377928949358","0.0","0.0","0.0","0.0","0.0","0.0","0.0","0.000755857898715","0.0","0.0","0.0","0.000377928949358","0.00566893424036","0.0","0.0","0.0","0.0","0.0","0.000755857898715","0.000377928949358","0.000755857898715","0.0","0.000377928949358","0.0","0.0","0.0","0.0","0.0","0.0","0.0","0.0","0.0","0.0","0.00944822373394","0.0","0.0","0.0","0.0","0.0","0.0","0.0","0.0","0.0","0.000377928949358","0.0","0.0","0.0","0.0","0.0","0.0","0.0","0.000377928949358","0.0","0.000755857898715","0.0","0.0","0.000377928949358","0.0","0.00151171579743","0.0","0.0","0.000755857898715","0.0","0.00151171579743","0.0","0.0","0.0","0.0","0.0","0.000377928949358","0.0","0.0","0.0","0.0","0.000377928949358","0.00755857898715","0.00151171579743","0.000377928949358","0.000377928949358","0.0","0.0","0.0","0.0","0.0","0.000377928949358","0.0","0.0","0.0","0.0","0.0","0.0","0.0","0.000755857898715","0.00113378684807","0.0","0.000755857898715","0.0","0.0","0.0","0.0","0.0","0.0","0.0","0.0","0.000377928949358","0.000377928949358","0.0","0.0","0.0","0.0","0.0","0.00377928949358","0.0","0.0","0.0","0.0","0.0","0.000377928949358","0.0","0.0","0.0","0.0","0.0","0.0","0.0","0.0","0.0","0.000755857898715","0.000755857898715","0.0","0.0","0.0","0.0","0.0","0.0","0.0","0.0","0.0026455026455","0.0","0.0","0.0","0.000377928949358","0.0","0.0","0.000755857898715","0.0","0.0","0.0","0.00226757369615","0.0","0.0","0.0","0.0","0.0","0.0","0.0","0.0","0.0","0.0","0.0","0.0","0.0","0.0","0.0","0.0","0.0","0.0","0.000755857898715","0.0","0.0","0.00113378684807","0.0","0.000377928949358","="
"2016-10-21","Walmart","0.0","0.0","0.0","0.0","0.0","0.0","0.0","0.0","0.00108656283955","0.0","0.0","0.000362187613184","0.0","0.000362187613184","0.0","0.0","0.00615718942412","0.0","0.0","0.000362187613184","0.0","0.0","0.000362187613184","0.00108656283955","0.000724375226367","0.0","0.000362187613184","0.0","0.0","0.0","0.0","0.0","0.0","0.0","0.0","0.0","0.0","0.013763129301","0.0","0.0","0.0","0.0","0.0","0.0","0.0","0.0","0.0","0.000724375226367","0.0","0.000724375226367","0.00108656283955","0.0","0.0","0.0","0.0","0.00108656283955","0.0","0.000362187613184","0.0","0.0","0.0","0.000362187613184","0.000362187613184","0.0","0.0","0.00144875045273","0.0","0.00253531329229","0.0","0.0","0.0","0.0","0.0","0.000724375226367","0.0","0.0","0.0","0.0","0.000362187613184","0.00833031510322","0.00144875045273","0.000362187613184","0.0","0.0","0.0","0.0","0.000362187613184","0.0","0.000362187613184","0.0","0.0","0.0","0.0","0.0","0.0","0.0","0.0","0.000724375226367","0.0","0.0","0.0","0.0","0.0","0.0","0.00108656283955","0.0","0.000724375226367","0.000362187613184","0.000362187613184","0.000724375226367","0.0","0.0","0.0","0.0","0.0","0.00253531329229","0.000362187613184","0.0","0.0","0.0","0.0","0.0","0.0","0.0","0.0","0.0","0.0","0.0","0.0","0.0","0.000362187613184","0.000362187613184","0.000724375226367","0.0","0.000362187613184","0.0","0.0","0.0","0.0","0.000362187613184","0.0","0.000362187613184","0.0","0.0","0.0","0.0","0.0","0.000362187613184","0.000724375226367","0.0","0.0","0.0","0.00144875045273","0.0","0.0","0.0","0.0","0.0","0.0","0.0","0.00144875045273","0.0","0.0","0.000362187613184","0.0","0.000362187613184","0.0","0.0","0.0","0.0","0.0","0.0","0.0","0.0","0.000362187613184","0.0","0.000362187613184","+"
"2016-10-22","Walmart","0.0","0.0","0.0","0.0","0.0","0.0","0.0","0.0","0.0","0.0","0.0","0.000726480203414","0.0","0.0","0.0","0.0","0.00544860152561","0.000363240101707","0.0","0.0","0.0","0.0","0.000363240101707","0.000726480203414","0.0","0.0","0.0","0.0","0.0","0.0","0.0","0.0","0.0","0.0","0.0","0.0","0.000363240101707","0.00653832183073","0.0","0.0","0.0","0.0","0.0","0.0","0.000363240101707","0.0","0.0","0.000726480203414","0.0","0.0","0.0","0.0","0.0","0.0","0.0","0.000726480203414","0.0","0.000726480203414","0.0","0.0","0.0","0.0","0.000363240101707","0.0","0.0","0.00290592081366","0.0","0.00145296040683","0.0","0.0","0.0","0.0","0.0","0.000363240101707","0.0","0.0","0.0","0.0","0.000363240101707","0.0127134035598","0.00108972030512","0.0","0.0","0.0","0.0","0.0","0.0","0.0","0.000363240101707","0.0","0.0","0.0","0.0","0.0","0.0","0.0","0.000363240101707","0.000726480203414","0.000726480203414","0.00108972030512","0.0","0.0","0.0","0.000363240101707","0.00108972030512","0.0","0.000363240101707","0.0","0.0","0.000726480203414","0.0","0.0","0.0","0.0","0.0","0.00326916091537","0.0","0.000363240101707","0.0","0.0","0.0","0.000363240101707","0.0","0.0","0.0","0.0","0.0","0.0","0.0","0.0","0.0","0.000726480203414","0.000726480203414","0.000363240101707","0.0","0.0","0.0","0.0","0.0","0.0","0.000726480203414","0.000363240101707","0.0","0.000363240101707","0.0","0.0","0.0","0.0","0.0","0.0","0.0","0.0","0.00108972030512","0.0","0.0","0.0","0.0","0.0","0.0","0.0","0.0","0.0","0.0","0.000363240101707","0.0","0.0","0.0","0.000363240101707","0.0","0.0","0.0","0.0","0.0","0.0","0.0","0.000363240101707","0.00108972030512","+"
"2016-10-23","Walmart","0.0","0.0","0.0","0.0","0.0","0.0","0.0","0.0","0.0","0.0","0.0","0.00261324041812","0.0","0.0","0.0","0.0","0.00827526132404","0.0","0.0","0.0","0.0","0.0","0.000871080139373","0.0","0.0","0.0","0.000435540069686","0.0","0.000435540069686","0.0","0.0","0.0","0.0","0.0","0.0","0.0","0.0","0.0121951219512","0.0","0.0","0.0","0.0","0.0","0.000435540069686","0.0","0.0","0.0","0.00217770034843","0.0","0.000435540069686","0.0","0.0","0.0","0.0","0.0","0.0","0.0","0.00261324041812","0.0","0.000435540069686","0.0","0.0","0.000435540069686","0.0","0.0","0.0030487804878","0.0","0.0030487804878","0.0","0.000435540069686","0.0","0.0","0.0","0.00261324041812","0.0","0.0","0.0","0.0","0.0","0.0100174216028","0.00217770034843","0.0","0.0","0.0","0.000435540069686","0.0","0.0","0.0","0.000871080139373","0.0","0.0","0.0","0.0","0.000435540069686","0.0","0.0","0.000871080139373","0.000871080139373","0.000435540069686","0.00174216027875","0.0","0.000435540069686","0.0","0.000435540069686","0.00130662020906","0.0","0.000435540069686","0.0","0.0","0.000871080139373","0.000871080139373","0.0","0.0","0.0","0.0","0.00217770034843","0.0","0.0","0.0","0.0","0.0","0.0","0.0","0.000435540069686","0.0","0.000871080139373","0.0","0.0","0.0","0.0","0.0","0.000435540069686","0.000435540069686","0.000435540069686","0.0","0.0","0.0","0.0","0.0","0.0","0.0","0.00130662020906","0.0","0.0","0.0","0.000435540069686","0.0","0.000435540069686","0.000435540069686","0.0","0.0","0.0","0.00174216027875","0.0","0.0","0.0","0.0","0.0","0.0","0.0","0.0","0.0","0.0","0.0","0.0","0.0","0.0","0.0","0.0","0.0","0.0","0.000435540069686","0.0","0.0","0.00174216027875","0.000871080139373","0.000871080139373","+"
"2016-10-24","Walmart","0.0","0.0","0.0","0.0","0.0","0.0","0.0","0.0","0.000369549150037","0.0","0.0","0.00110864745011","0.0","0.000369549150037","0.0","0.000369549150037","0.00628233555063","0.0","0.0","0.000369549150037","0.0","0.0","0.000739098300074","0.0","0.000369549150037","0.0","0.0","0.0","0.000369549150037","0.0","0.0","0.0","0.0","0.000369549150037","0.0","0.0","0.0","0.0144124168514","0.0","0.0","0.0","0.0","0.0","0.0","0.0","0.0","0.0","0.00147819660015","0.0","0.0","0.000369549150037","0.000369549150037","0.0","0.0","0.0","0.0","0.0","0.00110864745011","0.0","0.0","0.0","0.0","0.000739098300074","0.0","0.0","0.00184774575018","0.0","0.00147819660015","0.000369549150037","0.0","0.0","0.000739098300074","0.0","0.00147819660015","0.0","0.0","0.000739098300074","0.0","0.0","0.00923872875092","0.00147819660015","0.0","0.0","0.0","0.0","0.0","0.000369549150037","0.0","0.0","0.0","0.0","0.000369549150037","0.0","0.000369549150037","0.0","0.000369549150037","0.000739098300074","0.000369549150037","0.0","0.00221729490022","0.0","0.000369549150037","0.0","0.000369549150037","0.000369549150037","0.0","0.0","0.000369549150037","0.0","0.000369549150037","0.0","0.0","0.0","0.0","0.0","0.00406504065041","0.0","0.000369549150037","0.0","0.0","0.0","0.0","0.0","0.000369549150037","0.0","0.0","0.000369549150037","0.0","0.0","0.0","0.0","0.000369549150037","0.00110864745011","0.000369549150037","0.0","0.000739098300074","0.0","0.0","0.0","0.0","0.000739098300074","0.0","0.0","0.000369549150037","0.0","0.0","0.0","0.0","0.0","0.0","0.0","0.0","0.00147819660015","0.0","0.0","0.0","0.0","0.0","0.0","0.0","0.0","0.0","0.0","0.000369549150037","0.0","0.0","0.000369549150037","0.0","0.0","0.0","0.0","0.000369549150037","0.0","0.0","0.0","0.000369549150037","0.000369549150037","+"
"2016-10-25","Walmart","0.0","0.0","0.0","0.0","0.0","0.0","0.0","0.0","0.000391083300743","0.0","0.0","0.00117324990223","0.0","0.0","0.000782166601486","0.000391083300743","0.00860383261635","0.0","0.0","0.0","0.0","0.0","0.000782166601486","0.0","0.000391083300743","0.0","0.0","0.0","0.000391083300743","0.0","0.000391083300743","0.0","0.0","0.0","0.0","0.0","0.0","0.0101681658193","0.0","0.0","0.0","0.0","0.0","0.0","0.0","0.0","0.0","0.000391083300743","0.0","0.000391083300743","0.000391083300743","0.0","0.0","0.0","0.0","0.0","0.000782166601486","0.00117324990223","0.0","0.000391083300743","0.0","0.000391083300743","0.000391083300743","0.0","0.0","0.00234649980446","0.0","0.0027375831052","0.0","0.0","0.0","0.000391083300743","0.0","0.00234649980446","0.0","0.0","0.000391083300743","0.0","0.0","0.00977708251858","0.00117324990223","0.0","0.0","0.0","0.000391083300743","0.0","0.000391083300743","0.0","0.000391083300743","0.0","0.0","0.000391083300743","0.0","0.0","0.0","0.0","0.0","0.000391083300743","0.0","0.00117324990223","0.0","0.0","0.0","0.000391083300743","0.000782166601486","0.0","0.000391083300743","0.000391083300743","0.0","0.000782166601486","0.000391083300743","0.0","0.0","0.0","0.0","0.00156433320297","0.0","0.0","0.0","0.0","0.0","0.000391083300743","0.0","0.0","0.0","0.0","0.0","0.0","0.0","0.0","0.000391083300743","0.000782166601486","0.00195541650372","0.000391083300743","0.0","0.0","0.0","0.0","0.0","0.0","0.0","0.000782166601486","0.0","0.0","0.0","0.0","0.0","0.0","0.000782166601486","0.0","0.0","0.0","0.00195541650372","0.0","0.0","0.0","0.0","0.0","0.0","0.0","0.000782166601486","0.0","0.0","0.0","0.0","0.0","0.0","0.0","0.0","0.0","0.0","0.0","0.0","0.0","0.0","0.000782166601486","0.000782166601486","+"
"2016-10-28","Walmart","0.0","0.0","0.000369685767098","0.0","0.0","0.000369685767098","0.0","0.0","0.000369685767098","0.0","0.0","0.0","0.0","0.0","0.0","0.00110905730129","0.00702402957486","0.0","0.0","0.000739371534196","0.0","0.0","0.00147874306839","0.0","0.00110905730129","0.0","0.0","0.0","0.0","0.0","0.0","0.0","0.0","0.0","0.0","0.0","0.0","0.0118299445471","0.0","0.0","0.0","0.000369685767098","0.0","0.000369685767098","0.000369685767098","0.0","0.0","0.00147874306839","0.0","0.0","0.000369685767098","0.0","0.0","0.0","0.0","0.0","0.0","0.0","0.0","0.0","0.000369685767098","0.000369685767098","0.00110905730129","0.0","0.0","0.00184842883549","0.0","0.00443622920518","0.0","0.000369685767098","0.0","0.000369685767098","0.0","0.000739371534196","0.000369685767098","0.0","0.000369685767098","0.0","0.0","0.00813308687616","0.000739371534196","0.00110905730129","0.0","0.0","0.0","0.0","0.0","0.0","0.0","0.0","0.0","0.0","0.000739371534196","0.0","0.0","0.0","0.0","0.000739371534196","0.0","0.000739371534196","0.0","0.0","0.0","0.000369685767098","0.00147874306839","0.0","0.000369685767098","0.0","0.0","0.0","0.0","0.0","0.0","0.0","0.0","0.00221811460259","0.0","0.0","0.0","0.0","0.0","0.0","0.0","0.0","0.0","0.0","0.000369685767098","0.0","0.0","0.0","0.000369685767098","0.000739371534196","0.00147874306839","0.000369685767098","0.0","0.0","0.0","0.0","0.0","0.0","0.0","0.000369685767098","0.0","0.000739371534196","0.0","0.0","0.0","0.0","0.0","0.0","0.0","0.0","0.000739371534196","0.0","0.0","0.0","0.0","0.0","0.0","0.0","0.0","0.0","0.0","0.0","0.0","0.0","0.0","0.0","0.0","0.0","0.0","0.0","0.0","0.0","0.000739371534196","0.00110905730129","0.00147874306839","-"
"2016-10-29","Walmart","0.0","0.0","0.0","0.0","0.0","0.0","0.0","0.0","0.0","0.0","0.0","0.0","0.0","0.0","0.000381097560976","0.0","0.0118140243902","0.0","0.0","0.0","0.0","0.0","0.000762195121951","0.0","0.0","0.0","0.0","0.0","0.0","0.0","0.0","0.0","0.0","0.0","0.0","0.0","0.0","0.0125762195122","0.0","0.0","0.0","0.0","0.0","0.000381097560976","0.0","0.0","0.0","0.0030487804878","0.0","0.0","0.0","0.0","0.0","0.0","0.0","0.0","0.0","0.0","0.0","0.0","0.000762195121951","0.000762195121951","0.000762195121951","0.0","0.0","0.00114329268293","0.000381097560976","0.00495426829268","0.0","0.0","0.0","0.0","0.0","0.000762195121951","0.0","0.0","0.0","0.0","0.000381097560976","0.0110518292683","0.000762195121951","0.0","0.0","0.0","0.0","0.0","0.00114329268293","0.0","0.000381097560976","0.0","0.0","0.000381097560976","0.0","0.0","0.0","0.0","0.000762195121951","0.00114329268293","0.0","0.0015243902439","0.0","0.0","0.0","0.0","0.00114329268293","0.0","0.000381097560976","0.0","0.0","0.000762195121951","0.0","0.0","0.0","0.0","0.0","0.00266768292683","0.0","0.0","0.0","0.000381097560976","0.0","0.0","0.0","0.000381097560976","0.0","0.0","0.0","0.0","0.0","0.0","0.0","0.00114329268293","0.0","0.0","0.000762195121951","0.0","0.0","0.0","0.0","0.000381097560976","0.0","0.0","0.0","0.000381097560976","0.0","0.0","0.0","0.0","0.000381097560976","0.0","0.0","0.0","0.000762195121951","0.0","0.000381097560976","0.0","0.0","0.0","0.0","0.0","0.0","0.0","0.0","0.0","0.0","0.0","0.000381097560976","0.0","0.0","0.0","0.0","0.000762195121951","0.0","0.0","0.0015243902439","0.000381097560976","0.000381097560976","-"
"2016-10-30","Walmart","0.0","0.0","0.000385951370127","0.0","0.0","0.0","0.0","0.0","0.000771902740255","0.0","0.0","0.000771902740255","0.0","0.0","0.0","0.000771902740255","0.0084909301428","0.0","0.0","0.000385951370127","0.0","0.0","0.0","0.000385951370127","0.0","0.0","0.0","0.0","0.0","0.0","0.0","0.0","0.0","0.000385951370127","0.0","0.0","0.0","0.0104206869934","0.0","0.0","0.0","0.0","0.0","0.0","0.0","0.0","0.0","0.00115785411038","0.0","0.0","0.000771902740255","0.0","0.0","0.0","0.0","0.000385951370127","0.0","0.000771902740255","0.0","0.0","0.0","0.0","0.000385951370127","0.0","0.0","0.00308761096102","0.000385951370127","0.00270165959089","0.0","0.0","0.0","0.0","0.0","0.000385951370127","0.0","0.0","0.0","0.0","0.000771902740255","0.0084909301428","0.000385951370127","0.000385951370127","0.0","0.0","0.0","0.0","0.00115785411038","0.0","0.000771902740255","0.0","0.0","0.0","0.0","0.0","0.0","0.0","0.000385951370127","0.0","0.0","0.00192975685064","0.0","0.0","0.0","0.000385951370127","0.00154380548051","0.0","0.00192975685064","0.0","0.0","0.000385951370127","0.0","0.0","0.0","0.0","0.0","0.0042454650714","0.0","0.0","0.0","0.0","0.0","0.000385951370127","0.0","0.0","0.0","0.0","0.0","0.0","0.0","0.0","0.000385951370127","0.00154380548051","0.00154380548051","0.000385951370127","0.0","0.0","0.0","0.0","0.0","0.0","0.0","0.000385951370127","0.0","0.0","0.0","0.0","0.0","0.0","0.00115785411038","0.0","0.0","0.0","0.00192975685064","0.0","0.0","0.0","0.0","0.0","0.000385951370127","0.0","0.000385951370127","0.0","0.0","0.000385951370127","0.0","0.0","0.0","0.0","0.0","0.0","0.0","0.0","0.0","0.0","0.000771902740255","0.00115785411038","0.00231570822076","+"
"2016-10-31","Walmart","0.000390320062451","0.0","0.0","0.0","0.0","0.0","0.000390320062451","0.0","0.000390320062451","0.0","0.0","0.0015612802498","0.0","0.0","0.0","0.0","0.0101483216237","0.0","0.0","0.000390320062451","0.0","0.0","0.0015612802498","0.00117096018735","0.0","0.0","0.0","0.0","0.0","0.0","0.0","0.0","0.0","0.0","0.0","0.0","0.0","0.0160031225605","0.0","0.0","0.0","0.0","0.0","0.000780640124902","0.0","0.0","0.0","0.0015612802498","0.0","0.0","0.000390320062451","0.0","0.0","0.0","0.0","0.00117096018735","0.000390320062451","0.0015612802498","0.0","0.0","0.0","0.0","0.000390320062451","0.0","0.0","0.000390320062451","0.000390320062451","0.00195160031226","0.0","0.000780640124902","0.0","0.0","0.0","0.000390320062451","0.0","0.0","0.0","0.0","0.0","0.0109289617486","0.00234192037471","0.0","0.0","0.0","0.0","0.0","0.0","0.0","0.000390320062451","0.0","0.0","0.0","0.0","0.0","0.0","0.0","0.0","0.000780640124902","0.0","0.000390320062451","0.0","0.0","0.0","0.0","0.000390320062451","0.0","0.0015612802498","0.0","0.000390320062451","0.00117096018735","0.00117096018735","0.0","0.0","0.0","0.0","0.00234192037471","0.000390320062451","0.0","0.0","0.0","0.0","0.0","0.0","0.00117096018735","0.0","0.0","0.000390320062451","0.0","0.0","0.0","0.0","0.000780640124902","0.000390320062451","0.0","0.000780640124902","0.0","0.0","0.0","0.0","0.0","0.0","0.000390320062451","0.0","0.0","0.0","0.0","0.0","0.0","0.000390320062451","0.0","0.0","0.0","0.0015612802498","0.0","0.0","0.0","0.0","0.0","0.0","0.0","0.0","0.0","0.0","0.0","0.0","0.0","0.0","0.0","0.0","0.0","0.0","0.000390320062451","0.0","0.0","0.00195160031226","0.0113192818111","0.0","="
"2016-11-01","Walmart","0.0","0.0","0.0","0.0","0.0","0.0","0.0","0.0","0.0","0.0","0.0","0.000803535556448","0.0","0.0","0.0","0.000401767778224","0.00642828445159","0.0","0.0","0.0","0.0","0.0","0.000803535556448","0.000803535556448","0.0","0.0","0.000401767778224","0.0","0.0","0.0","0.0","0.0","0.0","0.0","0.0","0.0","0.0","0.0112494977903","0.0","0.000401767778224","0.0","0.0","0.0","0.0","0.0","0.0","0.0","0.000803535556448","0.0","0.0","0.0","0.000401767778224","0.000401767778224","0.0","0.0","0.000803535556448","0.0","0.000803535556448","0.000401767778224","0.0","0.0","0.000401767778224","0.0","0.0","0.0","0.00200883889112","0.000803535556448","0.00120530333467","0.0","0.000401767778224","0.0","0.000401767778224","0.0","0.000401767778224","0.0","0.000401767778224","0.0","0.0","0.000803535556448","0.0124548011249","0.00120530333467","0.0","0.0","0.0","0.0","0.0","0.0","0.0","0.0","0.0","0.0","0.0","0.0","0.0","0.0","0.0","0.000401767778224","0.000401767778224","0.0","0.000803535556448","0.0","0.0","0.0","0.0","0.0","0.0","0.000401767778224","0.0","0.000401767778224","0.0","0.0","0.0","0.0","0.0","0.0","0.00120530333467","0.0","0.0","0.0","0.0","0.0","0.0","0.0","0.0","0.0","0.0","0.000401767778224","0.0","0.0","0.0","0.0","0.0","0.000401767778224","0.0","0.0","0.0","0.0","0.0","0.0","0.000401767778224","0.0","0.0","0.0","0.0","0.0","0.0","0.0","0.0","0.000401767778224","0.0","0.0","0.0","0.000803535556448","0.0","0.0","0.0","0.0","0.0","0.0","0.0","0.0","0.0","0.0","0.0","0.0","0.0","0.000401767778224","0.0","0.0","0.0","0.0","0.000401767778224","0.0","0.0","0.0","0.0016070711129","0.000803535556448","-"
"2016-11-04","Walmart","0.0","0.0","0.0","0.0","0.0","0.0","0.0","0.000413564929694","0.0","0.0","0.0","0.0","0.0","0.0","0.0","0.000827129859388","0.00413564929694","0.0","0.0","0.0","0.0","0.0","0.000413564929694","0.000827129859388","0.0","0.0","0.0","0.0","0.0","0.0","0.0","0.0","0.0","0.000827129859388","0.0","0.0","0.0","0.0128205128205","0.0","0.0","0.0","0.0","0.0","0.0","0.0","0.0","0.0","0.00248138957816","0.0","0.0","0.0","0.0","0.0","0.0","0.0","0.000827129859388","0.0","0.0","0.0","0.000413564929694","0.000413564929694","0.0","0.000827129859388","0.0","0.0","0.00330851943755","0.0","0.00165425971878","0.0","0.0","0.0","0.0","0.0","0.000413564929694","0.0","0.0","0.0","0.0","0.000413564929694","0.00951199338296","0.000413564929694","0.000413564929694","0.0","0.0","0.0","0.000413564929694","0.0","0.0","0.0","0.0","0.0","0.0","0.0","0.0","0.0","0.0","0.000413564929694","0.0","0.0","0.00165425971878","0.0","0.0","0.0","0.0","0.000413564929694","0.0","0.0","0.0","0.0","0.000827129859388","0.0","0.0","0.0","0.0","0.0","0.00289495450786","0.0","0.0","0.0","0.0","0.0","0.0","0.0","0.0","0.0","0.0","0.000413564929694","0.0","0.0","0.0","0.0","0.000413564929694","0.000413564929694","0.0","0.000413564929694","0.0","0.0","0.0","0.0","0.0","0.0","0.000413564929694","0.0","0.0","0.0","0.000827129859388","0.0","0.0","0.000413564929694","0.0","0.0","0.0","0.00124069478908","0.0","0.0","0.0","0.0","0.0","0.0","0.0","0.0","0.0","0.0","0.0","0.0","0.0","0.000413564929694","0.0","0.0","0.0","0.0","0.000413564929694","0.0","0.0","0.0","0.0","0.000413564929694","+"
"2016-11-05","Walmart","0.000389863547758","0.0","0.0","0.0","0.000389863547758","0.0","0.0","0.0","0.0","0.0","0.0","0.000779727095517","0.0","0.0","0.0","0.000389863547758","0.00857699805068","0.0","0.0","0.0","0.0","0.0","0.000389863547758","0.000389863547758","0.0","0.0","0.0","0.0","0.0","0.0","0.000389863547758","0.0","0.0","0.0","0.0","0.0","0.0","0.0132553606238","0.0","0.0","0.0","0.0","0.0","0.0","0.0","0.0","0.0","0.00194931773879","0.0","0.0","0.0","0.0","0.0","0.0","0.0","0.000389863547758","0.0","0.000779727095517","0.0","0.0","0.0","0.0","0.000779727095517","0.0","0.0","0.00428849902534","0.000389863547758","0.00233918128655","0.000389863547758","0.000389863547758","0.0","0.0","0.0","0.000389863547758","0.0","0.0","0.000389863547758","0.0","0.0","0.0140350877193","0.00194931773879","0.0","0.0","0.0","0.0","0.0","0.0","0.0","0.0","0.0","0.0","0.0","0.0","0.0","0.0","0.000389863547758","0.000389863547758","0.00194931773879","0.0","0.00272904483431","0.0","0.0","0.0","0.0","0.0","0.0","0.000389863547758","0.0","0.0","0.000389863547758","0.0","0.0","0.0","0.0","0.0","0.00428849902534","0.0","0.0","0.0","0.0","0.0","0.0","0.0","0.0","0.0","0.0","0.0","0.0","0.0","0.0","0.0","0.0","0.00116959064327","0.0","0.0","0.0","0.0","0.0","0.0","0.0","0.0","0.000389863547758","0.0","0.0","0.0","0.0","0.0","0.0","0.00116959064327","0.0","0.0","0.0","0.00116959064327","0.0","0.0","0.0","0.0","0.0","0.0","0.0","0.0","0.0","0.0","0.0","0.0","0.0","0.000389863547758","0.0","0.0","0.0","0.0","0.000389863547758","0.0","0.0","0.00116959064327","0.0","0.000389863547758","+"
"2016-11-06","Walmart","0.000386398763524","0.0","0.0","0.0","0.0","0.0","0.0","0.0","0.000386398763524","0.0","0.0","0.000386398763524","0.0","0.000386398763524","0.0","0.0","0.00772797527048","0.0","0.0","0.000386398763524","0.0","0.0","0.000386398763524","0.000386398763524","0.0","0.0","0.000386398763524","0.0","0.0","0.0","0.0","0.0","0.0","0.000386398763524","0.0","0.0","0.0","0.0119783616692","0.0","0.0","0.0","0.0","0.0","0.0","0.0","0.0","0.0","0.0015455950541","0.0","0.0","0.000386398763524","0.000386398763524","0.0","0.0","0.0","0.000386398763524","0.0","0.000386398763524","0.0","0.0","0.0","0.0","0.0","0.0","0.0","0.00270479134467","0.000386398763524","0.00347758887172","0.0","0.0","0.0","0.0","0.0","0.000386398763524","0.0","0.0","0.0","0.0","0.000772797527048","0.0158423493045","0.00309119010819","0.0","0.0","0.0","0.0","0.0","0.0","0.0","0.000386398763524","0.0","0.0","0.0","0.0","0.000386398763524","0.0","0.0","0.000772797527048","0.00115919629057","0.0","0.000772797527048","0.0","0.0","0.0","0.00115919629057","0.0","0.0","0.0","0.0","0.0","0.000386398763524","0.0","0.0","0.0","0.0","0.0","0.00579598145286","0.0","0.0","0.0","0.0","0.0","0.0","0.0","0.0","0.0","0.000772797527048","0.0","0.000386398763524","0.0","0.0","0.0","0.00115919629057","0.00115919629057","0.00115919629057","0.0","0.000386398763524","0.0","0.0","0.0","0.0","0.0","0.000386398763524","0.0","0.0","0.0","0.0","0.0","0.0","0.00115919629057","0.0","0.0","0.0","0.00231839258114","0.0","0.0","0.0","0.0","0.0","0.0","0.0","0.0","0.0","0.0","0.0","0.0","0.0","0.0","0.0","0.0","0.0","0.0","0.00193199381762","0.0","0.0","0.0","0.0","0.00231839258114","+"
"2016-11-07","Walmart","0.0","0.0","0.0","0.0","0.00127334465195","0.0","0.0","0.0","0.000424448217317","0.0","0.0","0.000848896434635","0.0","0.0","0.0","0.000848896434635","0.00679117147708","0.0","0.0","0.0","0.0","0.0","0.000424448217317","0.000424448217317","0.0","0.0","0.0","0.0","0.0","0.000424448217317","0.0","0.0","0.0","0.000848896434635","0.0","0.0","0.0","0.0131578947368","0.0","0.0","0.0","0.0","0.0","0.0","0.0","0.0","0.0","0.0025466893039","0.0","0.0","0.000424448217317","0.0","0.0","0.0","0.0","0.000424448217317","0.0","0.000848896434635","0.0","0.0","0.0","0.00169779286927","0.00679117147708","0.0","0.0","0.00297113752122","0.000424448217317","0.0025466893039","0.0","0.0","0.0","0.0","0.0","0.00169779286927","0.0","0.0","0.0","0.0","0.0","0.0131578947368","0.0025466893039","0.000424448217317","0.0","0.0","0.0","0.0","0.0","0.0","0.000848896434635","0.0","0.0","0.0","0.0","0.0","0.0","0.0","0.000424448217317","0.000848896434635","0.0","0.000424448217317","0.0","0.0","0.0","0.0","0.000424448217317","0.0","0.000848896434635","0.0","0.0","0.000424448217317","0.0","0.0","0.0","0.0","0.0","0.00339558573854","0.0","0.0","0.0","0.0","0.0","0.0","0.0","0.000424448217317","0.0","0.0","0.0","0.0","0.0","0.0","0.000424448217317","0.000424448217317","0.0025466893039","0.0","0.000424448217317","0.0","0.0","0.0","0.0","0.0","0.00127334465195","0.0","0.0","0.000424448217317","0.0","0.0","0.0","0.0","0.0","0.0","0.0","0.0","0.000424448217317","0.0","0.0","0.0","0.0","0.0","0.0","0.0","0.000424448217317","0.0","0.0","0.000424448217317","0.0","0.0","0.0","0.0","0.0","0.0","0.0","0.0","0.0","0.0","0.000848896434635","0.0","0.00169779286927","+"
"2016-11-08","Walmart","0.0","0.0","0.0","0.0","0.0","0.0","0.0","0.0","0.000400641025641","0.0","0.0","0.000801282051282","0.0","0.0","0.0","0.0","0.00841346153846","0.0","0.0","0.0","0.0","0.0","0.000400641025641","0.000400641025641","0.0","0.0","0.0","0.0","0.000400641025641","0.0","0.0","0.0","0.0","0.0","0.0","0.000400641025641","0.0","0.0120192307692","0.0","0.0","0.0","0.0","0.0","0.000400641025641","0.0","0.0","0.0","0.00360576923077","0.0","0.0","0.000400641025641","0.0","0.0","0.0","0.0","0.000400641025641","0.0","0.000801282051282","0.0","0.0","0.000400641025641","0.0","0.00120192307692","0.0","0.0","0.00200320512821","0.000801282051282","0.00320512820513","0.000400641025641","0.0","0.0","0.0","0.0","0.000400641025641","0.0","0.000400641025641","0.0","0.0","0.000400641025641","0.0172275641026","0.000801282051282","0.0","0.0","0.0","0.0","0.0","0.000400641025641","0.0","0.000400641025641","0.0","0.0","0.0","0.0","0.0","0.000400641025641","0.000400641025641","0.000400641025641","0.000801282051282","0.0","0.00120192307692","0.0","0.0","0.0","0.0","0.0","0.0","0.000400641025641","0.0","0.0","0.000400641025641","0.0","0.0","0.0","0.0","0.0","0.00280448717949","0.0","0.000400641025641","0.000400641025641","0.000400641025641","0.0","0.0","0.0","0.0","0.0","0.0","0.0","0.0","0.0","0.0","0.0228365384615","0.0","0.00120192307692","0.0","0.0","0.0","0.0","0.0","0.0","0.0","0.0","0.000400641025641","0.0","0.0","0.0","0.0","0.0","0.0","0.000400641025641","0.0","0.0","0.0","0.0","0.0","0.0","0.0","0.0","0.000801282051282","0.0","0.0","0.0","0.0","0.0","0.0","0.0","0.0","0.0","0.0","0.0","0.0","0.0","0.0","0.0","0.0","0.00120192307692","0.0","0.000801282051282","+"
"2016-11-18","Walmart","0.0","0.0","0.0","0.0","0.0","0.0","0.0","0.0","0.000347342827371","0.0","0.0","0.000347342827371","0.0","0.000694685654741","0.0","0.000694685654741","0.00868357068427","0.0","0.0","0.000347342827371","0.0","0.0","0.0","0.0","0.0","0.0","0.000694685654741","0.0","0.0","0.0","0.000347342827371","0.0","0.0","0.000347342827371","0.0","0.0","0.0","0.0100729419937","0.0","0.0","0.0","0.0","0.0","0.000347342827371","0.0","0.0","0.0","0.00243139979159","0.000347342827371","0.0","0.000347342827371","0.0","0.0","0.0","0.0","0.0","0.0","0.000347342827371","0.0","0.0","0.000347342827371","0.000347342827371","0.0","0.0","0.0","0.00104202848211","0.000694685654741","0.00138937130948","0.0","0.0","0.0","0.0","0.0","0.000694685654741","0.0","0.0","0.0","0.000347342827371","0.000694685654741","0.00729419937478","0.00104202848211","0.0","0.0","0.0","0.0","0.0","0.00104202848211","0.0","0.00173671413685","0.0","0.000694685654741","0.0","0.0","0.0","0.0","0.0","0.000347342827371","0.00173671413685","0.000347342827371","0.00138937130948","0.0","0.0","0.0","0.000347342827371","0.000694685654741","0.0","0.000694685654741","0.0","0.0","0.0","0.0","0.0","0.0","0.0","0.0","0.00243139979159","0.0","0.000347342827371","0.0","0.0","0.0","0.0","0.0","0.0","0.0","0.0","0.0","0.0","0.0","0.000694685654741","0.0","0.00104202848211","0.00104202848211","0.000347342827371","0.0","0.0","0.0","0.0","0.0","0.000347342827371","0.0","0.0","0.0","0.0","0.0","0.000694685654741","0.0","0.0","0.0","0.0","0.0","0.0","0.00104202848211","0.0","0.0","0.0","0.0","0.0","0.0","0.0","0.000694685654741","0.0","0.0","0.0","0.0","0.0","0.0","0.0","0.0","0.000347342827371","0.0","0.0","0.0","0.0","0.000694685654741","0.0","0.000347342827371","+"
"2016-11-19","Walmart","0.0","0.0","0.0","0.0","0.000378644452859","0.0","0.0","0.0","0.0","0.0","0.0","0.000757288905718","0.0","0.000378644452859","0.0","0.000378644452859","0.0147671336615","0.0","0.0","0.000757288905718","0.00151457781144","0.0","0.0","0.000378644452859","0.0","0.0","0.0","0.0","0.0","0.0","0.0","0.0","0.0","0.000378644452859","0.0","0.0","0.0","0.0109806891329","0.0","0.0","0.0","0.0","0.0","0.0","0.0","0.0","0.0","0.000757288905718","0.0","0.0","0.0","0.0","0.0","0.0","0.000378644452859","0.000378644452859","0.0","0.000757288905718","0.0","0.0","0.0","0.0","0.000378644452859","0.0","0.0","0.00189322226429","0.000757288905718","0.00227186671715","0.000378644452859","0.0","0.000378644452859","0.0","0.0","0.00189322226429","0.000378644452859","0.0","0.000378644452859","0.0","0.0","0.0121166224915","0.00113593335858","0.000757288905718","0.0","0.0","0.0","0.0","0.000378644452859","0.0","0.0","0.0","0.0","0.0","0.0","0.0","0.0","0.0","0.0","0.000378644452859","0.0","0.00189322226429","0.0","0.0","0.0","0.0","0.000757288905718","0.0","0.000378644452859","0.0","0.0","0.0","0.000757288905718","0.0","0.0","0.0","0.0","0.00113593335858","0.0","0.0","0.0","0.0","0.0","0.0","0.0","0.0","0.0","0.0","0.0","0.000378644452859","0.0","0.0","0.0","0.0","0.000757288905718","0.0","0.0","0.0","0.0","0.0","0.0","0.0","0.000378644452859","0.000378644452859","0.0","0.0","0.0","0.0","0.0","0.000378644452859","0.00227186671715","0.0","0.0","0.0","0.000757288905718","0.0","0.0","0.0","0.0","0.0","0.0","0.0","0.0","0.0","0.0","0.000378644452859","0.0","0.0","0.000757288905718","0.0","0.0","0.0","0.0","0.0","0.0","0.0","0.0","0.000378644452859","0.00189322226429","+"
"2016-11-20","Walmart","0.0","0.0","0.0","0.0","0.0","0.0","0.0","0.0","0.0","0.0","0.0","0.00110091743119","0.0","0.000366972477064","0.0","0.000366972477064","0.00917431192661","0.0","0.0","0.00110091743119","0.00110091743119","0.0","0.000366972477064","0.000366972477064","0.000366972477064","0.0","0.000366972477064","0.0","0.0","0.0","0.0","0.0","0.0","0.0","0.0","0.0","0.000733944954128","0.00917431192661","0.0","0.0","0.0","0.0","0.0","0.0","0.0","0.0","0.0","0.00146788990826","0.0","0.0","0.0","0.0","0.0","0.0","0.0","0.000366972477064","0.0","0.00110091743119","0.0","0.0","0.0","0.0","0.000366972477064","0.0","0.0","0.00110091743119","0.000733944954128","0.00366972477064","0.0","0.000366972477064","0.0","0.0","0.0","0.000733944954128","0.0","0.0","0.0","0.0","0.0","0.0102752293578","0.00146788990826","0.0","0.0","0.0","0.0","0.0","0.000366972477064","0.0","0.0","0.0","0.0","0.0","0.0","0.000366972477064","0.0","0.0","0.000366972477064","0.000366972477064","0.0","0.00110091743119","0.0","0.0","0.0","0.0","0.0","0.0","0.000366972477064","0.0","0.0","0.000366972477064","0.0","0.0","0.0","0.0","0.000366972477064","0.00220183486239","0.0","0.0","0.0","0.0","0.0","0.0","0.0","0.0","0.0","0.0","0.0","0.0","0.0","0.0","0.0","0.000366972477064","0.000366972477064","0.0","0.0","0.0","0.0","0.0","0.0","0.0","0.0","0.0","0.0","0.0","0.0","0.0","0.0","0.0","0.000366972477064","0.0","0.0","0.0","0.00110091743119","0.0","0.0","0.0","0.0","0.0","0.0","0.0","0.0","0.0","0.0","0.000366972477064","0.0","0.0","0.0","0.0","0.0","0.0","0.0","0.0","0.0","0.0","0.000733944954128","0.0","0.000733944954128","+"
"2016-11-22","Walmart","0.0","0.0","0.0","0.0","0.0","0.0","0.0","0.0","0.000361794500724","0.0","0.0","0.0","0.0","0.0","0.0","0.000361794500724","0.0123010130246","0.0","0.0","0.0","0.000723589001447","0.0","0.0","0.00108538350217","0.0","0.0","0.0","0.0","0.0","0.0","0.0","0.0","0.0","0.000361794500724","0.0","0.0","0.0","0.00832127351664","0.0","0.0","0.0","0.0","0.0","0.000361794500724","0.0","0.000361794500724","0.0","0.000723589001447","0.0","0.0","0.000361794500724","0.0","0.0","0.0","0.0","0.00108538350217","0.0","0.0","0.0","0.0","0.0","0.000723589001447","0.0","0.0","0.0","0.00217076700434","0.000361794500724","0.00108538350217","0.000723589001447","0.0","0.0","0.0","0.0","0.000361794500724","0.0","0.0","0.000361794500724","0.0","0.0","0.00832127351664","0.000361794500724","0.0","0.0","0.0","0.0","0.0","0.0","0.0","0.00108538350217","0.0","0.0","0.0","0.0","0.000723589001447","0.0","0.0","0.000361794500724","0.000723589001447","0.0","0.00217076700434","0.0","0.000361794500724","0.0","0.000361794500724","0.0","0.0","0.000361794500724","0.0","0.0","0.0","0.0","0.0","0.0","0.0","0.0","0.00180897250362","0.0","0.0","0.0","0.0","0.0","0.000361794500724","0.0","0.00108538350217","0.0","0.0","0.0","0.0","0.0","0.0","0.0","0.000361794500724","0.000723589001447","0.000361794500724","0.0","0.0","0.0","0.0","0.0","0.0","0.000361794500724","0.0","0.0","0.0","0.0","0.000723589001447","0.0","0.000361794500724","0.00108538350217","0.0","0.0","0.0","0.000723589001447","0.0","0.0","0.0","0.0","0.0","0.0","0.0","0.000361794500724","0.0","0.0","0.000361794500724","0.0","0.0","0.0","0.0","0.0","0.0","0.0","0.0","0.0","0.0","0.0","0.0","0.00108538350217","+"
"2016-11-25","Walmart","0.0","0.0","0.0","0.0","0.0","0.0","0.0","0.0","0.0","0.0","0.0","0.000330906684315","0.000330906684315","0.000330906684315","0.0","0.0","0.011581733951","0.0","0.0","0.000330906684315","0.0","0.0","0.00330906684315","0.000330906684315","0.0","0.0","0.0","0.0","0.000330906684315","0.0","0.0","0.0","0.0","0.000330906684315","0.0","0.0","0.0","0.0129053606883","0.0","0.0","0.0","0.0","0.0","0.0","0.0","0.0","0.0","0.00132362673726","0.000330906684315","0.0","0.0","0.0","0.0","0.0","0.000330906684315","0.000330906684315","0.0","0.000330906684315","0.0","0.0","0.0","0.00066181336863","0.00066181336863","0.0","0.0","0.000992720052945","0.000992720052945","0.00066181336863","0.0","0.000330906684315","0.000330906684315","0.000330906684315","0.0","0.00132362673726","0.0","0.000330906684315","0.0","0.0","0.000330906684315","0.0066181336863","0.000992720052945","0.0","0.000330906684315","0.0","0.0","0.0","0.000992720052945","0.0","0.0","0.0","0.000330906684315","0.0","0.0","0.000330906684315","0.0","0.0","0.00132362673726","0.00132362673726","0.00066181336863","0.000992720052945","0.0","0.000330906684315","0.0","0.00066181336863","0.000330906684315","0.0","0.000330906684315","0.0","0.0","0.00066181336863","0.0","0.0","0.0","0.0","0.0","0.00165453342158","0.0","0.00066181336863","0.0","0.0","0.0","0.0","0.0","0.0","0.0","0.0","0.0","0.0","0.0","0.0","0.0","0.000330906684315","0.000992720052945","0.00066181336863","0.0","0.0","0.0","0.0","0.0","0.0","0.0","0.0","0.0","0.000330906684315","0.0","0.0","0.0","0.000330906684315","0.00132362673726","0.0","0.0","0.0","0.00132362673726","0.0","0.0","0.0","0.0","0.0","0.0","0.0","0.0","0.0","0.0","0.0","0.0","0.0","0.000330906684315","0.0","0.0","0.0","0.0","0.000330906684315","0.0","0.0","0.00165453342158","0.0","0.00198544010589","+"
"2016-11-26","Walmart","0.0","0.0","0.0","0.0","0.000760456273764","0.0","0.0","0.0","0.0","0.0","0.0","0.00114068441065","0.0","0.0","0.0","0.0","0.0110266159696","0.0","0.0","0.0","0.000380228136882","0.0","0.00114068441065","0.000380228136882","0.0","0.0","0.0","0.0","0.0","0.0","0.0","0.0","0.0","0.0","0.0","0.0","0.0","0.00760456273764","0.0","0.0","0.0","0.0","0.0","0.000380228136882","0.0","0.0","0.0","0.00190114068441","0.0","0.0","0.0","0.0","0.000380228136882","0.000380228136882","0.0","0.000380228136882","0.0","0.00114068441065","0.0","0.0","0.0","0.0","0.000380228136882","0.0","0.0","0.00152091254753","0.000380228136882","0.00114068441065","0.0","0.0","0.0","0.000380228136882","0.0","0.000760456273764","0.0","0.000380228136882","0.0","0.0","0.000380228136882","0.00874524714829","0.00266159695817","0.0","0.0","0.0","0.0","0.0","0.000380228136882","0.0","0.0","0.0","0.0","0.0","0.0","0.000760456273764","0.0","0.0","0.00114068441065","0.00152091254753","0.0","0.00114068441065","0.0","0.0","0.0","0.0","0.000380228136882","0.0","0.000380228136882","0.0","0.0","0.000760456273764","0.0","0.0","0.0","0.0","0.0","0.00266159695817","0.0","0.0","0.0","0.0","0.0","0.0","0.0","0.0","0.0","0.000380228136882","0.0","0.000380228136882","0.0","0.0","0.0","0.000380228136882","0.000760456273764","0.0","0.0","0.0","0.0","0.0","0.0","0.0","0.0","0.000380228136882","0.0","0.000380228136882","0.0","0.000380228136882","0.0","0.0","0.000380228136882","0.0","0.0","0.0","0.000760456273764","0.0","0.0","0.000380228136882","0.0","0.0","0.0","0.0","0.0","0.0","0.0","0.0","0.0","0.0","0.000380228136882","0.0","0.0","0.0","0.0","0.000380228136882","0.0","0.0","0.000380228136882","0.0","0.00190114068441","-"
"2016-11-27","Walmart","0.0","0.0","0.0","0.0","0.000761324704987","0.0","0.0","0.0","0.000380662352493","0.0","0.0","0.000380662352493","0.0","0.0","0.0","0.0","0.0125618576323","0.0","0.0","0.000380662352493","0.0","0.0","0.000380662352493","0.0","0.0","0.0","0.0","0.0","0.0","0.0","0.000761324704987","0.0","0.0","0.0","0.0","0.0","0.0","0.0114198705748","0.0","0.0","0.0","0.0","0.0","0.0","0.0","0.0","0.0","0.000761324704987","0.0","0.0","0.000380662352493","0.0","0.0","0.0","0.0","0.0","0.0","0.000380662352493","0.0","0.000761324704987","0.0","0.0","0.000761324704987","0.0","0.0","0.000761324704987","0.0","0.00304529881995","0.0","0.0","0.0","0.0","0.0","0.00114198705748","0.0","0.0","0.000380662352493","0.0","0.000761324704987","0.0118005329273","0.00114198705748","0.0","0.0","0.0","0.0","0.0","0.0","0.000380662352493","0.000380662352493","0.0","0.0","0.0","0.0","0.0","0.000380662352493","0.000380662352493","0.00114198705748","0.000380662352493","0.0","0.00114198705748","0.0","0.0","0.0","0.0","0.000761324704987","0.0","0.0","0.0","0.0","0.000380662352493","0.0","0.0","0.0","0.0","0.0","0.0057099352874","0.0","0.0","0.0","0.000380662352493","0.0","0.000380662352493","0.0","0.0","0.0","0.0","0.0","0.0","0.0","0.0","0.0","0.000761324704987","0.0","0.0","0.0","0.0","0.0","0.0","0.0","0.0","0.0","0.0","0.0","0.000761324704987","0.0","0.0","0.0","0.0","0.000380662352493","0.0","0.0","0.0","0.00152264940997","0.0","0.0","0.0","0.0","0.0","0.0","0.0","0.0","0.0","0.000380662352493","0.0","0.0","0.0","0.0","0.0","0.0","0.0","0.0","0.000380662352493","0.0","0.0","0.000761324704987","0.0","0.000761324704987","-"
"2016-11-28","Walmart","0.0","0.0","0.0","0.000360100828232","0.000360100828232","0.0","0.0","0.0","0.0","0.0","0.0","0.00252070579762","0.0","0.000360100828232","0.0","0.000720201656464","0.00756211739287","0.0","0.0","0.000360100828232","0.000360100828232","0.0","0.000720201656464","0.000360100828232","0.000360100828232","0.0","0.0","0.0","0.000360100828232","0.0","0.0","0.0","0.0","0.000360100828232","0.0","0.0","0.0","0.0079222182211","0.0","0.000720201656464","0.00144040331293","0.0","0.0","0.0","0.0","0.0","0.0","0.0010803024847","0.000360100828232","0.000360100828232","0.0","0.0","0.0","0.0","0.0","0.000360100828232","0.0","0.00252070579762","0.0","0.000360100828232","0.000360100828232","0.000720201656464","0.0010803024847","0.000360100828232","0.0","0.00144040331293","0.000720201656464","0.00216060496939","0.000360100828232","0.0","0.0","0.0","0.0","0.000720201656464","0.0","0.0","0.0","0.0","0.00216060496939","0.00720201656464","0.0010803024847","0.000360100828232","0.0","0.0","0.0","0.0","0.000720201656464","0.0","0.0010803024847","0.0","0.000360100828232","0.0","0.0","0.0","0.000360100828232","0.0","0.000360100828232","0.0010803024847","0.0","0.00144040331293","0.0","0.0","0.0","0.0","0.000720201656464","0.0","0.000360100828232","0.0","0.0","0.0","0.0","0.0","0.0","0.0","0.0","0.00252070579762","0.0","0.0","0.0","0.000360100828232","0.0","0.0","0.0","0.0","0.0","0.0","0.0","0.0","0.0","0.0","0.000360100828232","0.0","0.000720201656464","0.0","0.0","0.0","0.0","0.0","0.0","0.0","0.000360100828232","0.0010803024847","0.0","0.0","0.0","0.000360100828232","0.0","0.0","0.000720201656464","0.0","0.0","0.0","0.0010803024847","0.0","0.0","0.0","0.0","0.000360100828232","0.0","0.0","0.0","0.0","0.0","0.0","0.0","0.0","0.0","0.0","0.0","0.0","0.0","0.0","0.0","0.000360100828232","0.000360100828232","0.000360100828232","0.0010803024847","+"
"2016-11-29","Walmart","0.0","0.0","0.0","0.0","0.0","0.0","0.0","0.0","0.00118953211737","0.0","0.0","0.00158604282316","0.00555114988105","0.000793021411578","0.0","0.0","0.00793021411578","0.0","0.0","0.0","0.0","0.0","0.0","0.0","0.0","0.0","0.000396510705789","0.0","0.0","0.0","0.0","0.0","0.0","0.000396510705789","0.0","0.0","0.000396510705789","0.0114988104679","0.0","0.0","0.0","0.0","0.0","0.0","0.000396510705789","0.0","0.0","0.000793021411578","0.0","0.0","0.00118953211737","0.0","0.0","0.000396510705789","0.000396510705789","0.0","0.0","0.00158604282316","0.0","0.000396510705789","0.000793021411578","0.0","0.0","0.0","0.0","0.00158604282316","0.0","0.00118953211737","0.000396510705789","0.0","0.0","0.0","0.0","0.000793021411578","0.000396510705789","0.0","0.0","0.0","0.00198255352895","0.00594766058684","0.000793021411578","0.0","0.0","0.0","0.000396510705789","0.0","0.00118953211737","0.0","0.00118953211737","0.0","0.0","0.0","0.0","0.0","0.0","0.000396510705789","0.0","0.000396510705789","0.0","0.00118953211737","0.0","0.0","0.0","0.0","0.000396510705789","0.0","0.0","0.0","0.000793021411578","0.0","0.000396510705789","0.0","0.0","0.0","0.0","0.00237906423473","0.0","0.0","0.0","0.000396510705789","0.0","0.0","0.0","0.0","0.0","0.0","0.0","0.0","0.0","0.0","0.000396510705789","0.000396510705789","0.000793021411578","0.0","0.0","0.0","0.0","0.0","0.0","0.000793021411578","0.0","0.000396510705789","0.0","0.000396510705789","0.0","0.000793021411578","0.0","0.0","0.000793021411578","0.0","0.0","0.0","0.000396510705789","0.0","0.0","0.0","0.0","0.0","0.0","0.0","0.0","0.0","0.0","0.000396510705789","0.0","0.000793021411578","0.0","0.000396510705789","0.0","0.000396510705789","0.0","0.0","0.0","0.0","0.0","0.000793021411578","0.000396510705789","+"
